<?xml version='1.0' encoding='UTF-8'?>
<!-- This file was generated by dvisvgm 1.15.1 -->
<svg height='48.5887pt' version='1.1' viewBox='-0.239051 -0.228602 112.36 48.5887' width='112.36pt' xmlns='http://www.w3.org/2000/svg' xmlns:xlink='http://www.w3.org/1999/xlink'>
<defs>
<path d='M7.81868 -7.80672C7.95019 -7.95019 7.95019 -8.00996 7.95019 -8.05778C7.95019 -8.18929 7.84259 -8.29689 7.71108 -8.29689C7.63935 -8.29689 7.56762 -8.26102 7.44807 -8.12951L0.812951 -0.490162C0.705355 -0.37061 0.669489 -0.334745 0.669489 -0.239103C0.669489 0 0.896638 0 1.09988 0H7.53176C7.73499 0 7.95019 0 7.95019 -0.239103S7.73499 -0.478207 7.53176 -0.478207H1.43462L7.81868 -7.80672Z' id='g0-92'/>
<path d='M8.06974 -3.87347C8.23711 -3.87347 8.4523 -3.87347 8.4523 -4.08867C8.4523 -4.31582 8.24907 -4.31582 8.06974 -4.31582H1.02814C0.860772 -4.31582 0.645579 -4.31582 0.645579 -4.10062C0.645579 -3.87347 0.848817 -3.87347 1.02814 -3.87347H8.06974ZM8.06974 -1.64981C8.23711 -1.64981 8.4523 -1.64981 8.4523 -1.86501C8.4523 -2.09215 8.24907 -2.09215 8.06974 -2.09215H1.02814C0.860772 -2.09215 0.645579 -2.09215 0.645579 -1.87696C0.645579 -1.64981 0.848817 -1.64981 1.02814 -1.64981H8.06974Z' id='g3-61'/>
<path d='M2.03238 -1.32702C1.61395 -0.621669 1.20747 -0.382565 0.633624 -0.3467C0.502117 -0.334745 0.406476 -0.334745 0.406476 -0.119552C0.406476 -0.0478207 0.466252 0 0.549938 0C0.765131 0 1.30311 -0.0239103 1.51831 -0.0239103C1.86501 -0.0239103 2.24757 0 2.58232 0C2.65405 0 2.79751 0 2.79751 -0.227148C2.79751 -0.334745 2.70187 -0.3467 2.63014 -0.3467C2.35517 -0.37061 2.12802 -0.466252 2.12802 -0.753176C2.12802 -0.920548 2.19975 -1.05205 2.35517 -1.31507L3.26376 -2.82142H6.31233C6.32428 -2.71382 6.32428 -2.61818 6.33624 -2.51059C6.3721 -2.19975 6.51557 -0.956413 6.51557 -0.729265C6.51557 -0.37061 5.90585 -0.3467 5.71457 -0.3467C5.58306 -0.3467 5.45156 -0.3467 5.45156 -0.131507C5.45156 0 5.55915 0 5.63088 0C5.83412 0 6.07323 -0.0239103 6.27646 -0.0239103H6.95791C7.68717 -0.0239103 8.2132 0 8.22516 0C8.30884 0 8.44035 0 8.44035 -0.227148C8.44035 -0.3467 8.33275 -0.3467 8.15342 -0.3467C7.49589 -0.3467 7.48394 -0.454296 7.44807 -0.812951L6.7188 -8.27298C6.69489 -8.51208 6.64707 -8.53599 6.51557 -8.53599C6.39601 -8.53599 6.32428 -8.51208 6.21669 -8.33275L2.03238 -1.32702ZM3.467 -3.16812L5.86999 -7.18506L6.27646 -3.16812H3.467Z' id='g2-65'/>
<path d='M4.37559 -7.35243C4.48319 -7.79477 4.53101 -7.81868 4.99726 -7.81868H6.55143C7.90237 -7.81868 7.90237 -6.67098 7.90237 -6.56339C7.90237 -5.59502 6.934 -4.36364 5.35592 -4.36364H3.63437L4.37559 -7.35243ZM6.39601 -4.268C7.69913 -4.5071 8.88269 -5.41569 8.88269 -6.51557C8.88269 -7.44807 8.05778 -8.16538 6.70685 -8.16538H2.86924C2.64209 -8.16538 2.5345 -8.16538 2.5345 -7.93823C2.5345 -7.81868 2.64209 -7.81868 2.82142 -7.81868C3.55068 -7.81868 3.55068 -7.72304 3.55068 -7.59153C3.55068 -7.56762 3.55068 -7.49589 3.50286 -7.31656L1.88892 -0.884682C1.78132 -0.466252 1.75741 -0.3467 0.920548 -0.3467C0.6934 -0.3467 0.573848 -0.3467 0.573848 -0.131507C0.573848 0 0.645579 0 0.884682 0H4.98531C6.81445 0 8.22516 -1.3868 8.22516 -2.59427C8.22516 -3.5746 7.36438 -4.17235 6.39601 -4.268ZM4.69838 -0.3467H3.08443C2.91706 -0.3467 2.89315 -0.3467 2.82142 -0.358655C2.68991 -0.37061 2.67796 -0.394521 2.67796 -0.490162C2.67796 -0.573848 2.70187 -0.645579 2.72578 -0.753176L3.56264 -4.12453H5.81021C7.22092 -4.12453 7.22092 -2.80946 7.22092 -2.71382C7.22092 -1.56613 6.18082 -0.3467 4.69838 -0.3467Z' id='g2-66'/>
<path d='M8.93051 -8.30884C8.93051 -8.41644 8.84682 -8.41644 8.82291 -8.41644S8.75118 -8.41644 8.65554 -8.29689L7.83064 -7.29265C7.4122 -8.00996 6.75467 -8.41644 5.85803 -8.41644C3.27572 -8.41644 0.597758 -5.79826 0.597758 -2.98879C0.597758 -0.992279 1.99651 0.251059 3.74197 0.251059C4.69838 0.251059 5.53524 -0.155417 6.22864 -0.74122C7.26874 -1.61395 7.57958 -2.7736 7.57958 -2.86924C7.57958 -2.97684 7.48394 -2.97684 7.44807 -2.97684C7.34047 -2.97684 7.32852 -2.90511 7.30461 -2.85729C6.75467 -0.992279 5.14072 -0.0956413 3.94521 -0.0956413C2.67796 -0.0956413 1.57808 -0.908593 1.57808 -2.60623C1.57808 -2.98879 1.69763 -5.06899 3.04857 -6.63512C3.7061 -7.40025 4.82989 -8.06974 5.96563 -8.06974C7.2807 -8.06974 7.8665 -6.98182 7.8665 -5.76239C7.8665 -5.45156 7.83064 -5.18854 7.83064 -5.14072C7.83064 -5.03313 7.95019 -5.03313 7.98605 -5.03313C8.11756 -5.03313 8.12951 -5.04508 8.17733 -5.26027L8.93051 -8.30884Z' id='g2-67'/>
<path d='M1.87696 -0.884682C1.76936 -0.466252 1.74545 -0.3467 0.908593 -0.3467C0.681445 -0.3467 0.561893 -0.3467 0.561893 -0.131507C0.561893 0 0.633624 0 0.872727 0H4.66252C7.07746 0 9.43263 -2.49863 9.43263 -5.16463C9.43263 -6.88618 8.40448 -8.16538 6.69489 -8.16538H2.85729C2.63014 -8.16538 2.52254 -8.16538 2.52254 -7.93823C2.52254 -7.81868 2.63014 -7.81868 2.80946 -7.81868C3.53873 -7.81868 3.53873 -7.72304 3.53873 -7.59153C3.53873 -7.56762 3.53873 -7.49589 3.49091 -7.31656L1.87696 -0.884682ZM4.3995 -7.35243C4.5071 -7.79477 4.55492 -7.81868 5.02117 -7.81868H6.33624C7.46002 -7.81868 8.48817 -7.20897 8.48817 -5.55915C8.48817 -4.96139 8.24907 -2.8812 7.08941 -1.56613C6.75467 -1.17161 5.84608 -0.3467 4.47123 -0.3467H3.10834C2.94097 -0.3467 2.91706 -0.3467 2.84533 -0.358655C2.71382 -0.37061 2.70187 -0.394521 2.70187 -0.490162C2.70187 -0.573848 2.72578 -0.645579 2.74969 -0.753176L4.3995 -7.35243Z' id='g2-68'/>
<path d='M8.67945 -5.23636C8.67945 -7.20897 7.38829 -8.41644 5.71457 -8.41644C3.15616 -8.41644 0.573848 -5.66675 0.573848 -2.90511C0.573848 -1.02814 1.81719 0.251059 3.55068 0.251059C6.06127 0.251059 8.67945 -2.36712 8.67945 -5.23636ZM3.62242 -0.0239103C2.64209 -0.0239103 1.60199 -0.74122 1.60199 -2.60623C1.60199 -3.69415 1.99651 -5.47547 2.97684 -6.67098C3.84956 -7.72304 4.8538 -8.15342 5.65479 -8.15342C6.70685 -8.15342 7.72304 -7.38829 7.72304 -5.66675C7.72304 -4.60274 7.26874 -2.94097 6.46775 -1.80523C5.59502 -0.585803 4.5071 -0.0239103 3.62242 -0.0239103Z' id='g2-79'/>
<path d='M6.0254 5.41569C6.0254 4.43537 6.28842 2.15193 8.41644 0.645579C8.57186 0.526027 8.58381 0.514072 8.58381 0.298879C8.58381 0.0239103 8.57186 0.0119552 8.27298 0.0119552H8.08169C5.51133 1.39875 4.59078 3.65828 4.59078 5.41569V10.5564C4.59078 10.8672 4.60274 10.8792 4.92553 10.8792H5.69066C6.01345 10.8792 6.0254 10.8672 6.0254 10.5564V5.41569Z' id='g1-56'/>
<path d='M8.27298 10.7477C8.57186 10.7477 8.58381 10.7357 8.58381 10.4608C8.58381 10.2456 8.57186 10.2336 8.52403 10.1978C8.15342 9.92279 7.29265 9.31308 6.73076 8.2132C6.26451 7.30461 6.0254 6.38406 6.0254 5.34396V0.203238C6.0254 -0.107597 6.01345 -0.119552 5.69066 -0.119552H4.92553C4.60274 -0.119552 4.59078 -0.107597 4.59078 0.203238V5.34396C4.59078 7.11333 5.51133 9.37285 8.08169 10.7477H8.27298Z' id='g1-58'/>
<path d='M4.59078 21.3161C4.59078 21.6269 4.60274 21.6389 4.92553 21.6389H5.69066C6.01345 21.6389 6.0254 21.6269 6.0254 21.3161V16.271C6.0254 14.8244 5.41569 12.3856 2.73773 10.7597C5.4396 9.12179 6.0254 6.65903 6.0254 5.24832V0.203238C6.0254 -0.107597 6.01345 -0.119552 5.69066 -0.119552H4.92553C4.60274 -0.119552 4.59078 -0.107597 4.59078 0.203238V5.26027C4.59078 6.26451 4.37559 8.75118 2.17584 10.4249C2.04433 10.5325 2.03238 10.5445 2.03238 10.7597S2.04433 10.9868 2.17584 11.0944C2.48667 11.3335 3.31158 11.9671 3.88543 13.1746C4.35168 14.131 4.59078 15.195 4.59078 16.259V21.3161Z' id='g1-60'/>
</defs>
<g id='page1' transform='matrix(1.13 0 0 1.13 -63.986 -61.1892)'>
<use x='56.4133' xlink:href='#g1-56' y='53.9475'/>
<use x='56.4133' xlink:href='#g1-60' y='64.7072'/>
<use x='56.4133' xlink:href='#g1-58' y='86.2267'/>
<use x='83.4962' xlink:href='#g0-92' y='63.9103'/>
<use x='92.0982' xlink:href='#g2-67' y='63.9103'/>
<use x='104.621' xlink:href='#g3-61' y='63.9103'/>
<use x='117.013' xlink:href='#g0-92' y='63.9103'/>
<use x='125.615' xlink:href='#g2-68' y='63.9103'/>
<use x='67.0401' xlink:href='#g0-92' y='78.3561'/>
<use x='75.6422' xlink:href='#g2-65' y='78.3561'/>
<use x='84.3847' xlink:href='#g2-79' y='78.3561'/>
<use x='93.6225' xlink:href='#g2-67' y='78.3561'/>
<use x='106.146' xlink:href='#g3-61' y='78.3561'/>
<use x='118.537' xlink:href='#g0-92' y='78.3561'/>
<use x='127.139' xlink:href='#g2-66' y='78.3561'/>
<use x='136.602' xlink:href='#g2-79' y='78.3561'/>
<use x='145.84' xlink:href='#g2-68' y='78.3561'/>
<use x='85.3135' xlink:href='#g2-79' y='92.8019'/>
<use x='94.5513' xlink:href='#g2-65' y='92.8019'/>
<use x='106.615' xlink:href='#g3-61' y='92.8019'/>
<use x='119.006' xlink:href='#g2-79' y='92.8019'/>
<use x='128.244' xlink:href='#g2-66' y='92.8019'/>
</g>
</svg>
