{
    "couID": 1,
    "pages": [
        {
            "kind": "cover",
            "title": "第二讲：一元一次不等式和不等式组",
            "description": "1.\n了解一元一次不等式（组）的概念；<br>2.\n掌握一元一次不等式的解法，并能在数轴上表示一元一次不等式的解集；<br>3.\n掌握一元一次不等式组的解法，会用数轴确定由两个一元一次不等式组成的不等式组的解集；<br>4.\n能根据实际问题中的数量关系，列出一元一次不等式(组)解决简单的实际问题.\n"
        },
        {
            "kind": "kpt",
            "name": "一元一次不等式",
            "sub": [
                "　　<b>1.\n定义：</b>含有<b>一个</b>未知数，未知数的次数是<b>1</b>的不等式，叫做一元一次不等式.\n<br>&nbsp;&nbsp;&nbsp;&nbsp;&nbsp;&nbsp;&nbsp;&nbsp;<b>判别条件：</b>(1)都是整式；(2)只含一个未知数；(3)未知数的次数是1；(4)未知数的系数不为O.\n<br>&nbsp;&nbsp;&nbsp;&nbsp;&nbsp;&nbsp;&nbsp;&nbsp;<b>2.\n一元一次不等式与一元一次方程间的关系：</b><br>&nbsp;&nbsp;&nbsp;&nbsp;&nbsp;&nbsp;&nbsp;&nbsp;<b>相同点：</b>两者都只含一个未知数，未知数的次数都是1，左、右两边都是整式；<br>&nbsp;&nbsp;&nbsp;&nbsp;&nbsp;&nbsp;&nbsp;&nbsp;<b>不同点：</b>一元一次方程表示的是<b>相等关系</b>，而一元一次不等式表示的是<b>不等关系</b>.\n<br>&nbsp;&nbsp;&nbsp;&nbsp;&nbsp;&nbsp;&nbsp;&nbsp;<b>3.\n易错警示：</b>判断一个不等式是否为一元一次不等式，必须化简整理后再判断，如果化简后不等号的两边都是整式且只含一个未知数，未知数的次数为1且系数不为0，那么此不等式为一元一次不等式.\n"
            ]
        },
        {
            "kind": "example",
            "label": "题型一 利用定义识别一元一次不等式",
            "type": 1,
            "Q": "下列不等式中，一元一次不等式有（　　）<br>①<i>x ² </i> + 3 &gt; 2<i>x</i>； ②<span class=\"mathquill-rendered-math\">\\frac{1}{x}－3 &gt; 0</span>； ③<i>x</i>－3 &gt; 2<i>y</i>； ④<span class=\"mathquill-rendered-math\">\\frac{x－1}{\\pi }\\ge 5\\pi</span>； ⑤3<i>y</i>>－3；",
            "opts": [
                "1个",
                "2个",
                "3个",
                "4个"
            ],
            "way": "根据一元一次不等式的定义“不等式的两边都是整式，只含有一个未知数，并且未知数的最高次数是1”，进行判断即可得出答案.\n",
            "step": "(1)存在二次项，错误；<br>(2)未知数在分母上，是分式方程，错误；<br>(3)有两个未知数，所以不是一元一次不等式，错误；<br>(4)π是数字不是字母，是一元一次不等式；(5)是一元一次不等式；(1)(2)(3)不符合，(4)中分母上的π是常数，所以(4)(5)符合一元一次不等式的定义.\n<br>所以B选项是正确的.\n",
            "notice": "本题考查一元一次不等式的识别，注意理解一元一次不等式的三个特点：<br>(1)不等式的两边都是整式；<br>(2)只含1个未知数；<br>(3)未知数的次数是1次.\n"
        },
        {
            "kind": "ques",
            "type": 1,
            "Q": "下列各式中，是一元一次不等式组的有（　　）<br>①<span class=\"mathquill-rendered-math\">\\frac{2}{x} &lt; 3</span>； ②<i>x ²  + y ² </i> &gt; 0； ③4<i>a</i> ≠ 3<i>b</i>； ④<span class=\"mathquill-rendered-math\">\\frac{3}{2}x &lt; \\frac{2}{3}</span>； ⑤<i>x ² </i> + 2<i>x</i> + 1 &ge; 0； ⑥<span class=\"mathquill-rendered-math\">\\frac{1}{2}x－4 &lt; x</span>",
            "opts": [
                "1个",
                "2个",
                "3个",
                "4个"
            ],
            "step": "答案：B.\n"
        },
        {
            "kind": "kpt",
            "name": "一元一次不等式的解法",
            "sub": [
                "　　<b>l.\n解一元一次不等式的步骤：</b><br>&nbsp;&nbsp;&nbsp;&nbsp;&nbsp;&nbsp;&nbsp;&nbsp;(1)去分母；(2)<b>去括号</b>；(3)<b>移项</b>；(4)合并同类项；(5)<b>系数化为1</b>.\n<br>&nbsp;&nbsp;&nbsp;&nbsp;&nbsp;&nbsp;&nbsp;&nbsp;<b>2.\n解一元一次不等式与解一元一次方程的区别与联系：</b><br>解一元一次不等式的步骤与解一元一次方程的步骤非常相似，即前四步的去分母、去括号、移项、合并同类项都一样，不同之处主要表现在：在整个过程中，解一元一次方程用的是等式的性质；而解一元一次不等式用的是不等式的性质，即解一元一次不等式时，要特别注意负号和不等号的方向问题.\n<br>&nbsp;&nbsp;&nbsp;&nbsp;&nbsp;&nbsp;&nbsp;&nbsp;<b>3.\n易错警示：</b>在去分母和系数化为1时，如果不等式两边都乘(或除以)<b>同一个负数</b>，不等号要<b>改变方向</b>.\n"
            ]
        },
        {
            "kind": "example",
            "label": "题型一 利用一元一次不等式的解法步骤解一元一次不等式",
            "type": 9,
            "Q": "解不等式<span class=\"mathquill-rendered-math\">x－\\frac{3x－8}{2} + 1\\ge \\frac{2\\left( 10－x \\right)}{7}</span>",
            "way": "首先进行去分母，然后进行去括号，移项合并同类项，从而得出不等式的解.\n",
            "step": "去分母得：14<i>x</i>－7(3<i>x</i>－8) + 14 &ge; 4(10－<i>x</i>)<br>去括号，得：14<i>x</i>－21<i>x</i> + 56 + 14 &ge; 40－4<i>x</i><br>移项，得：14<i>x</i>－21<i>x</i> + 4<i>x</i> &ge; 40－56－14<br>合并同类项，得：－3<i>x</i> &ge; －30<br>解得：<i>x</i> &le; 10.\n",
            "notice": "解一元一次不等式时，<b>有两步可能会改变不等号的方向：</b><b>其一</b>去分母；<b>其二</b>系数化为1.\n为了使问题更加简便，可以在“去分母”这一步里，两边同乘一个正数，这样，使“改变不等号方向”的问题落到“系数化为1”这一步，由于要注意的只有这步，这样就不容易出错了.\n"
        },
        {
            "kind": "ques",
            "type": 9,
            "Q": "解不等式，并把解集在数轴上表示出来.\n<br><span class=\"mathquill-rendered-math\">\\frac{x}{2}－\\frac{5x－7}{3}\\ge 1－\\frac{3x－5}{4}</span>.\n",
            "step": "去分母，得：6<i>x</i>－4(5<i>x</i>－7) &ge; 12－3(3<i>x</i>－5)，<br>去括号，得：6<i>x</i>－20<i>x</i> + 28 &ge; 12－9<i>x</i> + 15，<br>移项合并同类项，得：－5<i>x</i> &ge; －1，系数化1，得：<span class=\"mathquill-rendered-math\">x\\le \\frac{1}{5}</span>.\n<br>数轴如下图所示<br><img src=\"1.png\" style=\"vertical-align:middle;margin:0.5rem;width:13.44em;\">"
        },
        {
            "kind": "example",
            "label": "题型二 利用解集确定一元一次不等式的特殊解",
            "type": 9,
            "Q": "求不等式3(x + 1) &ge; 5x－5的非负整数解.\n",
            "way": "先求出不等式的解集，再按照题目的要求求出特殊解.\n",
            "step": "解不等式3(x + 1) &ge; 5x－5，得x &le; 4.\n<br>所以这个不等式的非负整数解为0，1，2，3，4.\n",
            "notice": "正确理解关键词语的含义是准确解题的关键，“非负整数解”即0和正整数解.\n"
        },
        {
            "kind": "ques",
            "type": 9,
            "Q": "求不等式<span class=\"mathquill-rendered-math\">－\\frac{1}{3}\\left( x－9 \\right)\\ge \\frac{1}{2}\\left( x + 1 \\right)</span>的非负整数解.\n",
            "step": "去分母，得：－2(<i>x</i>－9) &ge; 3(<i>x</i> + 1)，<br>去括号，得：－2<i>x</i> + 18 &ge; 3<i>x</i> + 3，<br>移项得：－2<i>x</i>－3<i>x</i> &ge; 3－18，<br>合并同类项：－5<i>x</i> &ge; －15，<br>系数化1得：<i>x</i> &le; 3，<br>故不等式<span class=\"mathquill-rendered-math\">－\\frac{1}{3}\\left( x－9 \\right)\\ge \\frac{1}{2}\\left( x + 1 \\right)</span>的非负整数解为：0，1，2，3.\n"
        },
        {
            "kind": "example",
            "label": "题型三 利用一元一次不等式的解集求字母的值",
            "type": 1,
            "Q": "如果关于<i>x</i>的不等式(<i>a</i>－1)<i>x &lt; a</i> + 5和2<i>x</i> &lt; 4的解集相同，则<i>a</i>的值为（　　）",
            "opts": [
                "7",
                "8",
                "9",
                "10"
            ],
            "way": "先把字母<i>a</i>当成常数，求出两个关于<i>x</i>的不等式的解集，再根据两个不等式的解集相同，得出关于<i>a</i>的方程，最后求出<i>a</i>的值.\n",
            "step": "由2<i>x</i> &lt; 4可知<i>x</i> &lt; 2；<br>（1）当<i>a</i> &gt; 1时，(<i>a</i>－1)<i>x</i> &lt; <i>a</i> + 5可化为：<span class=\"mathquill-rendered-math\">x &lt; \\frac{a + 5}{a－1}</span>，<br>∴<span class=\"mathquill-rendered-math\">\\frac{a + 5}{a－1} = 2</span>，<br>解得：<i>a</i> = 7；<br>（2）当<i>a</i> = 1时，<i>x</i>取一切实数；<br>（3）当<i>a</i> &lt; 1时，(<i>a</i>－1)<i>x</i> &lt; <i>a</i> + 5可化为：<span class=\"mathquill-rendered-math\">x &gt; \\frac{a + 5}{a－1}</span>，<br>与题意不符，故不成立.\n综上，可知<i>a</i> = 7；<br>故选A.\n",
            "notice": "(1)化简整理后，若未知数的系数含字母，则需分类讨论；若未知数的系数不含字母，则不需讨论，直接由两不等式解集间的关系求字母常数的值或范围.\n<br>(2)若<i>x &gt; a</i>与<i>x &gt; b</i>解集相同，则<i>a = b</i>；若<i>x &gt; a</i>的解是<i>x &gt; b</i>的解，则<i>a &ge; b</i>，不要误认为<i>a = b</i>，这里实质是<i>x &gt; b</i>的解集包含<i>x &gt; a</i>的解集.\n"
        },
        {
            "kind": "ques",
            "type": 1,
            "Q": "如果关于<i>x</i>的不等式(<i>a</i> + 2012)<i>x</i> &gt; <i>a</i> + 2012的解集为<i>x</i> &lt; 1.\n那么<i>a</i>的取值范围是（　　）",
            "opts": [
                "<i>a</i> &gt; －2012",
                "<i>a</i> < -2012",
                "<i>a</i> &gt; 2012",
                "<i>a</i> < 2012"
            ],
            "step": "∵关于<i>x</i>的不等式(<i>a</i> + 2012)<i>x</i> &gt; <i>a</i> + 2012的解集为<i>x</i> &lt; 1，<br>∴<i>a</i> + 2012 &lt; 0，<br>即<i>a</i> &lt; －2012，<br>故选B.\n"
        },
        {
            "kind": "example",
            "label": "题型四 利用一元一次不等式的解集求字母取值范围",
            "type": 1,
            "Q": "如果不等式3<i>x－m</i> &le; 0有3个正整数解，那么<i>m</i>的取值不可以是（　　）",
            "opts": [
                "9",
                "10",
                "11",
                "12"
            ],
            "way": "先解不等式，再结合不等式的正整数解可得关于<i>m</i>的不等式，解之可得.\n",
            "step": "解3<i>x－m</i> &le; 0得<span class=\"mathquill-rendered-math\">x\\le \\frac{m}{3}</span>，<br>∵不等式3<i>x－m</i> &le; 0有3个正整数解，<br>∴不等式的正整数解为1、2、3，<br>∴<span class=\"mathquill-rendered-math\">3\\le \\frac{m}{3} &lt; 4</span>，<br>解得：9 &le; <i>m</i> &le; 12，<br>∴<i>m</i>的取值不可以是12，<br>故选：D.\n",
            "notice": "<b>已知一个不等式的解集满足特定要求，求字母参数的取值范围的方法：</b>我们可先解出这个含字母参数的不等式的解集，然后根据题意列出一个关于字母参数的不等式，从而可求出字母参数的取值范围.\n"
        },
        {
            "kind": "ques",
            "type": 1,
            "Q": "若实数3是不等式2<i>x－a</i>－2 &lt; 0的一个解，则<i>a</i>可取的最小正整数为（　　）",
            "opts": [
                "2",
                "3",
                "4",
                "5"
            ],
            "step": "根据题意，<i>x</i> = 3是不等式的一个解，<br>∴将<i>x</i> = 3代入不等式，得：6－<i>a</i>－2 &lt; 0，<br>解得：<i>a</i>>4，<br>则<i>a</i>可取的最小正整数为5，<br>故选：D.\n"
        },
        {
            "kind": "kpt",
            "name": "一元一次不等式的实际应用",
            "sub": [
                "　　<b>列不等式解应用题的基本步骤：</b><br>与列方程解应用题的步骤类似，可概括为：<b>“审、设、找、列、解、答”</b>六步；其不同点是方程是找相等关系，不等式是找不等关系.\n<br><b>注</b>：(1)列不等式解应用题的关键是建立不等式的模型；列不等式时要注意不等号是否包含等号；<br>(2)检验一个解是不是应用题的解时，必须满足两点：<b>一是</b>不等式的解；<b>二要</b>符合实际情况.\n"
            ]
        },
        {
            "kind": "example",
            "label": "题型一 利用建立不等式模型解决实际问题",
            "type": 9,
            "Q": "某物流公司，要将300吨物资运往某地，现有A、B两种型号的车可供调用，已知A型车每辆可装20吨，B型车每辆可装15吨，在每辆车不超载的条件下，把300吨物资装运完，问：在已确定调用5辆A型车的前提下至少还需调用B型车多少辆？",
            "way": "本题有一个不等关系，那就是A，B两种型号的汽车总共调运的物资的吨数不少于300 吨，根据这个不等关系，列出一个一元一次不等式，求出调用B型车辆数的范围.\n最后根据车辆数必须为整数，得出至少调用B型车的辆数.\n",
            "step": "设还需调用<i>x</i>辆B型车辆，则列出不等式为5 × 20 + 15x &ge; 300<br>解不等式，得<span class=\"mathquill-rendered-math\">x\\ge \\frac{40}{3}</span><br>因为车辆数是整数，则<i>x</i>最少取14时，就可完成任务，所以至少需要B型车辆14辆.\n",
            "notice": "建立不等式模型解决实际问题的关键是找出代表本题不等关系的式子，从而根据需要设出相应的未知数，然后得出结果.\n本题中由于车的辆数为正整数，因此要在这个范围内取最小整数解.\n"
        },
        {
            "kind": "ques",
            "type": 9,
            "Q": "在某校班际篮球联赛中，每场比赛都要分出胜负，每队胜一场得3分，负一场得1分，如果某班要在第一轮的28场比赛中至少得43分，那么这个班至少要胜多少场？",
            "step": "设这个班在比赛中胜<i>x</i>场，则负(28－<i>x</i>)场，根据题意可得3<i>x</i> + (28－<i>x</i>) &ge; 43，即2<i>x</i> &ge; 15，<span class=\"mathquill-rendered-math\">x\\ge \\frac{15}{2}</span>，因为<i>x</i>取整数，所以符合条件的<i>x</i>最小整数值为8，即至少要胜8场才能在第一轮比赛中至少得43分.\n"
        },
        {
            "kind": "example",
            "label": "题型二 (高频考点)利用不等式与方程组的模型解决综合应用问题",
            "type": 9,
            "Q": "某电器商场销售<i>A、B</i>两种型号计算器，两种计算器的进货价格分别为每台30元，40元，商场销售5台<i>A</i>型号和1台<i>B</i>型号计算器，可获利润76元；销售6台<i>A</i>型号和3台<i>B</i>型号计算器，可获利润120元.\n<br>(1)求商场销售<i>A、B</i>两种型号计算器的销售价格分别是多少元？(利润 = 销售价格 − 进货价格)<br>(2)商场准备用不多于2500元的资金购进<i>A、B</i>两种型号计算器共70台，问最少需要购进<i>A</i>型号的计算器多少台？",
            "way": "（1）首先设<i>A</i>种型号计算器的销售价格是<i>x</i>元，<i>B</i>种型号计算器的销售价格是<i>y</i>元，根据题意可等量关系：①5台<i>A</i>型号和1台<i>B</i>型号计算器，可获利润76元；②销售6台<i>A</i>型号和3台<i>B</i>型号计算器，可获利润120元，根据等量关系列出方程组，再解即可；<br>（2）根据题意表示出所用成本，进而得出不等式求出即可.\n",
            "step": "(1)设<i>A</i>种型号计算器的销售价格是<i>x</i>元，<i>B</i>种型号计算器的销售价格是<i>y</i>元，由题意得：<img src=\"1.svg\" style=\"vertical-align:middle;width:13em;\">，整理可得：<img src=\"2.svg\" style=\"vertical-align:middle;width:6em;\">，解得<img src=\"3.svg\" style=\"vertical-align:middle;width:3.5em;\">.\n<br><i>A</i>种型号计算器的销售价格是42元，<i>B</i>种型号计算器的销售价格是56元.\n<br>(2)设购进<i>A</i>型计算器<i>a</i>台 ， 则购进<i>B</i>台计算器：(70－<i>a</i>)台，<br>则30<i>a</i> + 40(70－<i>a</i>) &le; 2500，<br>解得：<i>a</i> &ge; 30，<br>所以最少需要购进<i>A</i>型号的计算器30台",
            "notice": "运用方程组或不等式解决实际问题时，从实际问题中发现相等关系或不等关系，通过方程组模型或不等式模型解决实际问题.\n列不等式解应用题时：首先审题找出题中的未知量和所有的已知量，直接设要求的未知量或间接设一关键的未知量为<i>x</i>，然后用含<i>x</i>的式子表示相关的量，找出其间的不等关系列不等式，求解，作答，即设、列、解、答.\n"
        },
        {
            "kind": "ques",
            "type": 9,
            "Q": "某大型快递公司使用机器人进行包裹分拣，若甲机器人工作2h，乙机器人工作4h，一共可以分拣700件包裹；若甲机器人工作3h，乙机器人工作2h，一共可以分拣650件包裹.\n<br>(1)求甲、乙两机器人每小时各分拣多少件包裹；<br>(2)“双十一”期间，快递公司的业务量猛增，要让甲、乙两机器人每天分拣包裹的总数量不低于2250件，它们每天至少要一起工作多少小时？",
            "step": "(1)设甲、乙两机器人每小时各分拣<i>x</i>件、<i>y</i>件包裹，根据题意得<br><img src=\"4.svg\" style=\"vertical-align:middle;width:6em;\">，计算得出<img src=\"5.svg\" style=\"vertical-align:middle;width:4em;\">，<br>答：甲、乙两机器人每小时各分拣150件、100件包裹；<br>(2)设它们每天要一起工作<i>t</i>小时，根据题意得<br>(150 + 100)<i>t</i> &ge; 2250，<br>计算得出<i>t</i> &ge; 9.\n<br>答：它们每天至少要一起工作9小时.\n"
        },
        {
            "kind": "kpt",
            "name": "一元一次不等式组",
            "sub": [
                "　　<b>1.\n定义：</b>把<b>几个</b>含有<b>相同未知数</b>的一元一次不等式合在一起，就组成了一个一元一次不等式组.\n<br><b>&nbsp;&nbsp;&nbsp;&nbsp;&nbsp;&nbsp;&nbsp;&nbsp;注：</b><br>&nbsp;&nbsp;&nbsp;&nbsp;&nbsp;&nbsp;&nbsp;&nbsp;(1)这里的“几个”是指两个或两个以上；<br>&nbsp;&nbsp;&nbsp;&nbsp;&nbsp;&nbsp;&nbsp;&nbsp;(2)每个不等式只能是一元一次不等式；<br>&nbsp;&nbsp;&nbsp;&nbsp;&nbsp;&nbsp;&nbsp;&nbsp;(3)每个不等式必须含有同一个未知数.\n<br><b>&nbsp;&nbsp;&nbsp;&nbsp;&nbsp;&nbsp;&nbsp;&nbsp;2.\n易错警示：</b>判断一个不等式组是否为一元一次不等式组，常出现以下几种错误：<br>&nbsp;&nbsp;&nbsp;&nbsp;&nbsp;&nbsp;&nbsp;&nbsp;①不等式组中不都是一元一次不等式；<br>&nbsp;&nbsp;&nbsp;&nbsp;&nbsp;&nbsp;&nbsp;&nbsp;②不等式组中不是只有一个未知数.\n"
            ]
        },
        {
            "kind": "example",
            "label": "题型一   一元一次不等式组的识别",
            "type": 9,
            "Q": "下列各不等式组中是一元一次不等式组的有________（填序号）<br><br>①<img src=\"6.svg\" style=\"vertical-align:middle;width:5.5em;\">&nbsp;&nbsp;&nbsp;&nbsp;&nbsp;&nbsp;&nbsp;&nbsp;②<img src=\"7.svg\" style=\"vertical-align:middle;width:5.5em;\">&nbsp;&nbsp;&nbsp;&nbsp;&nbsp;&nbsp;&nbsp;&nbsp;③<img src=\"8.svg\" style=\"vertical-align:middle;width:6em;\"><br><br>④<img src=\"9.svg\" style=\"vertical-align:middle;width:7em;\">&nbsp;&nbsp;&nbsp;&nbsp;&nbsp;⑤<img src=\"10.svg\" style=\"vertical-align:middle;width:5.5em;\">&nbsp;&nbsp;&nbsp;&nbsp;&nbsp;⑥<img src=\"11.svg\" style=\"vertical-align:middle;width:5.5em;\">",
            "way": "利用一元一次不等式组的定义来识别.\n",
            "step": "根据一元一次不等式组的定义可得，③④⑤是一元一次不等式组；<br>①中的不等式组含有两个未知数，不符合一元一次不等式组的定义，故不是一元一次不等式组；<br>②中未知数 的最高次数是2，不符合一元一次不等式组的定义，故不是一元一次不等式组.\n<br>⑥中的<span class=\"mathquill-rendered-math\">\\frac{1}{x}</span>不是整式，不符合一元一次不等式组的定义，故不是一元一次不等式组.\n",
            "notice": "<b>判定一个不等式组是否为一元一次不等式组，要从以下两个方面考虑：</b> <br>(1)组成不等式组的每个不等式必须是一元一次不等式；(2)这个不等式组中只含有一个未知数.\n"
        },
        {
            "kind": "ques",
            "type": 1,
            "Q": "下列各不等式组是一元一次不等式组的是（　　）",
            "opts": [
                "<img src=\"12.svg\" style=\"vertical-align:middle;width:5.5em;\">",
                "<img src=\"13.svg\" style=\"vertical-align:middle;width:5.5em;\">",
                "<img src=\"14.svg\" style=\"vertical-align:middle;width:5.5em;\">",
                "<img src=\"15.svg\" style=\"vertical-align:middle;width:5.5em;\">"
            ],
            "step": "答案：C.\n"
        },
        {
            "kind": "kpt",
            "name": "(难点)一元一次不等式组的解集",
            "sub": [
                "　　<b>1.\n定义：</b>一般地，几个不等式的解集的<b>公共部分</b>，叫做由它们所组成的不等式组的<b>解集</b>.\n<br><b>&nbsp;&nbsp;&nbsp;&nbsp;&nbsp;&nbsp;&nbsp;&nbsp;2.\n一元一次不等式组解集的四种情况：</b><br><table border=\"1\" cellpadding=\"0\" cellspacing=\"0\"><tr align=\"center\"><td width=\"16%\">不等式组(<i>a &gt; b</i>)</td><td width=\"21%\"><img src=\"16.svg\" style=\"vertical-align:middle;width:3em;\"></td><td width=\"21%\"><img src=\"17.svg\" style=\"vertical-align:middle;width:3em;\"></td><td width=\"21%\"><img src=\"18.svg\" style=\"vertical-align:middle;width:3em;\"></td><td width=\"21%\"><img src=\"19.svg\" style=\"vertical-align:middle;width:3em;\"></td></tr><tr align=\"center\"><td>不等式组的解集</td><td><i>x &gt; a</i></td><td><i>x &lt; b</i></td><td>无解</td><td><i>b &lt; x &lt; a</i></td></tr><tr align=\"center\"><td>不等式组的解集在数轴上的表示</td><td><img src=\"2.png\" style=\"vertical-align:middle;width:100%\"></td><td><img src=\"3.png\" style=\"vertical-align:middle;width:100%\"></td><td><img src=\"4.png\" style=\"vertical-align:middle;width:100%\"></td><td><img src=\"5.png\" style=\"vertical-align:middle;width:100%\"></td></tr><tr align=\"center\"><td>巧记口诀</td><td>同大取大</td><td>同小取小</td><td>大大小小无处找</td><td>大小小大中间找</td></tr></table>"
            ]
        },
        {
            "kind": "example",
            "label": "题型一 利用数轴求下列不等式组的解集",
            "type": 9,
            "Q": "利用数轴，确定下列不等式组的解集<br>（1）<img src=\"20.svg\" style=\"vertical-align:middle;width:4.5em;\">； （2）<img src=\"21.svg\" style=\"vertical-align:middle;width:4.5em;\">； （3）<img src=\"22.svg\" style=\"vertical-align:middle;width:4.5em;\">； （4）<img src=\"23.svg\" style=\"vertical-align:middle;width:4.5em;\">.\n",
            "way": "将不等式组的两个不等式解集分别表示在数轴上，根据数轴确定两不等式解集的公共部分，从而得出不等式组的解集.\n",
            "step": "（1）将两不等式解集表示在数轴上如下所示：<br><img src=\"6.png\" style=\"vertical-align:middle;margin:0.5rem;width:13.5em;\"><br>故不等式组解集为：<i>x</i>>－2.5；<br>（2）将两不等式解集表示在数轴上如下所示：<br><img src=\"7.png\" style=\"vertical-align:middle;margin:0.5rem;width:25.56em;\"><br>故不等式组解集为：<i>x</i> &lt; －2.5；<br>（3）将两不等式解集表示在数轴上如下所示：<br><img src=\"8.png\" style=\"vertical-align:middle;margin:0.5rem;width:20.31em;\"><br>故不等式解集为：<span class=\"mathquill-rendered-math\">-5 &lt; x &lt; 4\\frac{1}{2}</span>；<br>（4）将两不等式解集表示在数轴上如下所示：<br><img src=\"9.png\" style=\"vertical-align:middle;margin:0.5rem;width:21.31em;\"><br>故不等式组无解.\n",
            "notice": "<b>确定一元一次不等式组解集的常用方法：</b><br>(1)<b>数轴法：</b>就是将几个不等式的解集在同一数轴上表示出来，然后标出它们的公共部分，这个公共部分就是此不等式组的解集，如果没有公共部分，那么这个不等式组无解.\n这种方法体现了数形结合思想，既直观又明了，易于掌握.\n<br>(2)<b>口诀法：</b>“同大取大”“同小取小”“大小小大中间找”“大大小小无处找”，该方法便于记忆.\n"
        },
        {
            "kind": "ques",
            "type": 9,
            "Q": "尝试利用数轴确定不等式组<img src=\"25.svg\" style=\"vertical-align:middle;width:6em;\">的解集.\n",
            "step": "<img src=\"26.svg\" style=\"vertical-align:middle;width:7.5em;\"><br>由①得，x &gt; －3，<br>由②得，x &gt; －6，<br>由③得：x &le; 6，<br>在数轴上表示为：<br>故此不等式组的解集为：－3 &lt; x &le; 6.\n<br><img src=\"10.png\" style=\"vertical-align:middle;margin:0.5rem;width:13.2em;\">"
        },
        {
            "kind": "example",
            "label": "题型二 逆用不等式组的解集的意义求字母的值",
            "type": 9,
            "Q": "(中考真题)关于<i>x</i>的不等式组<img src=\"27.svg\" style=\"vertical-align:middle;width:5em;\"> 的解集是<i>x</i> &gt; －1，则<i>m</i> = ________.\n",
            "way": "不等式组的解集是<i>x &gt; m</i> + 2，即<i>m</i> + 2 = －1，可求<i>m</i>.\n",
            "step": "因为<i>m</i> + 2 &gt; <i>m</i>－1，<br>所以不等式组的解集是<i>x &gt; m</i> + 2.\n<br>又因为不等式组的解集是<i>x</i> &gt; －1，<br>所以<i>m</i> + 2 = －1.\n<br>所以<i>m</i> = －3.\n",
            "notice": "解答这类题，一般先将字母视为常数，再逆用不等式组解集的意义，由不等式组的解集反推出含字母的方程，最后求出字母的值.\n"
        },
        {
            "kind": "ques",
            "type": 9,
            "Q": "(中考真题)若一元一次不等式组<img src=\"28.svg\" style=\"vertical-align:middle;width:5em;\"> 的解集为<i>x</i> &lt; －1，则<i>a</i>的取值范围是________.\n",
            "step": "由不等式组<img src=\"28.svg\" style=\"vertical-align:middle;width:5em;\">，得<img src=\"29.svg\" style=\"vertical-align:middle;width:4em;\"><br>因为不等式组<img src=\"28.svg\" style=\"vertical-align:middle;width:5em;\"> 的解集为<i>x</i> &lt; －1，<br>所以<i>a</i> &ge; －1.\n"
        },
        {
            "kind": "kpt",
            "name": "(重点)解一元一次不等式组",
            "sub": [
                "　　<b>1.\n定义：</b>求不等式组的解集的过程叫做解不等式组.\n<br><b>&nbsp;&nbsp;&nbsp;&nbsp;&nbsp;&nbsp;&nbsp;&nbsp;2.\n解一元一次不等式组的一般步骤：</b><br>&nbsp;&nbsp;&nbsp;&nbsp;&nbsp;&nbsp;&nbsp;&nbsp;(1)分别解每一个不等式；<br>&nbsp;&nbsp;&nbsp;&nbsp;&nbsp;&nbsp;&nbsp;&nbsp;(2)利用数轴法或口诀法确定不等式组的解集；<br>&nbsp;&nbsp;&nbsp;&nbsp;&nbsp;&nbsp;&nbsp;&nbsp;(3)写出不等式组的解集.\n<br>&nbsp;&nbsp;&nbsp;&nbsp;&nbsp;&nbsp;&nbsp;&nbsp;<b>注：</b>(1)在数轴上表示不等式组的解集时要注意两点，<b>一是</b>向右画还是向左画；<b>二是</b>用实心圆点还是空心圆圈.\n<br>&nbsp;&nbsp;&nbsp;&nbsp;&nbsp;&nbsp;&nbsp;&nbsp;(2)当一个不等式组含有三个或三个以上的不等式时，也可通过数轴寻找这几个不等式的解集的公共部分.\n"
            ]
        },
        {
            "kind": "example",
            "label": "题型一 利用解不等式组的步骤解一元一次不等式组",
            "type": 9,
            "Q": "解下列一元一次不等式组：<br>1.\n<img src=\"30.svg\" style=\"vertical-align:middle;width:7em;\"><br>2.\n<img src=\"31.svg\" style=\"vertical-align:middle;width:8em;\">",
            "way": "根据解不等式组的一般步骤，分别解不等式组中的每个不等式，把它们的解集在数轴上表示出来，找出解集的公共部分，从而得出不等式组的解集.\n",
            "step": "1.\n<img src=\"32.svg\" style=\"vertical-align:middle;width:9em;\">；<br>解不等式①，得<i>x</i> &gt; 2.\n解不等式②，得<i>x</i> &gt; 4.\n在数轴上表示不等式①和②的解集，如图<br><img src=\"11.png\" style=\"vertical-align:middle;margin:0.5rem;width:7em;\"><br>这两个不等式解集的公共部分是<i>x</i> &gt; 4.\n<br>所以原不等式组的解集是<i>x</i> &gt; 4.\n<br>2.\n<img src=\"33.svg\" style=\"vertical-align:middle;width:10em;\">；<br>解不等式①，得<i>x</i> &lt; －2.\n解不等式②，得<i>x</i> &gt; 5.\n在数轴上表示不等式①和②的解集，如图<br><img src=\"12.png\" style=\"vertical-align:middle;margin:0.5rem;width:7em;\"><br>从数轴上可以看出，这两个不等式的解集没有公共部分.\n<br>所以原不等式组无解.\n"
        },
        {
            "kind": "ques",
            "type": 1,
            "Q": "不等式组<img src=\"34.svg\" style=\"vertical-align:middle;width:5em;\">的解集在数轴上的表示正确的是（　　）",
            "opts": [
                "<img src=\"13.png\" style=\"vertical-align:middle;width:9.5em;\">",
                "<img src=\"14.png\" style=\"vertical-align:middle;width:9.5em;\">",
                "<img src=\"15.png\" style=\"vertical-align:middle;width:9.5em;\">",
                "<img src=\"16.png\" style=\"vertical-align:middle;width:9.5em;\">"
            ],
            "step": "答案：D.\n"
        },
        {
            "kind": "ques",
            "type": 9,
            "Q": "<img src=\"35.svg\" style=\"vertical-align:middle;width:8em;\">",
            "step": "<img src=\"36.svg\" style=\"vertical-align:middle;width:9.5em;\">；<br>解不等式①，得<i>x</i> &gt; 2.5.\n解不等式②，得<i>x</i> &le; 4.\n在数轴上表示不等式①和②的解集，如图<br><img src=\"17.png\" style=\"vertical-align:middle;margin:0.5rem;width:9em;\"><br>这两个不等式解集的公共部分是2.5 &lt; <i>x</i> &le; 4.\n<br>所以原不等式组的解集是2.5 &lt; <i>x</i> &le; 4.\n",
            "notice": "<b>解不等式组的关键：一是</b>要正确地求出每个不等式的解集，<b>二是</b>要利用数轴正确地表示出每个不等式的解集，并找出不等式组的解集.\n"
        },
        {
            "kind": "example",
            "label": "题型二 利用不等式组的特殊解或解集求未知数的值或取值范围",
            "type": 9,
            "Q": "已知不等式组解集的情况<br>已知关于<i>x</i>的不等式组<img src=\"37.svg\" style=\"vertical-align:middle;width:6em;\">无解，则<i>a</i>的取值范围为________.\n",
            "way": "把<i>a</i>看成常数，解不等式组，再根据原不等式组无解，求出<i>a</i>的取值范围.\n",
            "step": "由不等式组<img src=\"38.svg\" style=\"vertical-align:middle;width:7em;\">，<br>将①移项、合并同类项得2<i>x</i> &le; 6，未知数<i>x</i>的系数化为1得<i>x</i> &le; 3，<br>由②得<i>x</i> &gt; <i>a</i>；<br>因为不等式组无解，所以<i>a</i> &ge; 3，故<i>a</i>的取值范围是<i>a</i> &ge; 3.\n",
            "notice": "“<i>a</i> = 3”这种特殊情况容易被忽视，检验等号是否满足题意在解题时必不可少.\n"
        },
        {
            "kind": "example",
            "type": 9,
            "Q": "若关于<i>x</i>的不等式<img src=\"39.svg\" style=\"vertical-align:middle;width:5em;\">的整数解共有4个，则<i>m</i>的取值范围是________.\n",
            "way": "解不等式组，得3 &le; <i>x &lt; m</i>，再由这个解集确定4个整数解，借助数轴，得到<i>m</i>的取值范围.\n",
            "step": "<img src=\"40.svg\" style=\"vertical-align:middle;width:7em;\">，<br>由①得：<i>x &lt; m</i>，<br>由②得：<i>x</i> &ge; 3，<br>∴不等式组的解集是3 &le; <i>x &lt; m</i>，<br>∵关于<i>x</i>的不等式<img src=\"39.svg\" style=\"vertical-align:middle;width:5em;\">的整数解共有4个，<br>6 &le; <i>m</i> &lt; 7，<br>因此，本题正确答案是：6 &le; <i>m</i> &lt; 7.\n",
            "notice": "“结合不等式组解集的确定方法，灵活运用不等式组解集的意义，构造不等式(或方程)是解此类问题的关键，本类题利用了<b>数形结合思想</b>.\n<br><b>注：</b>解题时<b><i>m</i> = 6</b>和<b><i>m</i> = 7</b>的情况易被忽视，做此类型题时需注意.\n"
        },
        {
            "kind": "ques",
            "type": 9,
            "Q": "如果关于x的不等式组<img src=\"41.svg\" style=\"vertical-align:middle;width:5em;\">，求满足下列情况时，常数<i>a</i>的取值范围：<br>（1）不等式组无解；<br>（2）不等式组只有3个整数解.\n",
            "step": "（1）∵不等式组无解，<br>∴2 &ge; 3<i>a</i>－2，<br>解得：<span class=\"mathquill-rendered-math\">a\\le \\frac{4}{3}</span>，<br>即常数<i>a</i>的取值范围是<span class=\"mathquill-rendered-math\">a\\le \\frac{4}{3}</span>；<br>（2）∵<img src=\"41.svg\" style=\"vertical-align:middle;width:5em;\">，<br>∴不等式组的解集为2 &lt; x &lt; 3<i>a</i>－2，<br>∵不等式组只有3个整数解，<br>∴5 &le; 3<i>a</i>－2 &lt; 6，<br>解得：<span class=\"mathquill-rendered-math\">\\frac{7}{3} &le; a &lt; \\frac{8}{3}</span>，<br>即<i>a</i>的取值范围为<span class=\"mathquill-rendered-math\">\\frac{7}{3} &le; a&lt; \\frac{8}{3}</span>.\n"
        },
        {
            "kind": "kpt",
            "name": "列一元一次不等式组",
            "sub": [
                "　　<b>1.\n基本步骤：</b>审→找→列→解→答(与列一元一次不等式相同)<br>&nbsp;&nbsp;&nbsp;&nbsp;&nbsp;&nbsp;&nbsp;&nbsp;(1)<b>审：</b>分清题中的已知量、未知量，并用字母表示未知量；<br>&nbsp;&nbsp;&nbsp;&nbsp;&nbsp;&nbsp;&nbsp;&nbsp;(2)<b>找：</b>找出题目中的不等关系；<br>&nbsp;&nbsp;&nbsp;&nbsp;&nbsp;&nbsp;&nbsp;&nbsp;(3)<b>列：</b>根据不等关系列出不等式组；<br>&nbsp;&nbsp;&nbsp;&nbsp;&nbsp;&nbsp;&nbsp;&nbsp;(4)<b>解：</b>求出不等式组的解集；<br>&nbsp;&nbsp;&nbsp;&nbsp;&nbsp;&nbsp;&nbsp;&nbsp;(5)<b>答：</b>检验解集是否合理，写出符合实际意义的答案.\n<br><b>&nbsp;&nbsp;&nbsp;&nbsp;&nbsp;&nbsp;&nbsp;&nbsp;2.\n易错警示：</b><br>&nbsp;&nbsp;&nbsp;&nbsp;&nbsp;&nbsp;&nbsp;&nbsp;(1)设未知数时，要去掉“不少于”“不超过”之类词语，换成确定性的词语；<br>&nbsp;&nbsp;&nbsp;&nbsp;&nbsp;&nbsp;&nbsp;&nbsp;(2)对答案的取舍要满足两个条件：<b>一要</b>符合题目要求；<b>二要</b>符合实际情况.\n"
            ]
        },
        {
            "kind": "example",
            "label": "题型一 利用不等式组解决实际应用中的方案问题",
            "type": 9,
            "Q": "我市某房地产开发公司计划建A、B两种户型的住房共80套，该公司所筹集资金不少于2090万元，但不超过2096万元，且所筹资金全部用于建房，两种户型的建房成本和售价如下表所示.\n<br><table width=\"100%\" border=\"1\" cellpadding=\"0\" cellspacing=\"0\"><tr align=\"center\"><td width=\"35%\"></td><td>A</td><td>B</td></tr><tr align=\"center\"><td>成本(万元/套)</td><td>25</td><td>28</td></tr><tr align=\"center\"><td>售价(万元/套)</td><td>30</td><td>34</td></tr></table><br>（1）该公司对这两种户型住房有哪几种建房方案？<br>（2）该公司如何建房获得利润最大？",
            "way": "（1）根据题意设出未知数，由题目给出的条件列出不等式并求解，注意到<i>x</i>为整数即可；<br>（2）根据题目给的表格可先算出两种房型的利润并写出利润的表达式，再由（1）比较每种情况下利润的大小即可求解.\n",
            "step": "（1）设建A型<i>x</i>套，则建B型(80－<i>x</i>)套，由题意可得：<br>2090 &le; 25x + 28(8－x) &le; 2096，解得： 48 &le; x &le; 50，因为<i>x</i>为整数，所以<i>x</i> = 48，49，50；共三种方案，如表所示.\n<br><table width=\"100%\" border=\"1\" cellpadding=\"0\" cellspacing=\"0\"><tr align=\"center\"><td width=\"35%\">方案</td><td>A</td><td>B</td></tr><tr align=\"center\"><td>一</td><td>48</td><td>32</td></tr><tr align=\"center\"><td>二</td><td>49</td><td>31</td></tr><tr align=\"center\"><td>三</td><td>50</td><td>30</td></tr></table><br>（2）设利润为<i>w</i>万元，则：<i>w</i> = 5<i>x</i> + 6(80－<i>x</i>) = 480－<i>x</i>，所以当<i>x</i> = 48时，<i>w</i>有最大值，为432万元，故建A型48套，B型32套，获最大利润是432万元；",
            "notice": "“<b>求实际问题中方案的种类或最大值(最小值)问题的方法：</b>常通过求不等式(组)的解集，分类讨论找出答案，即先根据题意，设出未知数，列出不等式(组)，求出相应的取值范围，再根据题目的条件分类讨论，写出答案.\n"
        },
        {
            "kind": "ques",
            "type": 9,
            "Q": "(<b>中考真题</b>)某市教育局对某镇实施“教育精准扶贫”，为某镇建中、小型两种图书室共30个.\n计划养殖类图书不超过2000本，种植类图书不超过1600本.\n已知组建一个中型图书室需养殖类图书80本，种植类图书50本；组建一个小型图书室需养殖类图书30本，种植类图书60本.\n<br>（1）符合题意的组建方案有几种？请写出具体的组建方案；<br>（2）若组建一个中型图书室的费用是2000元，组建一个小型图书室的费用是1500元，哪种方案费用最低，最低费用是多少元？",
            "step": "（1）设组建中型两类图书室<i>x</i>个、小型两类图书室(30－<i>x</i>)个.\n<br>由题意，得<img src=\"42.svg\" style=\"vertical-align:middle;width:9.5em;\">，<br>化简得<img src=\"43.svg\" style=\"vertical-align:middle;width:4.5em;\">，<br>解这个不等式组，得20 &le; x &le; 22.\n<br>由于<i>x</i>只能取整数，∴ <i>x</i>的取值是20，21，22.\n<br>当<i>x</i> = 20时，30－<i>x</i> = 10；<br>当<i>x</i> = 21时，30－<i>x</i> = 9；<br>当<i>x</i> = 22时，30－<i>x</i> = 8.\n<br>故有三种组建方案：<br>方案一，中型图书室20个，小型图书室10个；<br>方案二，中型图书室21个，小型图书室9个；<br>方案三，中型图书室22个，小型图书室8个.\n<br><br>（2）方案一的费用是：2000 × 20 + 1500 × 10 = 55000（元）；<br>方案二的费用是：2000 × 21 + 1500 × 9 = 55500（元）；<br>方案三的费用是：2000 × 22 + 1500 × 8 = 56000（元）；<br>故方案一费用最低，最低费用是55000元"
        }
    ]
}