<?xml version='1.0' encoding='UTF-8'?>
<!-- This file was generated by dvisvgm 1.15.1 -->
<svg height='29.4752pt' version='1.1' viewBox='-0.299738 -0.246805 59.977 29.4752' width='59.977pt' xmlns='http://www.w3.org/2000/svg' xmlns:xlink='http://www.w3.org/1999/xlink'>
<defs>
<path d='M4.53818 16.2436C4.53818 15.7309 4.53818 14.9236 3.85091 14.04C3.42545 13.4945 2.80364 12.9927 2.05091 12.6545C4.17818 11.6291 4.53818 10.0582 4.53818 9.43636V3.15273C4.53818 2.47636 4.53818 1.08 6.65454 0.0327273C6.74182 -0.0109091 6.74182 -0.0327273 6.74182 -0.196364C6.74182 -0.425454 6.74182 -0.436364 6.50182 -0.436364C6.34909 -0.436364 6.32727 -0.436364 6.04363 -0.305454C4.96363 0.229091 3.89454 1.09091 3.66545 2.42182C3.63273 2.64 3.63273 2.73818 3.63273 3.46909V8.50909C3.63273 8.84727 3.63273 9.41454 3.62182 9.53454C3.52364 10.68 2.85818 11.6727 1.61455 12.36C1.44 12.4582 1.42909 12.4691 1.42909 12.6436C1.42909 12.8291 1.44 12.84 1.59273 12.9273C2.32364 13.3309 3.37091 14.1164 3.58909 15.48C3.63273 15.7309 3.63273 15.7527 3.63273 15.8727V22.3527C3.63273 23.9345 4.72364 24.9709 6.07636 25.6145C6.31636 25.7345 6.33818 25.7345 6.50182 25.7345C6.73091 25.7345 6.74182 25.7345 6.74182 25.4945C6.74182 25.32 6.73091 25.3091 6.64363 25.2545C6.19636 25.0364 4.78909 24.3273 4.56 22.7564C4.53818 22.6036 4.53818 22.4836 4.53818 21.8291V16.2436Z' id='g0-26'/>
<path d='M5.01818 -3.49091C5.01818 -4.36364 4.96363 -5.23636 4.58182 -6.04363C4.08 -7.09091 3.18545 -7.26545 2.72727 -7.26545C2.07273 -7.26545 1.27636 -6.98182 0.829091 -5.96727C0.48 -5.21454 0.425454 -4.36364 0.425454 -3.49091C0.425454 -2.67273 0.469091 -1.69091 0.916363 -0.861818C1.38545 0.0218182 2.18182 0.24 2.71636 0.24C3.30545 0.24 4.13454 0.0109091 4.61454 -1.02545C4.96363 -1.77818 5.01818 -2.62909 5.01818 -3.49091ZM2.71636 0C2.29091 0 1.64727 -0.272727 1.45091 -1.32C1.33091 -1.97454 1.33091 -2.97818 1.33091 -3.62182C1.33091 -4.32 1.33091 -5.04 1.41818 -5.62909C1.62545 -6.92727 2.44364 -7.02545 2.71636 -7.02545C3.07636 -7.02545 3.79636 -6.82909 4.00364 -5.74909C4.11273 -5.13818 4.11273 -4.30909 4.11273 -3.62182C4.11273 -2.80364 4.11273 -2.06182 3.99273 -1.36364C3.82909 -0.327273 3.20727 0 2.71636 0Z' id='g3-48'/>
<path d='M1.38545 -0.84L2.54182 -1.96364C4.24364 -3.46909 4.89818 -4.05818 4.89818 -5.14909C4.89818 -6.39273 3.91636 -7.26545 2.58545 -7.26545C1.35273 -7.26545 0.545454 -6.26182 0.545454 -5.29091C0.545454 -4.68 1.09091 -4.68 1.12364 -4.68C1.30909 -4.68 1.69091 -4.81091 1.69091 -5.25818C1.69091 -5.54182 1.49455 -5.82545 1.11273 -5.82545C1.02545 -5.82545 1.00364 -5.82545 0.970909 -5.81454C1.22182 -6.52363 1.81091 -6.92727 2.44364 -6.92727C3.43636 -6.92727 3.90545 -6.04363 3.90545 -5.14909C3.90545 -4.27636 3.36 -3.41454 2.76 -2.73818L0.665454 -0.403636C0.545454 -0.283636 0.545454 -0.261818 0.545454 0H4.59273L4.89818 -1.89818H4.62545C4.57091 -1.57091 4.49454 -1.09091 4.38545 -0.927272C4.30909 -0.84 3.58909 -0.84 3.34909 -0.84H1.38545Z' id='g3-50'/>
<path d='M3.16364 -3.84C4.05818 -4.13454 4.69091 -4.89818 4.69091 -5.76C4.69091 -6.65454 3.73091 -7.26545 2.68364 -7.26545C1.58182 -7.26545 0.752727 -6.61091 0.752727 -5.78182C0.752727 -5.42182 0.992727 -5.21454 1.30909 -5.21454C1.64727 -5.21454 1.86545 -5.45454 1.86545 -5.77091C1.86545 -6.31636 1.35273 -6.31636 1.18909 -6.31636C1.52727 -6.85091 2.24727 -6.99273 2.64 -6.99273C3.08727 -6.99273 3.68727 -6.75273 3.68727 -5.77091C3.68727 -5.64 3.66545 -5.00727 3.38182 -4.52727C3.05454 -4.00364 2.68364 -3.97091 2.41091 -3.96C2.32364 -3.94909 2.06182 -3.92727 1.98545 -3.92727C1.89818 -3.91636 1.82182 -3.90545 1.82182 -3.79636C1.82182 -3.67636 1.89818 -3.67636 2.08364 -3.67636H2.56364C3.45818 -3.67636 3.86182 -2.93454 3.86182 -1.86545C3.86182 -0.381818 3.10909 -0.0654545 2.62909 -0.0654545C2.16 -0.0654545 1.34182 -0.250909 0.96 -0.894545C1.34182 -0.84 1.68 -1.08 1.68 -1.49455C1.68 -1.88727 1.38545 -2.10545 1.06909 -2.10545C0.807273 -2.10545 0.458182 -1.95273 0.458182 -1.47273C0.458182 -0.48 1.47273 0.24 2.66182 0.24C3.99273 0.24 4.98545 -0.752727 4.98545 -1.86545C4.98545 -2.76 4.29818 -3.61091 3.16364 -3.84Z' id='g3-51'/>
<path d='M3.64364 -3.29454C3.70909 -3.57818 3.96 -4.58182 4.72364 -4.58182C4.77818 -4.58182 5.04 -4.58182 5.26909 -4.44C4.96363 -4.38545 4.74545 -4.11273 4.74545 -3.85091C4.74545 -3.67636 4.86545 -3.46909 5.16 -3.46909C5.4 -3.46909 5.74909 -3.66545 5.74909 -4.10182C5.74909 -4.66909 5.10545 -4.82182 4.73454 -4.82182C4.10182 -4.82182 3.72 -4.24364 3.58909 -3.99273C3.31636 -4.71273 2.72727 -4.82182 2.41091 -4.82182C1.27636 -4.82182 0.654545 -3.41454 0.654545 -3.14182C0.654545 -3.03273 0.763636 -3.03273 0.785454 -3.03273C0.872727 -3.03273 0.905454 -3.05454 0.927272 -3.15273C1.29818 -4.30909 2.01818 -4.58182 2.38909 -4.58182C2.59636 -4.58182 2.97818 -4.48364 2.97818 -3.85091C2.97818 -3.51273 2.79273 -2.78182 2.38909 -1.25455C2.21454 -0.578182 1.83273 -0.12 1.35273 -0.12C1.28727 -0.12 1.03636 -0.12 0.807273 -0.261818C1.08 -0.316364 1.32 -0.545454 1.32 -0.850909C1.32 -1.14545 1.08 -1.23273 0.916363 -1.23273C0.589091 -1.23273 0.316364 -0.949091 0.316364 -0.6C0.316364 -0.0981818 0.861818 0.12 1.34182 0.12C2.06182 0.12 2.45454 -0.643636 2.48727 -0.709091C2.61818 -0.305454 3.01091 0.12 3.66545 0.12C4.78909 0.12 5.41091 -1.28727 5.41091 -1.56C5.41091 -1.66909 5.31273 -1.66909 5.28 -1.66909C5.18182 -1.66909 5.16 -1.62545 5.13818 -1.54909C4.77818 -0.381818 4.03636 -0.12 3.68727 -0.12C3.26182 -0.12 3.08727 -0.469091 3.08727 -0.84C3.08727 -1.08 3.15273 -1.32 3.27273 -1.8L3.64364 -3.29454Z' id='g2-120'/>
<path d='M7.18909 -2.50909C7.37454 -2.50909 7.57091 -2.50909 7.57091 -2.72727S7.37454 -2.94545 7.18909 -2.94545H1.28727C1.10182 -2.94545 0.905454 -2.94545 0.905454 -2.72727S1.10182 -2.50909 1.28727 -2.50909H7.18909Z' id='g1-0'/>
<path d='M7.36363 -6.48C7.48363 -6.53454 7.57091 -6.58909 7.57091 -6.72C7.57091 -6.84 7.48363 -6.93818 7.35273 -6.93818C7.29818 -6.93818 7.2 -6.89454 7.15636 -6.87273L1.12364 -4.02545C0.938182 -3.93818 0.905454 -3.86182 0.905454 -3.77454C0.905454 -3.67636 0.970909 -3.6 1.12364 -3.53454L7.15636 -0.698182C7.29818 -0.621818 7.32 -0.621818 7.35273 -0.621818C7.47273 -0.621818 7.57091 -0.72 7.57091 -0.84C7.57091 -0.938182 7.52727 -1.00364 7.34182 -1.09091L1.63636 -3.77454L7.36363 -6.48ZM7.18909 1.49455C7.37454 1.49455 7.57091 1.49455 7.57091 1.27636S7.34182 1.05818 7.17818 1.05818H1.29818C1.13455 1.05818 0.905454 1.05818 0.905454 1.27636S1.10182 1.49455 1.28727 1.49455H7.18909Z' id='g1-20'/>
<path d='M7.35273 -3.53454C7.50545 -3.6 7.57091 -3.67636 7.57091 -3.77454C7.57091 -3.88364 7.52727 -3.94909 7.35273 -4.02545L1.34182 -6.86182C1.18909 -6.93818 1.14545 -6.93818 1.12364 -6.93818C0.992727 -6.93818 0.905454 -6.84 0.905454 -6.72C0.905454 -6.58909 0.992727 -6.53454 1.11273 -6.48L6.84 -3.78545L1.13455 -1.09091C0.916363 -0.992727 0.905454 -0.905454 0.905454 -0.84C0.905454 -0.72 1.00364 -0.621818 1.12364 -0.621818C1.15636 -0.621818 1.17818 -0.621818 1.32 -0.698182L7.35273 -3.53454ZM7.18909 1.49455C7.37454 1.49455 7.57091 1.49455 7.57091 1.27636S7.34182 1.05818 7.17818 1.05818H1.29818C1.13455 1.05818 0.905454 1.05818 0.905454 1.27636S1.10182 1.49455 1.28727 1.49455H7.18909Z' id='g1-21'/>
</defs>
<g id='page1' transform='matrix(1.13 0 0 1.13 -80.23 -66.0615)'>
<use x='70.7347' xlink:href='#g0-26' y='58.6778'/>
<use x='78.9166' xlink:href='#g2-120' y='67.2677'/>
<use x='87.5523' xlink:href='#g1-0' y='67.2677'/>
<use x='98.4297' xlink:href='#g3-50' y='67.2677'/>
<use x='106.894' xlink:href='#g1-21' y='67.2677'/>
<use x='118.378' xlink:href='#g3-48' y='67.2677'/>
<use x='78.9166' xlink:href='#g2-120' y='80.8169'/>
<use x='87.5523' xlink:href='#g1-0' y='80.8169'/>
<use x='98.4297' xlink:href='#g3-51' y='80.8169'/>
<use x='106.894' xlink:href='#g1-20' y='80.8169'/>
<use x='118.378' xlink:href='#g3-48' y='80.8169'/>
</g>
</svg>
