<?xml version='1.0' encoding='UTF-8'?>
<!-- This file was generated by dvisvgm 1.15.1 -->
<svg height='44.3372pt' version='1.1' viewBox='-0.299738 -0.247769 103.916 44.3372' width='103.916pt' xmlns='http://www.w3.org/2000/svg' xmlns:xlink='http://www.w3.org/1999/xlink'>
<defs>
<path d='M7.13454 -7.12363C7.25454 -7.25454 7.25454 -7.30909 7.25454 -7.35273C7.25454 -7.47273 7.15636 -7.57091 7.03636 -7.57091C6.97091 -7.57091 6.90545 -7.53818 6.79636 -7.41818L0.741818 -0.447273C0.643636 -0.338182 0.610909 -0.305454 0.610909 -0.218182C0.610909 0 0.818182 0 1.00364 0H6.87273C7.05818 0 7.25454 0 7.25454 -0.218182S7.05818 -0.436364 6.87273 -0.436364H1.30909L7.13454 -7.12363Z' id='g0-92'/>
<path d='M8.29091 -7.58182C8.29091 -7.61454 8.26909 -7.69091 8.17091 -7.69091C8.13818 -7.69091 8.12727 -7.68 8.00727 -7.56L7.24363 -6.72C7.14545 -6.87273 6.64363 -7.69091 5.43273 -7.69091C3 -7.69091 0.545454 -5.28 0.545454 -2.74909C0.545454 -0.949091 1.83273 0.24 3.50182 0.24C4.45091 0.24 5.28 -0.196364 5.85818 -0.698182C6.87273 -1.59273 7.05818 -2.58545 7.05818 -2.61818C7.05818 -2.72727 6.94909 -2.72727 6.92727 -2.72727C6.86182 -2.72727 6.80727 -2.70545 6.78545 -2.61818C6.68727 -2.30182 6.43636 -1.52727 5.68363 -0.894545C4.93091 -0.283636 4.24364 -0.0981818 3.67636 -0.0981818C2.69454 -0.0981818 1.53818 -0.665454 1.53818 -2.36727C1.53818 -2.98909 1.76727 -4.75636 2.85818 -6.03273C3.52364 -6.80727 4.54909 -7.35273 5.52 -7.35273C6.63273 -7.35273 7.27636 -6.51273 7.27636 -5.24727C7.27636 -4.81091 7.24363 -4.8 7.24363 -4.69091S7.36363 -4.58182 7.40727 -4.58182C7.54909 -4.58182 7.54909 -4.60364 7.60363 -4.8L8.29091 -7.58182Z' id='g2-67'/>
<path d='M1.73454 -0.850909C1.62545 -0.425454 1.60364 -0.338182 0.741818 -0.338182C0.556363 -0.338182 0.436364 -0.338182 0.436364 -0.130909C0.436364 0 0.534545 0 0.741818 0H4.35273C6.62182 0 8.77091 -2.30182 8.77091 -4.69091C8.77091 -6.22909 7.84363 -7.45091 6.20727 -7.45091H2.54182C2.33454 -7.45091 2.21454 -7.45091 2.21454 -7.24363C2.21454 -7.11273 2.31273 -7.11273 2.53091 -7.11273C2.67273 -7.11273 2.86909 -7.10182 3 -7.09091C3.17454 -7.06909 3.24 -7.03636 3.24 -6.91636C3.24 -6.87273 3.22909 -6.84 3.19636 -6.70909L1.73454 -0.850909ZM4.09091 -6.69818C4.18909 -7.08 4.21091 -7.11273 4.68 -7.11273H5.84727C6.91636 -7.11273 7.82182 -6.53454 7.82182 -5.09454C7.82182 -4.56 7.60363 -2.77091 6.67636 -1.57091C6.36 -1.16727 5.49818 -0.338182 4.15636 -0.338182H2.92364C2.77091 -0.338182 2.74909 -0.338182 2.68364 -0.349091C2.57454 -0.36 2.54182 -0.370909 2.54182 -0.458182C2.54182 -0.490909 2.54182 -0.512727 2.59636 -0.709091L4.09091 -6.69818Z' id='g2-68'/>
<path d='M7.72363 -2.54182C7.74545 -2.59636 7.77818 -2.67273 7.77818 -2.69454C7.77818 -2.70545 7.77818 -2.81454 7.64727 -2.81454C7.54909 -2.81454 7.52727 -2.74909 7.50545 -2.68364C6.79636 -1.06909 6.39273 -0.338182 4.52727 -0.338182H2.93454C2.78182 -0.338182 2.76 -0.338182 2.69454 -0.349091C2.58545 -0.36 2.55273 -0.370909 2.55273 -0.458182C2.55273 -0.490909 2.55273 -0.512727 2.60727 -0.709091L3.34909 -3.68727H4.42909C5.35636 -3.68727 5.35636 -3.45818 5.35636 -3.18545C5.35636 -3.10909 5.35636 -2.97818 5.28 -2.65091C5.25818 -2.59636 5.24727 -2.56364 5.24727 -2.53091C5.24727 -2.47636 5.29091 -2.41091 5.38909 -2.41091C5.47636 -2.41091 5.50909 -2.46545 5.55273 -2.62909L6.17454 -5.18182C6.17454 -5.24727 6.12 -5.30182 6.04363 -5.30182C5.94545 -5.30182 5.92363 -5.23636 5.89091 -5.10545C5.66182 -4.27636 5.46545 -4.02545 4.46182 -4.02545H3.43636L4.09091 -6.65454C4.18909 -7.03636 4.2 -7.08 4.68 -7.08H6.21818C7.54909 -7.08 7.87636 -6.76363 7.87636 -5.86909C7.87636 -5.60727 7.87636 -5.58545 7.83273 -5.29091C7.83273 -5.22545 7.82182 -5.14909 7.82182 -5.09454S7.85454 -4.96363 7.95273 -4.96363C8.07273 -4.96363 8.08363 -5.02909 8.10545 -5.23636L8.32363 -7.12363C8.35636 -7.41818 8.30182 -7.41818 8.02909 -7.41818H2.52C2.30182 -7.41818 2.19273 -7.41818 2.19273 -7.2C2.19273 -7.08 2.29091 -7.08 2.49818 -7.08C2.90182 -7.08 3.20727 -7.08 3.20727 -6.88363C3.20727 -6.84 3.20727 -6.81818 3.15273 -6.62182L1.71273 -0.850909C1.60364 -0.425454 1.58182 -0.338182 0.72 -0.338182C0.534545 -0.338182 0.414545 -0.338182 0.414545 -0.130909C0.414545 0 0.512727 0 0.72 0H6.38182C6.63273 0 6.64363 -0.0109091 6.72 -0.185454L7.72363 -2.54182Z' id='g2-69'/>
<path d='M3.30545 -3.54545H4.36364C5.18182 -3.54545 5.26909 -3.37091 5.26909 -3.05454C5.26909 -2.97818 5.26909 -2.84727 5.19273 -2.52C5.17091 -2.46545 5.16 -2.42182 5.16 -2.4C5.16 -2.31273 5.22545 -2.26909 5.29091 -2.26909C5.4 -2.26909 5.4 -2.30182 5.45454 -2.49818L6.05454 -4.86545C6.08727 -4.98545 6.08727 -5.00727 6.08727 -5.04C6.08727 -5.06182 6.06545 -5.16 5.95636 -5.16S5.83636 -5.10545 5.79273 -4.93091C5.56363 -4.08 5.31273 -3.88364 4.38545 -3.88364H3.39273L4.09091 -6.65454C4.18909 -7.03636 4.2 -7.08 4.68 -7.08H6.12C7.46182 -7.08 7.71273 -6.72 7.71273 -5.88C7.71273 -5.62909 7.71273 -5.58545 7.68 -5.29091C7.65818 -5.14909 7.65818 -5.12727 7.65818 -5.09454C7.65818 -5.04 7.69091 -4.96363 7.78909 -4.96363C7.90909 -4.96363 7.92 -5.02909 7.94182 -5.23636L8.16 -7.12363C8.19272 -7.41818 8.13818 -7.41818 7.86545 -7.41818H2.52C2.30182 -7.41818 2.19273 -7.41818 2.19273 -7.2C2.19273 -7.08 2.29091 -7.08 2.49818 -7.08C2.90182 -7.08 3.20727 -7.08 3.20727 -6.88363C3.20727 -6.84 3.20727 -6.81818 3.15273 -6.62182L1.71273 -0.850909C1.60364 -0.425454 1.58182 -0.338182 0.72 -0.338182C0.534545 -0.338182 0.414545 -0.338182 0.414545 -0.130909C0.414545 0 0.545454 0 0.578182 0C0.894545 0 1.70182 -0.0327273 2.01818 -0.0327273C2.37818 -0.0327273 3.28364 0 3.64364 0C3.74182 0 3.87273 0 3.87273 -0.207273C3.87273 -0.294545 3.80727 -0.316364 3.80727 -0.327273C3.77454 -0.338182 3.75273 -0.338182 3.50182 -0.338182C3.26182 -0.338182 3.20727 -0.338182 2.93454 -0.36C2.61818 -0.392727 2.58545 -0.436364 2.58545 -0.578182C2.58545 -0.6 2.58545 -0.665454 2.62909 -0.829091L3.30545 -3.54545Z' id='g2-70'/>
<path d='M8.29091 -7.58182C8.29091 -7.61454 8.26909 -7.69091 8.17091 -7.69091C8.13818 -7.69091 8.12727 -7.68 8.00727 -7.56L7.24363 -6.72C7.14545 -6.87273 6.64363 -7.69091 5.43273 -7.69091C3 -7.69091 0.545454 -5.28 0.545454 -2.74909C0.545454 -1.01455 1.75636 0.24 3.52364 0.24C4.00364 0.24 4.49454 0.141818 4.88727 -0.0218182C5.43273 -0.24 5.64 -0.469091 5.83636 -0.687273C5.93454 -0.414545 6.21818 -0.0109091 6.32727 -0.0109091C6.38182 -0.0109091 6.40363 -0.0436364 6.40363 -0.0545454C6.42545 -0.0763636 6.53454 -0.490909 6.58909 -0.72L6.79636 -1.56C6.84 -1.74545 6.89454 -1.93091 6.93818 -2.11636C7.05818 -2.60727 7.06909 -2.62909 7.69091 -2.64C7.74545 -2.64 7.86545 -2.65091 7.86545 -2.85818C7.86545 -2.93454 7.81091 -2.97818 7.72363 -2.97818C7.47273 -2.97818 6.82909 -2.94545 6.57818 -2.94545C6.24 -2.94545 5.38909 -2.97818 5.05091 -2.97818C4.95273 -2.97818 4.82182 -2.97818 4.82182 -2.76C4.82182 -2.64 4.90909 -2.64 5.14909 -2.64C5.16 -2.64 5.47636 -2.64 5.72727 -2.61818C6.01091 -2.58545 6.06545 -2.55273 6.06545 -2.41091C6.06545 -2.31273 5.94545 -1.82182 5.83636 -1.41818C5.53091 -0.218182 4.11273 -0.0981818 3.73091 -0.0981818C2.68364 -0.0981818 1.53818 -0.72 1.53818 -2.38909C1.53818 -2.72727 1.64727 -4.52727 2.79273 -5.94545C3.38182 -6.68727 4.44 -7.35273 5.52 -7.35273C6.63273 -7.35273 7.27636 -6.51273 7.27636 -5.24727C7.27636 -4.81091 7.24363 -4.8 7.24363 -4.69091S7.36363 -4.58182 7.40727 -4.58182C7.54909 -4.58182 7.54909 -4.60364 7.60363 -4.8L8.29091 -7.58182Z' id='g2-71'/>
<path d='M7.49454 -3.56727C7.65818 -3.56727 7.86545 -3.56727 7.86545 -3.78545S7.65818 -4.00364 7.50545 -4.00364H0.970909C0.818182 -4.00364 0.610909 -4.00364 0.610909 -3.78545S0.818182 -3.56727 0.981818 -3.56727H7.49454ZM7.50545 -1.45091C7.65818 -1.45091 7.86545 -1.45091 7.86545 -1.66909S7.65818 -1.88727 7.49454 -1.88727H0.981818C0.818182 -1.88727 0.610909 -1.88727 0.610909 -1.66909S0.818182 -1.45091 0.970909 -1.45091H7.50545Z' id='g3-61'/>
<path d='M5.49818 4.94182C5.49818 4.04727 5.73818 1.96364 7.68 0.589091C7.82182 0.48 7.83273 0.469091 7.83273 0.272727C7.83273 0.0218182 7.82182 0.0109091 7.54909 0.0109091H7.37454C5.02909 1.27636 4.18909 3.33818 4.18909 4.94182V9.63272C4.18909 9.91636 4.2 9.92727 4.49454 9.92727H5.19273C5.48727 9.92727 5.49818 9.91636 5.49818 9.63272V4.94182Z' id='g1-56'/>
<path d='M7.54909 9.80727C7.82182 9.80727 7.83273 9.79636 7.83273 9.54545C7.83273 9.34909 7.82182 9.33818 7.77818 9.30545C7.44 9.05454 6.65454 8.49818 6.14182 7.49454C5.71636 6.66545 5.49818 5.82545 5.49818 4.87636V0.185454C5.49818 -0.0981818 5.48727 -0.109091 5.19273 -0.109091H4.49454C4.2 -0.109091 4.18909 -0.0981818 4.18909 0.185454V4.87636C4.18909 6.49091 5.02909 8.55272 7.37454 9.80727H7.54909Z' id='g1-58'/>
<path d='M4.18909 19.4509C4.18909 19.7345 4.2 19.7454 4.49454 19.7454H5.19273C5.48727 19.7454 5.49818 19.7345 5.49818 19.4509V14.8473C5.49818 13.5273 4.94182 11.3018 2.49818 9.81818C4.96363 8.32363 5.49818 6.07636 5.49818 4.78909V0.185454C5.49818 -0.0981818 5.48727 -0.109091 5.19273 -0.109091H4.49454C4.2 -0.109091 4.18909 -0.0981818 4.18909 0.185454V4.8C4.18909 5.71636 3.99273 7.98545 1.98545 9.51272C1.86545 9.61091 1.85454 9.62182 1.85454 9.81818S1.86545 10.0255 1.98545 10.1236C2.26909 10.3418 3.02182 10.92 3.54545 12.0218C3.97091 12.8945 4.18909 13.8655 4.18909 14.8364V19.4509Z' id='g1-60'/>
</defs>
<g id='page1' transform='matrix(1.13 0 0 1.13 -80.23 -66.3195)'>
<use x='70.7347' xlink:href='#g1-56' y='58.4706'/>
<use x='70.7347' xlink:href='#g1-60' y='68.2888'/>
<use x='70.7347' xlink:href='#g1-58' y='87.9254'/>
<use x='80.4317' xlink:href='#g0-92' y='67.2677'/>
<use x='88.2811' xlink:href='#g2-71' y='67.2677'/>
<use x='96.8263' xlink:href='#g2-68' y='67.2677'/>
<use x='106.127' xlink:href='#g2-70' y='67.2677'/>
<use x='117.662' xlink:href='#g3-61' y='67.2677'/>
<use x='129.145' xlink:href='#g0-92' y='67.2677'/>
<use x='136.995' xlink:href='#g2-67' y='67.2677'/>
<use x='145.543' xlink:href='#g2-69' y='67.2677'/>
<use x='154.194' xlink:href='#g2-70' y='67.2677'/>
<use x='96.8878' xlink:href='#g2-68' y='80.8169'/>
<use x='106.189' xlink:href='#g2-70' y='80.8169'/>
<use x='117.723' xlink:href='#g3-61' y='80.8169'/>
<use x='129.207' xlink:href='#g2-69' y='80.8169'/>
<use x='137.858' xlink:href='#g2-70' y='80.8169'/>
<use x='80.4317' xlink:href='#g0-92' y='94.3661'/>
<use x='88.2811' xlink:href='#g2-68' y='94.3661'/>
<use x='97.5822' xlink:href='#g2-70' y='94.3661'/>
<use x='106.086' xlink:href='#g2-71' y='94.3661'/>
<use x='117.662' xlink:href='#g3-61' y='94.3661'/>
<use x='129.145' xlink:href='#g0-92' y='94.3661'/>
<use x='136.995' xlink:href='#g2-67' y='94.3661'/>
<use x='145.543' xlink:href='#g2-70' y='94.3661'/>
<use x='154.047' xlink:href='#g2-69' y='94.3661'/>
</g>
</svg>
