<?xml version='1.0' encoding='UTF-8'?>
<!-- This file was generated by dvisvgm 1.15.1 -->
<svg height='14.098pt' version='1.1' viewBox='-0.299738 -0.249525 19.591 14.098' width='19.591pt' xmlns='http://www.w3.org/2000/svg' xmlns:xlink='http://www.w3.org/1999/xlink'>
<defs>
<path d='M7.99402 -1.13973C7.99402 -1.25928 6.75068 -3.06052 4.23213 -3.06052S0.470237 -1.25928 0.470237 -1.13973C0.470237 -1.068 0.526027 -1.0122 0.597758 -1.0122C0.613699 -1.0122 0.653549 -1.02017 0.70934 -1.07597C0.948443 -1.3868 1.36289 -1.92877 2.3193 -2.30336C3.04458 -2.59029 3.76986 -2.64608 4.23213 -2.64608C4.75019 -2.64608 5.51532 -2.58232 6.34421 -2.22366C6.79054 -2.02441 7.26874 -1.7056 7.7071 -1.15567C7.81071 -1.02017 7.81868 -1.0122 7.8665 -1.0122C7.93823 -1.0122 7.99402 -1.068 7.99402 -1.13973Z' id='g0-95'/>
<path d='M1.74545 -0.850909C1.63636 -0.425454 1.61455 -0.338182 0.752727 -0.338182C0.567273 -0.338182 0.458182 -0.338182 0.458182 -0.12C0.458182 0 0.556363 0 0.752727 0H4.64727C6.37091 0 7.65818 -1.28727 7.65818 -2.35636C7.65818 -3.14182 7.02545 -3.77454 5.96727 -3.89454C7.10182 -4.10182 8.24727 -4.90909 8.24727 -5.94545C8.24727 -6.75273 7.52727 -7.45091 6.21818 -7.45091H2.55273C2.34545 -7.45091 2.23636 -7.45091 2.23636 -7.23273C2.23636 -7.11273 2.33454 -7.11273 2.54182 -7.11273C2.56364 -7.11273 2.77091 -7.11273 2.95636 -7.09091C3.15273 -7.06909 3.25091 -7.05818 3.25091 -6.91636C3.25091 -6.87273 3.24 -6.84 3.20727 -6.70909L1.74545 -0.850909ZM3.39273 -3.99273L4.06909 -6.69818C4.16727 -7.08 4.18909 -7.11273 4.65818 -7.11273H6.06545C7.02545 -7.11273 7.25454 -6.46909 7.25454 -5.98909C7.25454 -5.02909 6.31636 -3.99273 4.98545 -3.99273H3.39273ZM2.90182 -0.338182C2.74909 -0.338182 2.72727 -0.338182 2.66182 -0.349091C2.55273 -0.36 2.52 -0.370909 2.52 -0.458182C2.52 -0.490909 2.52 -0.512727 2.57454 -0.709091L3.32727 -3.75273H5.38909C6.43636 -3.75273 6.64363 -2.94545 6.64363 -2.47636C6.64363 -1.39636 5.67273 -0.338182 4.38545 -0.338182H2.90182Z' id='g1-66'/>
<path d='M8.29091 -7.58182C8.29091 -7.61454 8.26909 -7.69091 8.17091 -7.69091C8.13818 -7.69091 8.12727 -7.68 8.00727 -7.56L7.24363 -6.72C7.14545 -6.87273 6.64363 -7.69091 5.43273 -7.69091C3 -7.69091 0.545454 -5.28 0.545454 -2.74909C0.545454 -0.949091 1.83273 0.24 3.50182 0.24C4.45091 0.24 5.28 -0.196364 5.85818 -0.698182C6.87273 -1.59273 7.05818 -2.58545 7.05818 -2.61818C7.05818 -2.72727 6.94909 -2.72727 6.92727 -2.72727C6.86182 -2.72727 6.80727 -2.70545 6.78545 -2.61818C6.68727 -2.30182 6.43636 -1.52727 5.68363 -0.894545C4.93091 -0.283636 4.24364 -0.0981818 3.67636 -0.0981818C2.69454 -0.0981818 1.53818 -0.665454 1.53818 -2.36727C1.53818 -2.98909 1.76727 -4.75636 2.85818 -6.03273C3.52364 -6.80727 4.54909 -7.35273 5.52 -7.35273C6.63273 -7.35273 7.27636 -6.51273 7.27636 -5.24727C7.27636 -4.81091 7.24363 -4.8 7.24363 -4.69091S7.36363 -4.58182 7.40727 -4.58182C7.54909 -4.58182 7.54909 -4.60364 7.60363 -4.8L8.29091 -7.58182Z' id='g1-67'/>
</defs>
<g id='page1' transform='matrix(1.13 0 0 1.13 -80.23 -66.7894)'>
<use x='75.2002' xlink:href='#g0-95' y='61.7246'/>
<use x='70.7347' xlink:href='#g1-67' y='71.361'/>
<use x='79.2829' xlink:href='#g1-66' y='71.361'/>
</g>
</svg>
