<?xml version='1.0' encoding='UTF-8'?>
<!-- This file was generated by dvisvgm 1.15.1 -->
<svg height='14.098pt' version='1.1' viewBox='-0.299738 -0.249525 28.6441 14.098' width='28.6441pt' xmlns='http://www.w3.org/2000/svg' xmlns:xlink='http://www.w3.org/1999/xlink'>
<defs>
<path d='M7.99402 -1.13973C7.99402 -1.25928 6.75068 -3.06052 4.23213 -3.06052S0.470237 -1.25928 0.470237 -1.13973C0.470237 -1.068 0.526027 -1.0122 0.597758 -1.0122C0.613699 -1.0122 0.653549 -1.02017 0.70934 -1.07597C0.948443 -1.3868 1.36289 -1.92877 2.3193 -2.30336C3.04458 -2.59029 3.76986 -2.64608 4.23213 -2.64608C4.75019 -2.64608 5.51532 -2.58232 6.34421 -2.22366C6.79054 -2.02441 7.26874 -1.7056 7.7071 -1.15567C7.81071 -1.02017 7.81868 -1.0122 7.8665 -1.0122C7.93823 -1.0122 7.99402 -1.068 7.99402 -1.13973Z' id='g0-95'/>
<path d='M1.95273 -1.25455C1.51636 -0.523636 1.09091 -0.370909 0.610909 -0.338182C0.48 -0.327273 0.381818 -0.327273 0.381818 -0.12C0.381818 -0.0545454 0.436364 0 0.523636 0C0.818182 0 1.15636 -0.0327273 1.46182 -0.0327273C1.82182 -0.0327273 2.20364 0 2.55273 0C2.61818 0 2.76 0 2.76 -0.207273C2.76 -0.327273 2.66182 -0.338182 2.58545 -0.338182C2.33454 -0.36 2.07273 -0.447273 2.07273 -0.72C2.07273 -0.850909 2.13818 -0.970909 2.22545 -1.12364L3.05454 -2.52H5.79273C5.81454 -2.29091 5.96727 -0.807273 5.96727 -0.698182C5.96727 -0.370909 5.4 -0.338182 5.18182 -0.338182C5.02909 -0.338182 4.92 -0.338182 4.92 -0.12C4.92 0 5.05091 0 5.07273 0C5.52 0 5.98909 -0.0327273 6.43636 -0.0327273C6.70909 -0.0327273 7.39636 0 7.66909 0C7.73454 0 7.86545 0 7.86545 -0.218182C7.86545 -0.338182 7.75636 -0.338182 7.61454 -0.338182C6.93818 -0.338182 6.93818 -0.414545 6.90545 -0.730909L6.24 -7.54909C6.21818 -7.76727 6.21818 -7.81091 6.03273 -7.81091C5.85818 -7.81091 5.81454 -7.73454 5.74909 -7.62545L1.95273 -1.25455ZM3.26182 -2.85818L5.41091 -6.45818L5.76 -2.85818H3.26182Z' id='g1-65'/>
<path d='M8.29091 -7.58182C8.29091 -7.61454 8.26909 -7.69091 8.17091 -7.69091C8.13818 -7.69091 8.12727 -7.68 8.00727 -7.56L7.24363 -6.72C7.14545 -6.87273 6.64363 -7.69091 5.43273 -7.69091C3 -7.69091 0.545454 -5.28 0.545454 -2.74909C0.545454 -0.949091 1.83273 0.24 3.50182 0.24C4.45091 0.24 5.28 -0.196364 5.85818 -0.698182C6.87273 -1.59273 7.05818 -2.58545 7.05818 -2.61818C7.05818 -2.72727 6.94909 -2.72727 6.92727 -2.72727C6.86182 -2.72727 6.80727 -2.70545 6.78545 -2.61818C6.68727 -2.30182 6.43636 -1.52727 5.68363 -0.894545C4.93091 -0.283636 4.24364 -0.0981818 3.67636 -0.0981818C2.69454 -0.0981818 1.53818 -0.665454 1.53818 -2.36727C1.53818 -2.98909 1.76727 -4.75636 2.85818 -6.03273C3.52364 -6.80727 4.54909 -7.35273 5.52 -7.35273C6.63273 -7.35273 7.27636 -6.51273 7.27636 -5.24727C7.27636 -4.81091 7.24363 -4.8 7.24363 -4.69091S7.36363 -4.58182 7.40727 -4.58182C7.54909 -4.58182 7.54909 -4.60364 7.60363 -4.8L8.29091 -7.58182Z' id='g1-67'/>
<path d='M7.72363 -2.54182C7.74545 -2.59636 7.77818 -2.67273 7.77818 -2.69454C7.77818 -2.70545 7.77818 -2.81454 7.64727 -2.81454C7.54909 -2.81454 7.52727 -2.74909 7.50545 -2.68364C6.79636 -1.06909 6.39273 -0.338182 4.52727 -0.338182H2.93454C2.78182 -0.338182 2.76 -0.338182 2.69454 -0.349091C2.58545 -0.36 2.55273 -0.370909 2.55273 -0.458182C2.55273 -0.490909 2.55273 -0.512727 2.60727 -0.709091L3.34909 -3.68727H4.42909C5.35636 -3.68727 5.35636 -3.45818 5.35636 -3.18545C5.35636 -3.10909 5.35636 -2.97818 5.28 -2.65091C5.25818 -2.59636 5.24727 -2.56364 5.24727 -2.53091C5.24727 -2.47636 5.29091 -2.41091 5.38909 -2.41091C5.47636 -2.41091 5.50909 -2.46545 5.55273 -2.62909L6.17454 -5.18182C6.17454 -5.24727 6.12 -5.30182 6.04363 -5.30182C5.94545 -5.30182 5.92363 -5.23636 5.89091 -5.10545C5.66182 -4.27636 5.46545 -4.02545 4.46182 -4.02545H3.43636L4.09091 -6.65454C4.18909 -7.03636 4.2 -7.08 4.68 -7.08H6.21818C7.54909 -7.08 7.87636 -6.76363 7.87636 -5.86909C7.87636 -5.60727 7.87636 -5.58545 7.83273 -5.29091C7.83273 -5.22545 7.82182 -5.14909 7.82182 -5.09454S7.85454 -4.96363 7.95273 -4.96363C8.07273 -4.96363 8.08363 -5.02909 8.10545 -5.23636L8.32363 -7.12363C8.35636 -7.41818 8.30182 -7.41818 8.02909 -7.41818H2.52C2.30182 -7.41818 2.19273 -7.41818 2.19273 -7.2C2.19273 -7.08 2.29091 -7.08 2.49818 -7.08C2.90182 -7.08 3.20727 -7.08 3.20727 -6.88363C3.20727 -6.84 3.20727 -6.81818 3.15273 -6.62182L1.71273 -0.850909C1.60364 -0.425454 1.58182 -0.338182 0.72 -0.338182C0.534545 -0.338182 0.414545 -0.338182 0.414545 -0.130909C0.414545 0 0.512727 0 0.72 0H6.38182C6.63273 0 6.64363 -0.0109091 6.72 -0.185454L7.72363 -2.54182Z' id='g1-69'/>
</defs>
<g id='page1' transform='matrix(1.13 0 0 1.13 -80.23 -66.7894)'>
<use x='79.221' xlink:href='#g0-95' y='61.7246'/>
<use x='70.7347' xlink:href='#g1-65' y='71.361'/>
<use x='78.886' xlink:href='#g1-67' y='71.361'/>
<use x='87.4341' xlink:href='#g1-69' y='71.361'/>
</g>
</svg>
