<?xml version='1.0' encoding='UTF-8'?>
<!-- This file was generated by dvisvgm 1.15.1 -->
<svg height='29.4752pt' version='1.1' viewBox='-0.299738 -0.246805 64.9581 29.4752' width='64.9581pt' xmlns='http://www.w3.org/2000/svg' xmlns:xlink='http://www.w3.org/1999/xlink'>
<defs>
<path d='M4.53818 16.2436C4.53818 15.7309 4.53818 14.9236 3.85091 14.04C3.42545 13.4945 2.80364 12.9927 2.05091 12.6545C4.17818 11.6291 4.53818 10.0582 4.53818 9.43636V3.15273C4.53818 2.47636 4.53818 1.08 6.65454 0.0327273C6.74182 -0.0109091 6.74182 -0.0327273 6.74182 -0.196364C6.74182 -0.425454 6.74182 -0.436364 6.50182 -0.436364C6.34909 -0.436364 6.32727 -0.436364 6.04363 -0.305454C4.96363 0.229091 3.89454 1.09091 3.66545 2.42182C3.63273 2.64 3.63273 2.73818 3.63273 3.46909V8.50909C3.63273 8.84727 3.63273 9.41454 3.62182 9.53454C3.52364 10.68 2.85818 11.6727 1.61455 12.36C1.44 12.4582 1.42909 12.4691 1.42909 12.6436C1.42909 12.8291 1.44 12.84 1.59273 12.9273C2.32364 13.3309 3.37091 14.1164 3.58909 15.48C3.63273 15.7309 3.63273 15.7527 3.63273 15.8727V22.3527C3.63273 23.9345 4.72364 24.9709 6.07636 25.6145C6.31636 25.7345 6.33818 25.7345 6.50182 25.7345C6.73091 25.7345 6.74182 25.7345 6.74182 25.4945C6.74182 25.32 6.73091 25.3091 6.64363 25.2545C6.19636 25.0364 4.78909 24.3273 4.56 22.7564C4.53818 22.6036 4.53818 22.4836 4.53818 21.8291V16.2436Z' id='g0-26'/>
<path d='M7.49454 -3.56727C7.65818 -3.56727 7.86545 -3.56727 7.86545 -3.78545S7.65818 -4.00364 7.50545 -4.00364H0.970909C0.818182 -4.00364 0.610909 -4.00364 0.610909 -3.78545S0.818182 -3.56727 0.981818 -3.56727H7.49454ZM7.50545 -1.45091C7.65818 -1.45091 7.86545 -1.45091 7.86545 -1.66909S7.65818 -1.88727 7.49454 -1.88727H0.981818C0.818182 -1.88727 0.610909 -1.88727 0.610909 -1.66909S0.818182 -1.45091 0.970909 -1.45091H7.50545Z' id='g3-61'/>
<path d='M1.95273 -1.25455C1.51636 -0.523636 1.09091 -0.370909 0.610909 -0.338182C0.48 -0.327273 0.381818 -0.327273 0.381818 -0.12C0.381818 -0.0545454 0.436364 0 0.523636 0C0.818182 0 1.15636 -0.0327273 1.46182 -0.0327273C1.82182 -0.0327273 2.20364 0 2.55273 0C2.61818 0 2.76 0 2.76 -0.207273C2.76 -0.327273 2.66182 -0.338182 2.58545 -0.338182C2.33454 -0.36 2.07273 -0.447273 2.07273 -0.72C2.07273 -0.850909 2.13818 -0.970909 2.22545 -1.12364L3.05454 -2.52H5.79273C5.81454 -2.29091 5.96727 -0.807273 5.96727 -0.698182C5.96727 -0.370909 5.4 -0.338182 5.18182 -0.338182C5.02909 -0.338182 4.92 -0.338182 4.92 -0.12C4.92 0 5.05091 0 5.07273 0C5.52 0 5.98909 -0.0327273 6.43636 -0.0327273C6.70909 -0.0327273 7.39636 0 7.66909 0C7.73454 0 7.86545 0 7.86545 -0.218182C7.86545 -0.338182 7.75636 -0.338182 7.61454 -0.338182C6.93818 -0.338182 6.93818 -0.414545 6.90545 -0.730909L6.24 -7.54909C6.21818 -7.76727 6.21818 -7.81091 6.03273 -7.81091C5.85818 -7.81091 5.81454 -7.73454 5.74909 -7.62545L1.95273 -1.25455ZM3.26182 -2.85818L5.41091 -6.45818L5.76 -2.85818H3.26182Z' id='g2-65'/>
<path d='M1.74545 -0.850909C1.63636 -0.425454 1.61455 -0.338182 0.752727 -0.338182C0.567273 -0.338182 0.458182 -0.338182 0.458182 -0.12C0.458182 0 0.556363 0 0.752727 0H4.64727C6.37091 0 7.65818 -1.28727 7.65818 -2.35636C7.65818 -3.14182 7.02545 -3.77454 5.96727 -3.89454C7.10182 -4.10182 8.24727 -4.90909 8.24727 -5.94545C8.24727 -6.75273 7.52727 -7.45091 6.21818 -7.45091H2.55273C2.34545 -7.45091 2.23636 -7.45091 2.23636 -7.23273C2.23636 -7.11273 2.33454 -7.11273 2.54182 -7.11273C2.56364 -7.11273 2.77091 -7.11273 2.95636 -7.09091C3.15273 -7.06909 3.25091 -7.05818 3.25091 -6.91636C3.25091 -6.87273 3.24 -6.84 3.20727 -6.70909L1.74545 -0.850909ZM3.39273 -3.99273L4.06909 -6.69818C4.16727 -7.08 4.18909 -7.11273 4.65818 -7.11273H6.06545C7.02545 -7.11273 7.25454 -6.46909 7.25454 -5.98909C7.25454 -5.02909 6.31636 -3.99273 4.98545 -3.99273H3.39273ZM2.90182 -0.338182C2.74909 -0.338182 2.72727 -0.338182 2.66182 -0.349091C2.55273 -0.36 2.52 -0.370909 2.52 -0.458182C2.52 -0.490909 2.52 -0.512727 2.57454 -0.709091L3.32727 -3.75273H5.38909C6.43636 -3.75273 6.64363 -2.94545 6.64363 -2.47636C6.64363 -1.39636 5.67273 -0.338182 4.38545 -0.338182H2.90182Z' id='g2-66'/>
<path d='M8.29091 -7.58182C8.29091 -7.61454 8.26909 -7.69091 8.17091 -7.69091C8.13818 -7.69091 8.12727 -7.68 8.00727 -7.56L7.24363 -6.72C7.14545 -6.87273 6.64363 -7.69091 5.43273 -7.69091C3 -7.69091 0.545454 -5.28 0.545454 -2.74909C0.545454 -0.949091 1.83273 0.24 3.50182 0.24C4.45091 0.24 5.28 -0.196364 5.85818 -0.698182C6.87273 -1.59273 7.05818 -2.58545 7.05818 -2.61818C7.05818 -2.72727 6.94909 -2.72727 6.92727 -2.72727C6.86182 -2.72727 6.80727 -2.70545 6.78545 -2.61818C6.68727 -2.30182 6.43636 -1.52727 5.68363 -0.894545C4.93091 -0.283636 4.24364 -0.0981818 3.67636 -0.0981818C2.69454 -0.0981818 1.53818 -0.665454 1.53818 -2.36727C1.53818 -2.98909 1.76727 -4.75636 2.85818 -6.03273C3.52364 -6.80727 4.54909 -7.35273 5.52 -7.35273C6.63273 -7.35273 7.27636 -6.51273 7.27636 -5.24727C7.27636 -4.81091 7.24363 -4.8 7.24363 -4.69091S7.36363 -4.58182 7.40727 -4.58182C7.54909 -4.58182 7.54909 -4.60364 7.60363 -4.8L8.29091 -7.58182Z' id='g2-67'/>
<path d='M1.73454 -0.850909C1.62545 -0.425454 1.60364 -0.338182 0.741818 -0.338182C0.556363 -0.338182 0.436364 -0.338182 0.436364 -0.130909C0.436364 0 0.534545 0 0.741818 0H4.35273C6.62182 0 8.77091 -2.30182 8.77091 -4.69091C8.77091 -6.22909 7.84363 -7.45091 6.20727 -7.45091H2.54182C2.33454 -7.45091 2.21454 -7.45091 2.21454 -7.24363C2.21454 -7.11273 2.31273 -7.11273 2.53091 -7.11273C2.67273 -7.11273 2.86909 -7.10182 3 -7.09091C3.17454 -7.06909 3.24 -7.03636 3.24 -6.91636C3.24 -6.87273 3.22909 -6.84 3.19636 -6.70909L1.73454 -0.850909ZM4.09091 -6.69818C4.18909 -7.08 4.21091 -7.11273 4.68 -7.11273H5.84727C6.91636 -7.11273 7.82182 -6.53454 7.82182 -5.09454C7.82182 -4.56 7.60363 -2.77091 6.67636 -1.57091C6.36 -1.16727 5.49818 -0.338182 4.15636 -0.338182H2.92364C2.77091 -0.338182 2.74909 -0.338182 2.68364 -0.349091C2.57454 -0.36 2.54182 -0.370909 2.54182 -0.458182C2.54182 -0.490909 2.54182 -0.512727 2.59636 -0.709091L4.09091 -6.69818Z' id='g2-68'/>
<path d='M4.46182 -6.89454C4.46182 -7.09091 4.46182 -7.28727 4.24364 -7.28727S4.02545 -7.05818 4.02545 -6.89454V-0.436364H0.992727C0.829091 -0.436364 0.6 -0.436364 0.6 -0.218182S0.829091 0 0.992727 0H7.50545C7.69091 0 7.88727 0 7.88727 -0.218182S7.69091 -0.436364 7.50545 -0.436364H4.46182V-6.89454Z' id='g1-63'/>
</defs>
<g id='page1' transform='matrix(1.13 0 0 1.13 -80.23 -66.0615)'>
<use x='70.7347' xlink:href='#g0-26' y='58.6778'/>
<use x='78.9166' xlink:href='#g2-68' y='67.2677'/>
<use x='88.2177' xlink:href='#g2-67' y='67.2677'/>
<use x='99.7961' xlink:href='#g1-63' y='67.2677'/>
<use x='111.279' xlink:href='#g2-65' y='67.2677'/>
<use x='119.431' xlink:href='#g2-66' y='67.2677'/>
<use x='79.2954' xlink:href='#g2-65' y='80.8169'/>
<use x='87.4467' xlink:href='#g2-67' y='80.8169'/>
<use x='99.025' xlink:href='#g3-61' y='80.8169'/>
<use x='110.508' xlink:href='#g2-66' y='80.8169'/>
<use x='119.3' xlink:href='#g2-67' y='80.8169'/>
</g>
</svg>
