<?xml version='1.0' encoding='UTF-8'?>
<!-- This file was generated by dvisvgm 1.15.1 -->
<svg height='44.3372pt' version='1.1' viewBox='-0.299738 -0.247769 71.392 44.3372' width='71.392pt' xmlns='http://www.w3.org/2000/svg' xmlns:xlink='http://www.w3.org/1999/xlink'>
<defs>
<path d='M7.13454 -7.12363C7.25454 -7.25454 7.25454 -7.30909 7.25454 -7.35273C7.25454 -7.47273 7.15636 -7.57091 7.03636 -7.57091C6.97091 -7.57091 6.90545 -7.53818 6.79636 -7.41818L0.741818 -0.447273C0.643636 -0.338182 0.610909 -0.305454 0.610909 -0.218182C0.610909 0 0.818182 0 1.00364 0H6.87273C7.05818 0 7.25454 0 7.25454 -0.218182S7.05818 -0.436364 6.87273 -0.436364H1.30909L7.13454 -7.12363Z' id='g0-92'/>
<path d='M7.49454 -3.56727C7.65818 -3.56727 7.86545 -3.56727 7.86545 -3.78545S7.65818 -4.00364 7.50545 -4.00364H0.970909C0.818182 -4.00364 0.610909 -4.00364 0.610909 -3.78545S0.818182 -3.56727 0.981818 -3.56727H7.49454ZM7.50545 -1.45091C7.65818 -1.45091 7.86545 -1.45091 7.86545 -1.66909S7.65818 -1.88727 7.49454 -1.88727H0.981818C0.818182 -1.88727 0.610909 -1.88727 0.610909 -1.66909S0.818182 -1.45091 0.970909 -1.45091H7.50545Z' id='g4-61'/>
<path d='M1.95273 -1.25455C1.51636 -0.523636 1.09091 -0.370909 0.610909 -0.338182C0.48 -0.327273 0.381818 -0.327273 0.381818 -0.12C0.381818 -0.0545454 0.436364 0 0.523636 0C0.818182 0 1.15636 -0.0327273 1.46182 -0.0327273C1.82182 -0.0327273 2.20364 0 2.55273 0C2.61818 0 2.76 0 2.76 -0.207273C2.76 -0.327273 2.66182 -0.338182 2.58545 -0.338182C2.33454 -0.36 2.07273 -0.447273 2.07273 -0.72C2.07273 -0.850909 2.13818 -0.970909 2.22545 -1.12364L3.05454 -2.52H5.79273C5.81454 -2.29091 5.96727 -0.807273 5.96727 -0.698182C5.96727 -0.370909 5.4 -0.338182 5.18182 -0.338182C5.02909 -0.338182 4.92 -0.338182 4.92 -0.12C4.92 0 5.05091 0 5.07273 0C5.52 0 5.98909 -0.0327273 6.43636 -0.0327273C6.70909 -0.0327273 7.39636 0 7.66909 0C7.73454 0 7.86545 0 7.86545 -0.218182C7.86545 -0.338182 7.75636 -0.338182 7.61454 -0.338182C6.93818 -0.338182 6.93818 -0.414545 6.90545 -0.730909L6.24 -7.54909C6.21818 -7.76727 6.21818 -7.81091 6.03273 -7.81091C5.85818 -7.81091 5.81454 -7.73454 5.74909 -7.62545L1.95273 -1.25455ZM3.26182 -2.85818L5.41091 -6.45818L5.76 -2.85818H3.26182Z' id='g3-65'/>
<path d='M1.74545 -0.850909C1.63636 -0.425454 1.61455 -0.338182 0.752727 -0.338182C0.567273 -0.338182 0.458182 -0.338182 0.458182 -0.12C0.458182 0 0.556363 0 0.752727 0H4.64727C6.37091 0 7.65818 -1.28727 7.65818 -2.35636C7.65818 -3.14182 7.02545 -3.77454 5.96727 -3.89454C7.10182 -4.10182 8.24727 -4.90909 8.24727 -5.94545C8.24727 -6.75273 7.52727 -7.45091 6.21818 -7.45091H2.55273C2.34545 -7.45091 2.23636 -7.45091 2.23636 -7.23273C2.23636 -7.11273 2.33454 -7.11273 2.54182 -7.11273C2.56364 -7.11273 2.77091 -7.11273 2.95636 -7.09091C3.15273 -7.06909 3.25091 -7.05818 3.25091 -6.91636C3.25091 -6.87273 3.24 -6.84 3.20727 -6.70909L1.74545 -0.850909ZM3.39273 -3.99273L4.06909 -6.69818C4.16727 -7.08 4.18909 -7.11273 4.65818 -7.11273H6.06545C7.02545 -7.11273 7.25454 -6.46909 7.25454 -5.98909C7.25454 -5.02909 6.31636 -3.99273 4.98545 -3.99273H3.39273ZM2.90182 -0.338182C2.74909 -0.338182 2.72727 -0.338182 2.66182 -0.349091C2.55273 -0.36 2.52 -0.370909 2.52 -0.458182C2.52 -0.490909 2.52 -0.512727 2.57454 -0.709091L3.32727 -3.75273H5.38909C6.43636 -3.75273 6.64363 -2.94545 6.64363 -2.47636C6.64363 -1.39636 5.67273 -0.338182 4.38545 -0.338182H2.90182Z' id='g3-66'/>
<path d='M2.11208 -3.77783C2.15193 -3.88144 2.18381 -3.93724 2.18381 -4.01694C2.18381 -4.27995 1.94471 -4.45529 1.72154 -4.45529C1.40274 -4.45529 1.31507 -4.17634 1.28319 -4.06476L0.270984 -0.629639C0.239103 -0.533998 0.239103 -0.510087 0.239103 -0.502117C0.239103 -0.430386 0.286924 -0.414446 0.366625 -0.390535C0.510087 -0.326775 0.526027 -0.326775 0.541968 -0.326775C0.565878 -0.326775 0.613699 -0.326775 0.669489 -0.462267L2.11208 -3.77783Z' id='g2-48'/>
<path d='M5.49818 4.94182C5.49818 4.04727 5.73818 1.96364 7.68 0.589091C7.82182 0.48 7.83273 0.469091 7.83273 0.272727C7.83273 0.0218182 7.82182 0.0109091 7.54909 0.0109091H7.37454C5.02909 1.27636 4.18909 3.33818 4.18909 4.94182V9.63272C4.18909 9.91636 4.2 9.92727 4.49454 9.92727H5.19273C5.48727 9.92727 5.49818 9.91636 5.49818 9.63272V4.94182Z' id='g1-56'/>
<path d='M7.54909 9.80727C7.82182 9.80727 7.83273 9.79636 7.83273 9.54545C7.83273 9.34909 7.82182 9.33818 7.77818 9.30545C7.44 9.05454 6.65454 8.49818 6.14182 7.49454C5.71636 6.66545 5.49818 5.82545 5.49818 4.87636V0.185454C5.49818 -0.0981818 5.48727 -0.109091 5.19273 -0.109091H4.49454C4.2 -0.109091 4.18909 -0.0981818 4.18909 0.185454V4.87636C4.18909 6.49091 5.02909 8.55272 7.37454 9.80727H7.54909Z' id='g1-58'/>
<path d='M4.18909 19.4509C4.18909 19.7345 4.2 19.7454 4.49454 19.7454H5.19273C5.48727 19.7454 5.49818 19.7345 5.49818 19.4509V14.8473C5.49818 13.5273 4.94182 11.3018 2.49818 9.81818C4.96363 8.32363 5.49818 6.07636 5.49818 4.78909V0.185454C5.49818 -0.0981818 5.48727 -0.109091 5.19273 -0.109091H4.49454C4.2 -0.109091 4.18909 -0.0981818 4.18909 0.185454V4.8C4.18909 5.71636 3.99273 7.98545 1.98545 9.51272C1.86545 9.61091 1.85454 9.62182 1.85454 9.81818S1.86545 10.0255 1.98545 10.1236C2.26909 10.3418 3.02182 10.92 3.54545 12.0218C3.97091 12.8945 4.18909 13.8655 4.18909 14.8364V19.4509Z' id='g1-60'/>
</defs>
<g id='page1' transform='matrix(1.13 0 0 1.13 -80.23 -66.3195)'>
<use x='70.7347' xlink:href='#g1-56' y='58.4706'/>
<use x='70.7347' xlink:href='#g1-60' y='68.2888'/>
<use x='70.7347' xlink:href='#g1-58' y='87.9254'/>
<use x='82.7724' xlink:href='#g0-92' y='67.2677'/>
<use x='90.6218' xlink:href='#g3-65' y='67.2677'/>
<use x='101.803' xlink:href='#g4-61' y='67.2677'/>
<use x='113.287' xlink:href='#g0-92' y='67.2677'/>
<use x='121.136' xlink:href='#g3-65' y='67.2677'/>
<use x='129.287' xlink:href='#g2-48' y='63.3089'/>
<use x='80.4317' xlink:href='#g3-65' y='80.8169'/>
<use x='88.583' xlink:href='#g3-66' y='80.8169'/>
<use x='100.404' xlink:href='#g4-61' y='80.8169'/>
<use x='111.888' xlink:href='#g3-65' y='80.8169'/>
<use x='120.039' xlink:href='#g2-48' y='76.8581'/>
<use x='122.834' xlink:href='#g3-66' y='80.8169'/>
<use x='131.625' xlink:href='#g2-48' y='76.8581'/>
<use x='82.1323' xlink:href='#g0-92' y='94.3661'/>
<use x='89.9817' xlink:href='#g3-66' y='94.3661'/>
<use x='101.803' xlink:href='#g4-61' y='94.3661'/>
<use x='113.286' xlink:href='#g0-92' y='94.3661'/>
<use x='121.136' xlink:href='#g3-66' y='94.3661'/>
<use x='129.927' xlink:href='#g2-48' y='90.4072'/>
</g>
</svg>
