<?xml version='1.0' encoding='UTF-8'?>
<!-- This file was generated by dvisvgm 1.15.1 -->
<svg height='32.3016pt' version='1.1' viewBox='-0.299738 -0.244864 162.752 32.3016' width='162.752pt' xmlns='http://www.w3.org/2000/svg' xmlns:xlink='http://www.w3.org/1999/xlink'>
<defs>
<path d='M4.97335 17.8012C4.97335 17.2394 4.97335 16.3547 4.22017 15.3863C3.75392 14.7885 3.07248 14.2386 2.24757 13.868C4.57883 12.7442 4.97335 11.0227 4.97335 10.3412V3.45504C4.97335 2.71382 4.97335 1.18356 7.29265 0.0358655C7.38829 -0.0119552 7.38829 -0.0358655 7.38829 -0.215193C7.38829 -0.466252 7.38829 -0.478207 7.12528 -0.478207C6.95791 -0.478207 6.934 -0.478207 6.62316 -0.334745C5.4396 0.251059 4.268 1.19552 4.01694 2.65405C3.98107 2.89315 3.98107 3.00075 3.98107 3.80174V9.32503C3.98107 9.69564 3.98107 10.3173 3.96912 10.4488C3.86152 11.7041 3.13225 12.792 1.76936 13.5452C1.57808 13.6528 1.56613 13.6648 1.56613 13.856C1.56613 14.0593 1.57808 14.0712 1.74545 14.1669C2.54645 14.6092 3.69415 15.47 3.93325 16.9644C3.98107 17.2394 3.98107 17.2633 3.98107 17.3948V24.4961C3.98107 26.2296 5.17659 27.3654 6.65903 28.0707C6.92204 28.2022 6.94595 28.2022 7.12528 28.2022C7.37634 28.2022 7.38829 28.2022 7.38829 27.9392C7.38829 27.7479 7.37634 27.736 7.2807 27.6762C6.79054 27.4371 5.24832 26.66 4.99726 24.9385C4.97335 24.7711 4.97335 24.6396 4.97335 23.9223V17.8012Z' id='g0-26'/>
<path d='M2.50262 -5.07696C2.50262 -5.29215 2.48667 -5.30012 2.27148 -5.30012C1.94471 -4.98132 1.52229 -4.79004 0.765131 -4.79004V-4.52702C0.980324 -4.52702 1.41071 -4.52702 1.87298 -4.74222V-0.653549C1.87298 -0.358655 1.84907 -0.263014 1.09191 -0.263014H0.812951V0C1.13973 -0.0239103 1.82516 -0.0239103 2.18381 -0.0239103S3.23587 -0.0239103 3.56264 0V-0.263014H3.28369C2.52653 -0.263014 2.50262 -0.358655 2.50262 -0.653549V-5.07696Z' id='g3-49'/>
<path d='M2.24757 -1.6259C2.37509 -1.74545 2.70984 -2.00847 2.83736 -2.12005C3.33151 -2.57435 3.80174 -3.0127 3.80174 -3.73798C3.80174 -4.68643 3.00473 -5.30012 2.00847 -5.30012C1.05205 -5.30012 0.422416 -4.57484 0.422416 -3.8655C0.422416 -3.47497 0.73325 -3.41918 0.844832 -3.41918C1.0122 -3.41918 1.25928 -3.53873 1.25928 -3.84159C1.25928 -4.25604 0.860772 -4.25604 0.765131 -4.25604C0.996264 -4.83786 1.53026 -5.03711 1.9208 -5.03711C2.66202 -5.03711 3.04458 -4.40747 3.04458 -3.73798C3.04458 -2.90909 2.46276 -2.30336 1.52229 -1.33898L0.518057 -0.302864C0.422416 -0.215193 0.422416 -0.199253 0.422416 0H3.57061L3.80174 -1.42665H3.55467C3.53076 -1.26725 3.467 -0.868742 3.37136 -0.71731C3.32354 -0.653549 2.71781 -0.653549 2.59029 -0.653549H1.17161L2.24757 -1.6259Z' id='g3-50'/>
<path d='M5.66675 -4.87771C5.28418 -4.80598 5.14072 -4.51905 5.14072 -4.29191C5.14072 -4.00498 5.36787 -3.90934 5.53524 -3.90934C5.8939 -3.90934 6.14496 -4.22017 6.14496 -4.54296C6.14496 -5.04508 5.57111 -5.27223 5.06899 -5.27223C4.33973 -5.27223 3.93325 -4.55492 3.82565 -4.32777C3.55068 -5.22441 2.80946 -5.27223 2.59427 -5.27223C1.37484 -5.27223 0.729265 -3.7061 0.729265 -3.44309C0.729265 -3.39527 0.777086 -3.33549 0.860772 -3.33549C0.956413 -3.33549 0.980324 -3.40722 1.00423 -3.45504C1.41071 -4.78207 2.21171 -5.03313 2.55841 -5.03313C3.09639 -5.03313 3.20399 -4.53101 3.20399 -4.24408C3.20399 -3.98107 3.13225 -3.7061 2.98879 -3.13225L2.58232 -1.4944C2.40299 -0.777086 2.05629 -0.119552 1.42267 -0.119552C1.36289 -0.119552 1.06401 -0.119552 0.812951 -0.274969C1.24334 -0.358655 1.33898 -0.71731 1.33898 -0.860772C1.33898 -1.09988 1.15965 -1.24334 0.932503 -1.24334C0.645579 -1.24334 0.334745 -0.992279 0.334745 -0.609714C0.334745 -0.107597 0.896638 0.119552 1.41071 0.119552C1.98456 0.119552 2.39103 -0.334745 2.64209 -0.824907C2.83337 -0.119552 3.43113 0.119552 3.87347 0.119552C5.0929 0.119552 5.73848 -1.44658 5.73848 -1.70959C5.73848 -1.76936 5.69066 -1.81719 5.61893 -1.81719C5.51133 -1.81719 5.49938 -1.75741 5.46351 -1.66177C5.14072 -0.609714 4.44732 -0.119552 3.90934 -0.119552C3.49091 -0.119552 3.26376 -0.430386 3.26376 -0.920548C3.26376 -1.18356 3.31158 -1.37484 3.50286 -2.16389L3.9213 -3.78979C4.10062 -4.5071 4.5071 -5.03313 5.05704 -5.03313C5.08095 -5.03313 5.41569 -5.03313 5.66675 -4.87771Z' id='g2-120'/>
<path d='M3.14421 1.33898C2.82142 1.79328 2.35517 2.19975 1.76936 2.19975C1.6259 2.19975 1.05205 2.17584 0.872727 1.6259C0.908593 1.63786 0.968369 1.63786 0.992279 1.63786C1.35093 1.63786 1.59004 1.32702 1.59004 1.05205S1.36289 0.681445 1.18356 0.681445C0.992279 0.681445 0.573848 0.824907 0.573848 1.41071C0.573848 2.02042 1.08792 2.43885 1.76936 2.43885C2.96488 2.43885 4.17235 1.33898 4.5071 0.0119552L5.6787 -4.65056C5.69066 -4.71034 5.71457 -4.78207 5.71457 -4.8538C5.71457 -5.03313 5.57111 -5.15268 5.39178 -5.15268C5.28418 -5.15268 5.03313 -5.10486 4.93748 -4.7462L4.0528 -1.23138C3.99303 -1.01619 3.99303 -0.992279 3.89738 -0.860772C3.65828 -0.526027 3.26376 -0.119552 2.68991 -0.119552C2.02042 -0.119552 1.96065 -0.777086 1.96065 -1.09988C1.96065 -1.78132 2.28344 -2.70187 2.60623 -3.56264C2.73773 -3.90934 2.80946 -4.07671 2.80946 -4.31582C2.80946 -4.81793 2.45081 -5.27223 1.86501 -5.27223C0.765131 -5.27223 0.32279 -3.53873 0.32279 -3.44309C0.32279 -3.39527 0.37061 -3.33549 0.454296 -3.33549C0.561893 -3.33549 0.573848 -3.38331 0.621669 -3.55068C0.908593 -4.55492 1.36289 -5.03313 1.82914 -5.03313C1.93674 -5.03313 2.13998 -5.03313 2.13998 -4.63861C2.13998 -4.32777 2.00847 -3.98107 1.82914 -3.52677C1.24334 -1.96065 1.24334 -1.56613 1.24334 -1.2792C1.24334 -0.143462 2.05629 0.119552 2.65405 0.119552C3.00075 0.119552 3.43113 0.0119552 3.84956 -0.430386L3.86152 -0.418431C3.68219 0.286924 3.56264 0.753176 3.14421 1.33898Z' id='g2-121'/>
<path d='M4.77011 -2.76164H8.06974C8.23711 -2.76164 8.4523 -2.76164 8.4523 -2.97684C8.4523 -3.20399 8.24907 -3.20399 8.06974 -3.20399H4.77011V-6.50361C4.77011 -6.67098 4.77011 -6.88618 4.55492 -6.88618C4.32777 -6.88618 4.32777 -6.68294 4.32777 -6.50361V-3.20399H1.02814C0.860772 -3.20399 0.645579 -3.20399 0.645579 -2.98879C0.645579 -2.76164 0.848817 -2.76164 1.02814 -2.76164H4.32777V0.537983C4.32777 0.705355 4.32777 0.920548 4.54296 0.920548C4.77011 0.920548 4.77011 0.71731 4.77011 0.537983V-2.76164Z' id='g4-43'/>
<path d='M5.35592 -3.82565C5.35592 -4.81793 5.29614 -5.7863 4.86575 -6.69489C4.37559 -7.68717 3.51482 -7.95019 2.92902 -7.95019C2.23562 -7.95019 1.3868 -7.60349 0.944458 -6.61121C0.609714 -5.85803 0.490162 -5.11681 0.490162 -3.82565C0.490162 -2.666 0.573848 -1.79328 1.00423 -0.944458C1.47049 -0.0358655 2.29539 0.251059 2.91706 0.251059C3.95716 0.251059 4.55492 -0.37061 4.90162 -1.06401C5.332 -1.96065 5.35592 -3.13225 5.35592 -3.82565ZM2.91706 0.0119552C2.5345 0.0119552 1.75741 -0.203238 1.53026 -1.50635C1.39875 -2.22366 1.39875 -3.13225 1.39875 -3.96912C1.39875 -4.94944 1.39875 -5.83412 1.59004 -6.53948C1.79328 -7.34047 2.40299 -7.71108 2.91706 -7.71108C3.37136 -7.71108 4.06476 -7.43611 4.29191 -6.40797C4.44732 -5.72653 4.44732 -4.78207 4.44732 -3.96912C4.44732 -3.16812 4.44732 -2.25953 4.31582 -1.53026C4.08867 -0.215193 3.33549 0.0119552 2.91706 0.0119552Z' id='g4-48'/>
<path d='M3.44309 -7.66326C3.44309 -7.93823 3.44309 -7.95019 3.20399 -7.95019C2.91706 -7.6274 2.3193 -7.18506 1.08792 -7.18506V-6.83836C1.36289 -6.83836 1.96065 -6.83836 2.61818 -7.14919V-0.920548C2.61818 -0.490162 2.58232 -0.3467 1.53026 -0.3467H1.15965V0C1.48244 -0.0239103 2.64209 -0.0239103 3.03661 -0.0239103S4.57883 -0.0239103 4.90162 0V-0.3467H4.53101C3.47895 -0.3467 3.44309 -0.490162 3.44309 -0.920548V-7.66326Z' id='g4-49'/>
<path d='M5.26027 -2.00847H4.99726C4.96139 -1.80523 4.86575 -1.1477 4.7462 -0.956413C4.66252 -0.848817 3.98107 -0.848817 3.62242 -0.848817H1.41071C1.7335 -1.12379 2.46276 -1.88892 2.7736 -2.17584C4.59078 -3.84956 5.26027 -4.47123 5.26027 -5.65479C5.26027 -7.02964 4.17235 -7.95019 2.78555 -7.95019S0.585803 -6.76663 0.585803 -5.73848C0.585803 -5.12877 1.11183 -5.12877 1.1477 -5.12877C1.39875 -5.12877 1.70959 -5.30809 1.70959 -5.69066C1.70959 -6.0254 1.48244 -6.25255 1.1477 -6.25255C1.0401 -6.25255 1.01619 -6.25255 0.980324 -6.2406C1.20747 -7.05355 1.85305 -7.60349 2.63014 -7.60349C3.64633 -7.60349 4.268 -6.75467 4.268 -5.65479C4.268 -4.63861 3.68219 -3.75392 3.00075 -2.98879L0.585803 -0.286924V0H4.94944L5.26027 -2.00847Z' id='g4-50'/>
<path d='M2.19975 -4.29191C1.99651 -4.27995 1.94869 -4.268 1.94869 -4.1604C1.94869 -4.04085 2.00847 -4.04085 2.22366 -4.04085H2.7736C3.78979 -4.04085 4.24408 -3.20399 4.24408 -2.05629C4.24408 -0.490162 3.43113 -0.071731 2.84533 -0.071731C2.27148 -0.071731 1.29116 -0.3467 0.944458 -1.13574C1.32702 -1.07597 1.67372 -1.29116 1.67372 -1.72154C1.67372 -2.06824 1.42267 -2.30735 1.08792 -2.30735C0.800996 -2.30735 0.490162 -2.13998 0.490162 -1.68568C0.490162 -0.621669 1.55417 0.251059 2.8812 0.251059C4.30386 0.251059 5.35592 -0.836862 5.35592 -2.04433C5.35592 -3.14421 4.47123 -4.00498 3.32354 -4.20822C4.36364 -4.5071 5.03313 -5.37983 5.03313 -6.31233C5.03313 -7.25679 4.0528 -7.95019 2.89315 -7.95019C1.69763 -7.95019 0.812951 -7.22092 0.812951 -6.34819C0.812951 -5.86999 1.18356 -5.77435 1.36289 -5.77435C1.61395 -5.77435 1.90087 -5.95367 1.90087 -6.31233C1.90087 -6.69489 1.61395 -6.86227 1.35093 -6.86227C1.2792 -6.86227 1.25529 -6.86227 1.21943 -6.85031C1.67372 -7.66326 2.79751 -7.66326 2.85729 -7.66326C3.25181 -7.66326 4.02889 -7.48394 4.02889 -6.31233C4.02889 -6.08518 3.99303 -5.41569 3.64633 -4.90162C3.28767 -4.37559 2.8812 -4.33973 2.55841 -4.32777L2.19975 -4.29191Z' id='g4-51'/>
<path d='M4.31582 -7.78281C4.31582 -8.00996 4.31582 -8.06974 4.14844 -8.06974C4.0528 -8.06974 4.01694 -8.06974 3.9213 -7.92628L0.32279 -2.34321V-1.99651H3.467V-0.908593C3.467 -0.466252 3.44309 -0.3467 2.57036 -0.3467H2.33126V0C2.60623 -0.0239103 3.55068 -0.0239103 3.88543 -0.0239103S5.17659 -0.0239103 5.45156 0V-0.3467H5.21245C4.35168 -0.3467 4.31582 -0.466252 4.31582 -0.908593V-1.99651H5.52329V-2.34321H4.31582V-7.78281ZM3.52677 -6.85031V-2.34321H0.621669L3.52677 -6.85031Z' id='g4-52'/>
<path d='M8.06974 -3.87347C8.23711 -3.87347 8.4523 -3.87347 8.4523 -4.08867C8.4523 -4.31582 8.24907 -4.31582 8.06974 -4.31582H1.02814C0.860772 -4.31582 0.645579 -4.31582 0.645579 -4.10062C0.645579 -3.87347 0.848817 -3.87347 1.02814 -3.87347H8.06974ZM8.06974 -1.64981C8.23711 -1.64981 8.4523 -1.64981 8.4523 -1.86501C8.4523 -2.09215 8.24907 -2.09215 8.06974 -2.09215H1.02814C0.860772 -2.09215 0.645579 -2.09215 0.645579 -1.87696C0.645579 -1.64981 0.848817 -1.64981 1.02814 -1.64981H8.06974Z' id='g4-61'/>
<path d='M11.2857 -2.98879C11.2857 -6.10909 8.87073 -8.5599 5.97758 -8.5599C3.04857 -8.5599 0.657534 -6.08518 0.657534 -2.98879C0.657534 0.131507 3.07248 2.58232 5.96563 2.58232C8.89465 2.58232 11.2857 0.107597 11.2857 -2.98879ZM5.97758 2.10411C3.29963 2.10411 1.13574 -0.167372 1.13574 -2.98879C1.13574 -5.83412 3.32354 -8.08169 5.96563 -8.08169C8.64359 -8.08169 10.8075 -5.81021 10.8075 -2.98879C10.8075 -0.143462 8.61968 2.10411 5.97758 2.10411Z' id='g1-13'/>
</defs>
<g id='page1' transform='matrix(1.13 0 0 1.13 -80.23 -65.542)'>
<use x='70.7347' xlink:href='#g0-26' y='58.2615'/>
<use x='79.7011' xlink:href='#g4-50' y='67.9453'/>
<use x='85.5323' xlink:href='#g4-48' y='67.9453'/>
<use x='91.3634' xlink:href='#g4-48' y='67.9453'/>
<use x='97.1945' xlink:href='#g4-52' y='67.9453'/>
<use x='103.026' xlink:href='#g2-120' y='67.9453'/>
<use x='112.31' xlink:href='#g4-43' y='67.9453'/>
<use x='124.037' xlink:href='#g4-50' y='67.9453'/>
<use x='129.868' xlink:href='#g4-48' y='67.9453'/>
<use x='135.699' xlink:href='#g4-48' y='67.9453'/>
<use x='141.53' xlink:href='#g4-51' y='67.9453'/>
<use x='147.361' xlink:href='#g2-121' y='67.9453'/>
<use x='156.797' xlink:href='#g4-61' y='67.9453'/>
<use x='169.189' xlink:href='#g4-50' y='67.9453'/>
<use x='175.02' xlink:href='#g4-48' y='67.9453'/>
<use x='180.851' xlink:href='#g4-48' y='67.9453'/>
<use x='186.682' xlink:href='#g4-50' y='67.9453'/>
<use x='206.713' xlink:href='#g3-49' y='67.585'/>
<use x='202.853' xlink:href='#g1-13' y='67.9453'/>
<use x='79.7011' xlink:href='#g4-50' y='81.893'/>
<use x='85.5323' xlink:href='#g4-48' y='81.893'/>
<use x='91.3634' xlink:href='#g4-48' y='81.893'/>
<use x='97.1945' xlink:href='#g4-50' y='81.893'/>
<use x='103.026' xlink:href='#g2-120' y='81.893'/>
<use x='112.31' xlink:href='#g4-43' y='81.893'/>
<use x='124.037' xlink:href='#g4-50' y='81.893'/>
<use x='129.868' xlink:href='#g4-48' y='81.893'/>
<use x='135.699' xlink:href='#g4-48' y='81.893'/>
<use x='141.53' xlink:href='#g4-49' y='81.893'/>
<use x='147.361' xlink:href='#g2-121' y='81.893'/>
<use x='156.797' xlink:href='#g4-61' y='81.893'/>
<use x='169.189' xlink:href='#g4-50' y='81.893'/>
<use x='175.02' xlink:href='#g4-48' y='81.893'/>
<use x='180.851' xlink:href='#g4-48' y='81.893'/>
<use x='186.682' xlink:href='#g4-48' y='81.893'/>
<use x='206.713' xlink:href='#g3-50' y='81.5326'/>
<use x='202.853' xlink:href='#g1-13' y='81.893'/>
</g>
</svg>
