<?xml version="1.0" encoding="UTF-8"?>
<!DOCTYPE svg PUBLIC "-//W3C//DTD SVG 1.1//EN" "http://www.w3.org/Graphics/SVG/1.1/DTD/svg11.dtd">
<!-- Creator: CorelDRAW X6 -->
<svg xmlns="http://www.w3.org/2000/svg" xml:space="preserve" width="70mm" height="45mm" version="1.1" style="shape-rendering:geometricPrecision; text-rendering:geometricPrecision; image-rendering:optimizeQuality; fill-rule:evenodd; clip-rule:evenodd"
viewBox="0 0 7000 4500"
 xmlns:xlink="http://www.w3.org/1999/xlink">
 <defs>
  <font id="FontID1" horiz-adv-x="677" font-variant="normal" style="fill-rule:nonzero" font-style="italic" font-weight="400">
	<font-face 
		font-family="Meiryo">
	</font-face>
   <missing-glyph><path d="M0 0z"/></missing-glyph>
  </font>
  <font id="FontID0" horiz-adv-x="610" font-variant="normal" style="fill-rule:nonzero" font-style="italic" font-weight="400">
	<font-face 
		font-family="Times New Roman">
	</font-face>
   <missing-glyph><path d="M0 0z"/></missing-glyph>
   <glyph unicode="A" horiz-adv-x="610"><path d="M514.009 677.992l-50.0127 -551.492c-2.66227,-25.8409 -3.82437,-42.6597 -3.82437,-50.8367 0,-12.9944 2.32421,-22.9885 7.33181,-29.8343 6.16971,-9.48698 14.4946,-16.5019 24.9958,-21.0024 10.6702,-4.50051 28.5032,-6.82471 53.499,-6.82471l-5.32454 -18.002 -260.839 0 5.49358 18.002 11.1773 0c21.1714,0 38.4973,4.50051 51.8298,13.6706 9.33908,6.16971 16.6709,16.5019 21.8264,30.8274 3.67647,10.1631 7.01487,33.8278 10.3322,71.332l8.00794 84.1785 -189.169 0 -67.0005 -91.5103c-15.3398,-20.4953 -24.9958,-35.3279 -28.8413,-44.1599 -3.82437,-9.00101 -5.83164,-17.347 -5.83164,-25.1648 0,-10.5012 4.18357,-19.5022 12.6775,-27.003 8.49391,-7.50085 22.5025,-11.5154 42.0047,-12.1704l-5.34567 -18.002 -195.994 0 5.49358 18.002c24.0027,0.99307 45.1741,9.00101 63.5142,24.1717 18.319,15.1496 45.8291,47.4983 82.1501,96.9828l394.502 538.835 17.347 0zm-96.8349 -162.166l-191.515 -261.832 166.35 0 25.1648 261.832z"/></glyph>
   <glyph unicode="y" horiz-adv-x="443"><path d="M159.166 442.001c11.0083,-18.8261 18.657,-36.49 22.8406,-52.9919 4.16244,-16.3328 8.49391,-48.6815 12.6564,-96.8349l21.3404 -240.006c19.6712,23.4956 48.1533,60.4927 85.4885,111.329 18.002,24.6788 40.1665,58.3376 66.8315,100.997 16.0159,26.01 25.8409,44.181 29.3484,54.5132 1.98614,5.32454 3.00034,10.6491 3.00034,16.1638 0,3.48631 -1.1621,6.48665 -3.3384,8.83198 -2.32421,2.15517 -8.32488,4.83857 -17.833,7.98682 -9.67715,3.00034 -17.664,8.85311 -24.0027,17.009 -6.33874,8.32488 -9.50811,17.833 -9.50811,28.6722 0,13.3325 4.01454,24.0027 11.8534,32.1586 7.81778,8.17698 17.4949,12.1704 29.3272,12.1704 14.3256,0 26.4959,-6.00068 36.6591,-17.833 10.1631,-11.8323 15.1707,-28.1651 15.1707,-48.9985 0,-25.8409 -8.83198,-55.1682 -26.4959,-88.1719 -17.664,-33.1728 -51.6608,-83.8404 -102.181,-152.172 -50.3296,-68.3316 -111.16,-143.002 -182.154,-223.821 -49.1675,-55.6753 -85.5096,-90.8342 -109.174,-105.329 -23.8337,-14.5157 -44.1599,-21.6785 -60.9998,-21.6785 -9.99408,0 -18.8261,3.8455 -26.4959,11.4943 -7.66988,7.50085 -11.4943,16.3328 -11.4943,26.5171 0,12.4873 5.32454,23.9816 15.8257,34.4828 10.5012,10.3322 21.9954,15.5088 34.3349,15.5088 6.50778,0 11.8323,-1.50017 16.1638,-4.33147 2.51437,-1.6692 5.34567,-6.33874 8.49391,-13.8396 3.00034,-7.66988 5.85277,-12.8254 8.51504,-15.3186 1.6692,-1.6692 3.65534,-2.51437 5.83164,-2.51437 1.98614,0 5.32454,1.6692 10.3322,5.00761 17.833,11.1562 38.4973,28.8201 62.331,53.1609 30.8274,32.1797 53.8371,58.8447 69.1768,79.8259l-27.3411 308.507c-4.50051,51.0057 -11.3252,82.0022 -20.3262,93.0105 -9.17005,10.9872 -24.3408,16.5019 -45.8502,16.5019 -6.82471,0 -18.9951,-1.0142 -36.49,-3.00034l-3.99341 17.9809 142.157 35.011z"/></glyph>
   <glyph unicode="Q" horiz-adv-x="722"><path d="M290.991 -15.0017l-124.324 -100.997c19.8403,3.3384 38.1592,5.00761 55.1682,5.00761 16.1638,0 31.1655,-1.0142 45.0051,-3.00034 13.8185,-2.00727 43.4838,-8.17698 88.8269,-18.5091 45.3431,-10.3322 85.0025,-15.5088 118.83,-15.5088 36.1731,0 66.8315,6.33874 91.9963,18.8472 25.1648,12.6564 49.6746,33.6587 73.3392,63.155l16.1638 -7.98682c-33.4897,-48.5125 -72.8322,-83.3333 -118.323,-104.843 -45.3431,-21.4883 -93.4965,-32.1586 -144.502,-32.1586 -28.3342,0 -66.8315,5.66261 -115.83,16.8188 -75.0085,16.8399 -127.345,25.1859 -157.349,25.1859 -11.3252,0 -20.4953,-0.845166 -27.658,-2.34533 -7.16278,-1.6692 -17.833,-5.49358 -32.1586,-11.6633l-11.1773 11.6633 197.325 159.335c-61.1477,8.49391 -107.484,35.666 -138.987,81.6641 -31.5035,45.8291 -47.3293,94.8276 -47.3293,146.995 0,71.332 21.4883,145.178 64.4861,221.349 43.1668,76.3185 98.166,135.332 165.336,177.168 67.0005,41.8146 133.008,62.8169 197.663,62.8169 48.0054,0 89.0171,-9.82505 123.014,-29.3272 33.9968,-19.5022 60.1547,-48.0054 78.6638,-85.3406 18.488,-37.1662 27.8271,-75.4944 27.8271,-114.499 0,-74.9873 -21.3193,-150.82 -64.1692,-227.836 -42.6597,-76.8256 -95.8207,-134.994 -159.335,-174.653 -63.4931,-39.6594 -131.001,-60.0068 -202.502,-61.3379zm183.338 661.997c-32.6657,0 -64.4861,-7.98682 -95.6516,-24.1717 -31.0176,-16.1638 -62.014,-42.6597 -92.5034,-79.3188 -30.6795,-36.6802 -58.1685,-84.6645 -82.6783,-143.995 -29.6653,-73.0012 -44.498,-142.009 -44.498,-207.002 0,-46.1672 11.8323,-87.1788 35.666,-123.014 23.8337,-35.666 60.3448,-53.499 109.512,-53.499 29.3272,0 58.3164,7.33181 86.9887,21.9954 28.6722,14.6848 58.3376,39.6805 88.9959,74.8394 39.1734,45.0051 71.8391,102.328 98.166,171.674 26.5171,69.4937 39.6805,134.001 39.6805,193.839 0,43.9909 -11.8323,82.9953 -35.666,117.33 -23.8337,34.1658 -59.8377,51.3227 -108.012,51.3227z"/></glyph>
   <glyph unicode="x" horiz-adv-x="443"><path d="M173.343 442.001c15.8257,-17.009 27.8271,-33.8278 35.8139,-50.8367 5.68374,-11.6633 15.0017,-42.4907 28.0172,-92.1653l43.3359 64.5073c11.4943,15.4877 25.3127,30.4894 41.8146,44.667 16.3328,13.9875 30.8485,23.8337 43.3359,28.9892 7.83891,3.16937 16.5019,4.83857 26.01,4.83857 14.1565,0 25.3338,-3.67647 33.8278,-11.1773 8.32488,-7.47972 12.5085,-16.6498 12.5085,-27.32 0,-12.3394 -2.51437,-20.8333 -7.33181,-25.3338 -9.33908,-8.17698 -19.8403,-12.1704 -31.6726,-12.1704 -6.84584,0 -14.3256,1.50017 -22.1645,4.33147 -15.5088,5.17664 -25.8409,7.66988 -31.1655,7.66988 -7.83891,0 -17.178,-4.50051 -27.9961,-13.6706 -20.5164,-16.8399 -44.836,-49.5056 -73.1702,-97.997l40.4834 -168.505c6.33874,-25.5029 11.6844,-40.6525 16.0159,-45.6601 4.33147,-5.00761 8.49391,-7.50085 12.8254,-7.50085 6.99375,0 15.1707,3.67647 24.3408,11.1562 18.319,14.8538 33.8278,34.187 46.6531,58.1685l17.178 -8.83198c-20.6643,-37.9902 -46.8433,-69.6628 -78.6638,-94.8276 -18.002,-14.1565 -33.1728,-21.3404 -45.6812,-21.3404 -18.319,0 -32.8347,10.0152 -43.6528,30.0034 -6.84584,12.8465 -20.8333,67.8457 -42.1738,164.997 -50.6677,-88.3198 -91.3413,-145.157 -122,-170.491 -19.8403,-16.3328 -39.0044,-24.5098 -57.4924,-24.5098 -13.0156,0 -24.8479,4.66954 -35.666,14.1777 -7.83891,7.33181 -11.6633,16.9878 -11.6633,28.9892 0,10.8392 3.48631,19.8403 10.6491,27.003 7.18391,7.16278 15.8469,10.8392 26.348,10.8392 10.3322,0 21.3193,-5.17664 32.9826,-15.6778 8.34601,-7.47972 14.8538,-11.3252 19.3332,-11.3252 4.01454,0 9.00101,2.49324 15.1707,7.66988 15.1707,12.3394 36.0041,38.8354 62.1831,79.3399 26.1579,40.6525 43.4838,70.0008 51.4917,88.1508 -19.8403,79.1709 -30.5105,121.007 -32.1586,125.676 -7.35294,21.1714 -17.009,36.1731 -28.8413,45.0051 -12.0014,8.83198 -29.4963,13.1635 -52.6749,13.1635 -7.33181,0 -15.8257,-0.338066 -25.5029,-0.99307l0 17.9809 129.353 23.0096z"/></glyph>
   <glyph unicode="B" horiz-adv-x="610"><path d="M144.84 645.009l6.82471 17.9809 237.83 0c39.9975,0 75.6635,-6.14858 106.829,-18.488 31.3345,-12.5085 54.8513,-29.6653 70.3389,-51.8298 15.5088,-22.1645 23.3477,-45.5122 23.3477,-70.3389 0,-37.9902 -14.6848,-72.4941 -43.843,-103.174 -29.1582,-30.8274 -76.6777,-53.499 -142.664,-68.1626 43.6739,-15.0017 76.0015,-34.8208 96.4968,-59.6687 20.6643,-24.8267 30.9965,-52.1678 30.9965,-81.8332 0,-33.0037 -8.49391,-64.4861 -25.3338,-94.4895 -16.9878,-30.0034 -38.6663,-53.33 -65.1623,-70.0008 -26.4959,-16.6709 -58.5066,-28.8413 -96.0108,-36.6802 -26.665,-5.49358 -68.1626,-8.32488 -124.831,-8.32488l-242.499 0 6.33874 18.002c25.3338,0.655003 42.6597,3.16937 51.6608,7.33181 13.1846,5.49358 22.3335,12.8254 27.8482,21.9954 7.81778,12.3394 18.319,40.6736 31.3345,85.0025l115.492 401.665c9.99408,33.8278 15.1707,57.6614 15.1707,71.332 0,12.1704 -4.50051,21.6785 -13.5015,28.6722 -9.00101,6.99375 -26.01,10.5012 -51.0057,10.5012 -5.49358,0 -10.6702,0.169033 -15.6567,0.507099zm100.828 -275.017c21.1714,-0.655003 36.321,-0.99307 45.6601,-0.99307 67.3386,0 117.499,14.6636 150.334,43.9909 32.8347,29.3484 49.3365,66.0074 49.3365,110.019 0,33.4897 -10.1631,59.4997 -30.3414,77.9877 -20.1572,18.6782 -52.4848,27.9961 -96.8137,27.9961 -11.8534,0 -26.834,-1.98614 -45.0051,-5.83164l-73.1702 -253.169zm-94.1726 -327.164c35.666,-4.50051 63.6621,-6.82471 83.8404,-6.82471 51.4917,0 97.1729,15.3398 137.001,45.9981 39.8284,30.8274 59.6687,72.4941 59.6687,125 0,40.3355 -12.5085,71.67 -37.3352,94.1726 -24.8479,22.4814 -65.0144,33.8278 -120.499,33.8278 -10.6702,0 -23.8337,-0.676133 -39.1734,-2.00727l-83.5024 -290.166z"/></glyph>
   <glyph unicode="P" horiz-adv-x="610"><path d="M155.341 662.99l261.156 0c68.5007,0 119.675,-14.6636 153.672,-44.1599 33.8278,-29.4963 50.8367,-65.3313 50.8367,-107.674 0,-33.4897 -10.8392,-66.1553 -32.3487,-97.6589 -21.4883,-31.6726 -53.499,-57.3234 -95.8207,-76.9946 -42.5118,-19.6712 -88.3409,-29.4963 -137.508,-29.4963 -30.6584,0 -69.6628,5.32454 -116.992,16.1638l-54.9992 -191.493c-12.5085,-39.3425 -18.6782,-65.3524 -18.6782,-77.8398 0,-9.50811 4.50051,-17.4949 13.1635,-23.6646 8.85311,-6.33874 29.8343,-10.3322 63.0071,-12.1704l-4.83857 -18.002 -260.163 0 5.34567 18.002c34.4828,0 58.4855,6.00068 72.156,17.833 13.5015,11.8323 27.9961,44.667 43.6739,98.5041l108.498 377.662c12.9944,45.322 19.5022,75.6635 19.5022,91.0032 0,11.3252 -4.50051,20.8333 -13.8396,28.3342 -9.33908,7.50085 -29.6653,12.0014 -61.3379,13.6706l5.51471 17.9809zm91.8272 -309.331c36.321,-9.17005 65.5003,-13.6494 87.6648,-13.6494 34.842,0 66.8315,7.33181 95.5037,21.9954 28.6722,14.6636 51.1537,36.49 67.3386,65.8173 16.1638,29.3484 24.3196,59.6687 24.3196,91.3413 0,32.8347 -9.82505,58.8447 -29.6653,78.0088 -19.8403,19.1641 -49.8225,28.8201 -90.158,28.8201 -21.6785,0 -48.0054,-2.8313 -79.0019,-8.32488l-76.0015 -264.009z"/></glyph>
  </font>
  <style type="text/css">
   <![CDATA[
    @font-face { font-family:"Meiryo";src:url("#FontID1") format(svg)}
    @font-face { font-family:"Times New Roman";src:url("#FontID0") format(svg)}
    .str1 {stroke:black;stroke-width:4.73;stroke-linejoin:bevel}
    .str0 {stroke:black;stroke-width:29.58}
    .fil1 {fill:none}
    .fil0 {fill:black}
    .fnt0 {font-style:italic;font-weight:normal;font-size:473.28px;font-family:'Times New Roman'}
    .fnt5 {font-style:italic;font-weight:normal;font-size:473.28px;font-family:'Times New Roman'}
    .fnt1 {font-style:italic;font-weight:normal;font-size:473.28px;font-family:'Times New Roman'}
    .fnt2 {font-style:italic;font-weight:normal;font-size:473.28px;font-family:'Times New Roman'}
    .fnt3 {font-style:italic;font-weight:normal;font-size:473.28px;font-family:'Times New Roman'}
    .fnt4 {font-style:italic;font-weight:normal;font-size:473.28px;font-family:'Times New Roman'}
   ]]>
  </style>
 </defs>
 <g id="图层_x0020_1">
  <metadata id="CorelCorpID_0Corel-Layer"/>
  <polygon class="fil0" points="5815,3688 6143,3776 5815,3864 5917,3776 "/>
  <polygon class="fil0" points="3755,770 3842,443 3930,770 3842,669 "/>
  <line class="fil1 str0" x1="3842" y1="669" x2="3842" y2= "4302" />
  <line class="fil1 str0" x1="3930" y1="770" x2="3842" y2= "443" />
  <line class="fil1 str0" x1="3842" y1="669" x2="3930" y2= "770" />
  <line class="fil1 str0" x1="3755" y1="770" x2="3842" y2= "669" />
  <line class="fil1 str0" x1="3842" y1="443" x2="3755" y2= "770" />
  <line class="fil1 str0" x1="5917" y1="3776" x2="548" y2= "3776" />
  <line class="fil1 str0" x1="5815" y1="3864" x2="6143" y2= "3776" />
  <line class="fil1 str0" x1="5917" y1="3776" x2="5815" y2= "3864" />
  <line class="fil1 str0" x1="5815" y1="3688" x2="5917" y2= "3776" />
  <line class="fil1 str0" x1="6143" y1="3776" x2="5815" y2= "3688" />
  <path class="fil0 str1" d="M1386 1300l177 0 0 30 -177 0 0 -30zm296 0l177 0 0 30 -177 0 0 -30zm296 0l177 0 0 30 -177 0 0 -30zm296 0l177 0 0 30 -177 0 0 -30zm296 0l177 0 0 30 -177 0 0 -30zm296 0l177 0 0 30 -177 0 0 -30zm296 0l177 0 0 30 -177 0 0 -30zm296 0l177 0 0 30 -177 0 0 -30zm296 0l177 0 0 30 -177 0 0 -30zm296 0l177 0 0 30 -177 0 0 -30zm296 0l177 0 0 30 -177 0 0 -30zm296 0l177 0 0 30 -177 0 0 -30zm296 0l177 0 0 30 -177 0 0 -30zm296 0l92 0 0 30 -92 0 0 -30z"/>
  <path class="fil0 str1" d="M5324 1822l-177 0 0 -30 177 0 0 30zm-296 0l-177 0 0 -30 177 0 0 30zm-296 0l-177 0 0 -30 177 0 0 30zm-296 0l-177 0 0 -30 177 0 0 30zm-296 0l-177 0 0 -30 177 0 0 30zm-296 0l-177 0 0 -30 177 0 0 30zm-296 0l-177 0 0 -30 177 0 0 30zm-296 0l-177 0 0 -30 177 0 0 30zm-296 0l-177 0 0 -30 177 0 0 30zm-296 0l-177 0 0 -30 177 0 0 30zm-296 0l-177 0 0 -30 177 0 0 30zm-296 0l-177 0 0 -30 177 0 0 30zm-296 0l-177 0 0 -30 177 0 0 30zm-296 0l-92 0 0 -30 92 0 0 30z"/>
  <path class="fil0 str1" d="M1386 2285l177 0 0 30 -177 0 0 -30zm296 0l177 0 0 30 -177 0 0 -30zm296 0l177 0 0 30 -177 0 0 -30zm296 0l177 0 0 30 -177 0 0 -30zm296 0l177 0 0 30 -177 0 0 -30zm296 0l177 0 0 30 -177 0 0 -30zm296 0l177 0 0 30 -177 0 0 -30zm296 0l177 0 0 30 -177 0 0 -30zm296 0l177 0 0 30 -177 0 0 -30zm296 0l177 0 0 30 -177 0 0 -30zm296 0l177 0 0 30 -177 0 0 -30zm296 0l177 0 0 30 -177 0 0 -30zm296 0l177 0 0 30 -177 0 0 -30zm296 0l92 0 0 30 -92 0 0 -30z"/>
  <path class="fil0 str1" d="M5324 2807l-177 0 0 -30 177 0 0 30zm-296 0l-177 0 0 -30 177 0 0 30zm-296 0l-177 0 0 -30 177 0 0 30zm-296 0l-177 0 0 -30 177 0 0 30zm-296 0l-177 0 0 -30 177 0 0 30zm-296 0l-177 0 0 -30 177 0 0 30zm-296 0l-177 0 0 -30 177 0 0 30zm-296 0l-177 0 0 -30 177 0 0 30zm-296 0l-177 0 0 -30 177 0 0 30zm-296 0l-177 0 0 -30 177 0 0 30zm-296 0l-177 0 0 -30 177 0 0 30zm-296 0l-177 0 0 -30 177 0 0 30zm-296 0l-177 0 0 -30 177 0 0 30zm-296 0l-92 0 0 -30 92 0 0 30z"/>
  <path class="fil0 str1" d="M1386 3269l177 0 0 30 -177 0 0 -30zm296 0l177 0 0 30 -177 0 0 -30zm296 0l177 0 0 30 -177 0 0 -30zm296 0l177 0 0 30 -177 0 0 -30zm296 0l177 0 0 30 -177 0 0 -30zm296 0l177 0 0 30 -177 0 0 -30zm296 0l177 0 0 30 -177 0 0 -30zm296 0l177 0 0 30 -177 0 0 -30zm296 0l177 0 0 30 -177 0 0 -30zm296 0l177 0 0 30 -177 0 0 -30zm296 0l177 0 0 30 -177 0 0 -30zm296 0l177 0 0 30 -177 0 0 -30zm296 0l177 0 0 30 -177 0 0 -30zm296 0l92 0 0 30 -92 0 0 -30z"/>
  <path class="fil0 str1" d="M5309 3776l0 -177 30 0 0 177 -30 0zm0 -296l0 -177 30 0 0 177 -30 0zm0 -296l0 -177 30 0 0 177 -30 0zm0 -296l0 -177 30 0 0 177 -30 0zm0 -296l0 -177 30 0 0 177 -30 0zm0 -296l0 -177 30 0 0 177 -30 0zm0 -296l0 -177 30 0 0 177 -30 0zm0 -296l0 -177 30 0 0 177 -30 0zm0 -296l0 -94 30 0 0 94 -30 0z"/>
  <path class="fil0 str1" d="M4847 1315l0 177 -30 0 0 -177 30 0zm0 296l0 177 -30 0 0 -177 30 0zm0 296l0 177 -30 0 0 -177 30 0zm0 296l0 177 -30 0 0 -177 30 0zm0 296l0 177 -30 0 0 -177 30 0zm0 296l0 177 -30 0 0 -177 30 0zm0 296l0 177 -30 0 0 -177 30 0zm0 296l0 177 -30 0 0 -177 30 0zm0 296l0 94 -30 0 0 -94 30 0z"/>
  <path class="fil0 str1" d="M4354 1315l0 177 -30 0 0 -177 30 0zm0 296l0 177 -30 0 0 -177 30 0zm0 296l0 177 -30 0 0 -177 30 0zm0 296l0 177 -30 0 0 -177 30 0zm0 296l0 177 -30 0 0 -177 30 0zm0 296l0 177 -30 0 0 -177 30 0zm0 296l0 177 -30 0 0 -177 30 0zm0 296l0 177 -30 0 0 -177 30 0zm0 296l0 94 -30 0 0 -94 30 0z"/>
  <path class="fil0 str1" d="M3370 1315l0 177 -30 0 0 -177 30 0zm0 296l0 177 -30 0 0 -177 30 0zm0 296l0 177 -30 0 0 -177 30 0zm0 296l0 177 -30 0 0 -177 30 0zm0 296l0 177 -30 0 0 -177 30 0zm0 296l0 177 -30 0 0 -177 30 0zm0 296l0 177 -30 0 0 -177 30 0zm0 296l0 177 -30 0 0 -177 30 0zm0 296l0 94 -30 0 0 -94 30 0z"/>
  <path class="fil0 str1" d="M2848 3776l0 -177 30 0 0 177 -30 0zm0 -296l0 -177 30 0 0 177 -30 0zm0 -296l0 -177 30 0 0 177 -30 0zm0 -296l0 -177 30 0 0 177 -30 0zm0 -296l0 -177 30 0 0 177 -30 0zm0 -296l0 -177 30 0 0 177 -30 0zm0 -296l0 -177 30 0 0 177 -30 0zm0 -296l0 -177 30 0 0 177 -30 0zm0 -296l0 -94 30 0 0 94 -30 0z"/>
  <path class="fil0 str1" d="M2386 1315l0 177 -30 0 0 -177 30 0zm0 296l0 177 -30 0 0 -177 30 0zm0 296l0 177 -30 0 0 -177 30 0zm0 296l0 177 -30 0 0 -177 30 0zm0 296l0 177 -30 0 0 -177 30 0zm0 296l0 177 -30 0 0 -177 30 0zm0 296l0 177 -30 0 0 -177 30 0zm0 296l0 177 -30 0 0 -177 30 0zm0 296l0 94 -30 0 0 -94 30 0z"/>
  <path class="fil0 str1" d="M1864 3776l0 -177 30 0 0 177 -30 0zm0 -296l0 -177 30 0 0 177 -30 0zm0 -296l0 -177 30 0 0 177 -30 0zm0 -296l0 -177 30 0 0 177 -30 0zm0 -296l0 -177 30 0 0 177 -30 0zm0 -296l0 -177 30 0 0 177 -30 0zm0 -296l0 -177 30 0 0 177 -30 0zm0 -296l0 -177 30 0 0 177 -30 0zm0 -296l0 -94 30 0 0 94 -30 0z"/>
  <path class="fil0 str1" d="M1401 1315l0 177 -30 0 0 -177 30 0zm0 296l0 177 -30 0 0 -177 30 0zm0 296l0 177 -30 0 0 -177 30 0zm0 296l0 177 -30 0 0 -177 30 0zm0 296l0 177 -30 0 0 -177 30 0zm0 296l0 177 -30 0 0 -177 30 0zm0 296l0 177 -30 0 0 -177 30 0zm0 296l0 177 -30 0 0 -177 30 0zm0 296l0 94 -30 0 0 -94 30 0z"/>
  <line class="fil1 str0" x1="3842" y1="3776" x2="1879" y2= "2792" />
  <line class="fil1 str0" x1="3842" y1="3776" x2="4832" y2= "1807" />
  <line class="fil1 str0" x1="1879" y1="2792" x2="3842" y2= "2792" />
  <line class="fil1 str0" x1="4832" y1="1807" x2="4832" y2= "3776" />
  <line class="fil1 str0" x1="4840" y1="3577" x2="5059" y2= "3577" />
  <line class="fil1 str0" x1="5059" y1="3577" x2="5059" y2= "3779" />
  <line class="fil1 str0" x1="3650" y1="2785" x2="3650" y2= "2596" />
  <line class="fil1 str0" x1="3650" y1="2596" x2="3851" y2= "2596" />
  <g transform="matrix(1 0 0 1 1373.34 1924.61)">
   <text x="3500" y="2250"  class="fil0 fnt0">B</text>
  </g>
  <g transform="matrix(1 0 0 1 426.76 447.95)">
   <text x="3500" y="2250"  class="fil0 fnt1">A</text>
  </g>
  <g transform="matrix(1 0 0 1 100.19 -1681.86)">
   <text x="3500" y="2250"  class="fil0 fnt2">y</text>
  </g>
  <g transform="matrix(1 0 0 1 2584.96 1806.29)">
   <text x="3500" y="2250"  class="fil0 fnt3">x</text>
  </g>
  <g transform="matrix(1 0 0 1 1344.94 -498.63)">
   <text x="3500" y="2250"  class="fil0 fnt4">Q</text>
  </g>
  <g transform="matrix(1 0 0 1 -1911.3 533.14)">
   <text x="3500" y="2250"  class="fil0 fnt5">P</text>
  </g>
 </g>
</svg>
