{
    "couID": 1,
    "pages": [
        {
            "kind": "cover",
            "title": "第一讲：图形的旋转",
            "description": "1.\n掌握旋转的概念，探索它的基本性质，理解对应点到旋转中心的距离相等，对应点与旋转中心连线所成的角彼此相等的性质.\n<br>2.\n能够按要求作出简单平面图形旋转后的图形.\n"
        },
        {
            "kind": "kpt",
            "name": "旋转的概念",
            "sub": [
                "把一个平面图形绕着平面内某一点<i>O</i>转动一个角度，叫作图形的旋转.\n点<i>O</i>叫作旋转中心，转动的角叫作旋转角.\n",
                "<s class=\"key\"><b>注意：</b>旋转的三要素：旋转中心、旋转方向、旋转角.\n</s>",
                "①在旋转过程中，始终保持不动的那个点就是旋转中心，旋转中心既可以在图形的外部，也可以在图形的内部，还可以在图形上；",
                "②每一对对应点与旋转中心的连线的夹角都是这个旋转变换的旋转角，一个旋转变换中有多个旋转角，旋转角大于0°小于360°；"
            ]
        },
        {
            "kind": "example",
            "label": "题型一 识别生活中的旋转现象",
            "type": 1,
            "Q": "下列现象属于旋转的是（　　）",
            "opts": [
                "摩托车在急刹车时向前滑动",
                "飞机起飞后冲向空中的过程",
                "幸运大转盘转动的过程",
                "笔直的铁轨上飞驰而过的火车"
            ],
            "way": "根据旋转的定义：在平面内，把一个图形绕着某一个点O旋转一个角度的图形变换叫做旋转，即可选出答案.\n",
            "step": "A、摩托车在急刹车时向前滑动是平移，故此选项错误；<br> B、飞机起飞后冲向空中的过程是平移，故此选项错误；<br>C、幸运大转盘转动的过程是旋转，故此选项正确；<br>D、笔直的铁轨上飞驰而过的火车是平移，故此选项错误；<br>故选：C.\n"
        },
        {
            "kind": "ques",
            "type": 1,
            "Q": "下列运动属于旋转的是（　　）",
            "opts": [
                "滚动过程中的篮球的滚动",
                "钟表的钟摆的摆动",
                "气球升空的运动",
                "一个图形沿某直线对折的过程"
            ],
            "way": "根据旋转变换的概念，对选项进行一一分析，排除错误答案.\n",
            "step": "A、滚动过程中的篮球属于滚动，不是绕着某一个固定的点转动，不属旋转；<br>B、钟表的钟摆的摆动，符合旋转变换的定义，属于旋转；<br>C、气球升空的运动是平移，不属于旋转；<br>D、一个图形沿某直线对折的过程是轴对称，不属于旋转.\n<br>故选：B.\n"
        },
        {
            "kind": "example",
            "label": "题型二  旋转要素的识别",
            "type": 9,
            "Q": "<img src=\"1.png\" style=\"width: 10em; float: left; margin-right: 1em; vertical-algin: middle;\">如图所示，△<i>ABC</i>为等边三角形，△<i>AP<sup>'</sup>B</i>逆时针旋转后能与△<i>APC</i>重合.\n<br>（1）旋转中心是哪一点？<br>（2）旋转角是多少度？<br>（3）<i>∠PAP<sup>'</sup></i>等于多少度？",
            "way": "观察图形在旋转的过程中各部分的位置变化情况，发现点<i>A</i>的位置没有发生变化，因此点 <i>A</i> 为旋转中心.\n点 <i>P</i> 与 <i>P<sup>'</sup></i>，点 <i>C</i> 与 <i>B</i> 分别为对应点，因此 <i>∠PAP<sup>'</sup></i> 和 <i>∠CAB</i> 都是旋转角.\n",
            "notice": "首先确定旋转中心：旋转前后位置没有发生变化的点；然后确定对应点：旋转前后能够重合的点；最后确定旋转角：对应点与旋转中心所连线段的夹角.\n"
        },
        {
            "kind": "ques",
            "type": 9,
            "Q": "<img src=\"2.jpg\" style=\"width: 8.38em; float: right; vertical-algin: middle;\">如图所示，可以看到，△<span class=\"mathquill-rendered-math\">AOB</span> 经旋转后到达△<span class=\"mathquill-rendered-math\">A'OB'</span>，可知点 <span class=\"mathquill-rendered-math\">A</span> 旋转到点 <span class=\"mathquill-rendered-math\">A'</span>，<i>OA</i>旋转到<span class=\"mathquill-rendered-math\">OA'}</span>，<span class=\"mathquill-rendered-math\">∠AOB</span> 旋转到  <span class=\"mathquill-rendered-math\">∠A'OB'</span> ，则点 <span class=\"mathquill-rendered-math\">B</span> 的对应点是_______点， 线段 <span class=\"mathquill-rendered-math\">OB</span> 的对应线段是线段_______， 线段 <span class=\"mathquill-rendered-math\">AB</span> 的对应线段是线段_______， <span class=\"mathquill-rendered-math\">∠A</span> 的对应角是_______， <span class=\"mathquill-rendered-math\">∠B</span> 的对应角是_______， 旋转中心是点_______，旋转角是_______.\n",
            "way": "根据旋转的定义、旋转中心、旋转角、旋转的对应点等的概念来解题.\n<br>",
            "step": "<span class=\"mathquill-rendered-math\">B'</span>； <span class=\"mathquill-rendered-math\">OB'</span>； <span class=\"mathquill-rendered-math\">A'B'</span>； <span class=\"mathquill-rendered-math\">∠A'</span>； <span class=\"mathquill-rendered-math\">∠B'</span>； <span class=\"mathquill-rendered-math\">O</span>； <span class=\"mathquill-rendered-math\">AOA'</span>或 <span class=\"mathquill-rendered-math\">∠BOB'</span>"
        },
        {
            "kind": "example",
            "label": "题型三  求旋转过程中的运动轨迹与路程",
            "type": 9,
            "Q": "（易错题）<img src=\"3.png\" style=\"width: 13em; float: right; vertical-algin: middle;\">如图所示，把腰长为 1 的等腰直角三角形<i>ABC</i>绕点 <i>C</i> 顺时针旋转90°到<span class=\"mathquill-rendered-math\">△A'B'C</span>的位置，则点 <i>A</i> 运动的路径长为_______.\n",
            "way": "由旋转的性质可知，点 <i>A</i> 在旋转过程中走过的路程是一条圆弧而不是一条线段.\n",
            "step": "<img src=\"6.png\" style=\"width: 10.63em; float: right; vertical-algin: middle;\">如图，点 <i>A</i> 在旋转过程中走过的路径是一条半径为 1，圆心角为 90° 的圆弧，即为圆周的<span class=\"mathquill-rendered-math\"> \\frac{1}{4}</span>.\n它的长度为<span class=\"mathquill-rendered-math\"> \\frac{1}{4} × 2\\pi × 1</span><span class=\"mathquill-rendered-math\"> = \\frac{\\pi}{2}</span>",
            "notice": "图形作旋转变换时，每个点都绕着旋转中心沿相同方向转动相同度数但是各点的运动路程不一定相等，运动路程等于以旋转中心为圆心，以该点到旋转中心的距离为半径的该点与其对应点之间的一条弧的长度，而不是线段长，每个点都有自己的旋转路径与路程，各个点互不相同.\n"
        },
        {
            "kind": "kpt",
            "name": "旋转的性质",
            "sub": [
                "旋转不改变图形的形状和大小，只改变图形的位置.\n",
                "旋转有如下的性质：",
                "（1）对应点到旋转中心的距离相等；",
                "（2）对应点与旋转中心所连线段的夹角等于旋转角；",
                "（3）旋转前、后的图形全等.\n"
            ]
        },
        {
            "kind": "example",
            "label": "题型一  根据旋转的性质求线段长",
            "type": 9,
            "Q": "如图，将△<i>ABC</i>绕点 <i>A</i>顺时针旋转 60°得到△<i>AED</i>，若线段 <i>AB</i> = 3，则 <i>BE</i> = _________.\n<img src=\"4.png\" style=\"width: 10.63em; float: right; vertical-algin: middle;\">",
            "way": "根据旋转的性质找到旋转角及对应关系，即可求出答案.\n",
            "step": "∵将△<i>ABC</i>绕点 <i>A</i>顺时针旋转 60°得到△<i>AED</i>，<bnr> <i>∠BAE</i> = 60°， <i>AB</i> = <i>AE</i><br>∴ △<i>BAE</i>是等边三角形， <br>∴ <i>BE</i> = 3",
            "notice": "根据旋转的特征，若旋转角为60°，则一组对应边与旋转角组成的三角形是等边三角形.\n然后利用等边三角形的特殊性求线段的长度.\n"
        },
        {
            "kind": "ques",
            "type": 9,
            "Q": "<img src=\"5.png\" style=\"width: 9em; float: right; vertical-algin: middle;\">如图，<span class=\"mathquill-rendered-math\">Rt</span>△<span class=\"mathquill-rendered-math\">ABC</span>的斜边<span class=\"mathquill-rendered-math\">AB</span> = 16， <span class=\"mathquill-rendered-math\">Rt</span>△<span class=\"mathquill-rendered-math\">ABC</span>绕点 <i>O</i> 顺时针旋转后得到<span class=\"mathquill-rendered-math\">Rt</span>△<span class=\"mathquill-rendered-math\">A'B'C'</span>的斜边 <span class=\"mathquill-rendered-math\">A'B'</span> 上的中线 <span class=\"mathquill-rendered-math\">C'D</span> 的长度为_______.\n",
            "way": "根据旋转是全等变换，对应三角形是全等三角形求解即可.\n",
            "step": "∵旋转是全等变换<br>∴ <span class=\"mathquill-rendered-math\">Rt</span>△<span class=\"mathquill-rendered-math\">ABC</span> ≌ <span class=\"mathquill-rendered-math\">Rt</span>△<span class=\"mathquill-rendered-math\">A'B'C'</span><br>∴<span class=\"mathquill-rendered-math\">AB = A'B'</span><br>∴<span class=\"mathquill-rendered-math\">C'D = \\frac{1}{2}A'B' = \\frac{1}{2}AB = 8</span>"
        },
        {
            "kind": "example",
            "label": "题型二  根据旋转的性质求角度",
            "type": 1,
            "Q": "如图，<img src=\"7.jpg\" style=\"width: 8.75em; float: right; vertical-algin: middle;\"> △<i>OAB</i>绕点 <i>O</i> 逆时针旋转 85° 得到△<i>OCD</i>，若 <i>∠A = 110°，∠D = 40°</i> ，则<i>∠α</i> 的度数是（      ）",
            "opts": [
                "35°",
                "45°",
                "55°",
                "65°"
            ],
            "way": "根据旋转的性质即可求出答案.\n",
            "step": "由题意可知：<i>∠DOB = 85°</i>， <br>∵△<i>DCO</i> ≌ △<i>BAO</i>， <br>∴∠B = ∠D = 40°<br>∴∠AOB = 180° － 40° － 110° = 30°<br>∴∠α = 85° － 30° = 55° <br> 故选 C"
        },
        {
            "kind": "ques",
            "type": 1,
            "Q": "<img src=\"8.jpg\" style=\"width: 9.375em; vertical-align: middle; float: right; \">（中考真题）如图，将<i>Rt</i>△<i>ABC</i>绕直角顶点<i>C</i>顺时针旋转90°，得到<span class=\"mathquill-rendered-math\">△A'B'C</span>，连接<span class=\"mathquill-rendered-math\">AA'</span>，若∠1 = 25°，则<span class=\"mathquill-rendered-math\">∠{BAA'}</span>的度数是（　　）",
            "opts": [
                "55°",
                "60°",
                "65°",
                "70°"
            ],
            "way": "根据旋转的性质可得<span class=\"mathquill-rendered-math\">A'C</span> = <span class=\"mathquill-rendered-math\">AC'</span>， 然后判断出<span class=\"mathquill-rendered-math\">△ACA'</span>是等腰直角三角形，根据等腰直角三角形的性质可得， <span class=\"mathquill-rendered-math\">∠CAA’ = 45°</span>再根据三角形的内角和定理可得结果.\n",
            "step": "∵<i>Rt</i>△<i>ABC</i>绕直角顶点<i>C</i>顺时针旋转90°得到△<span class=\"mathquill-rendered-math\">A'B'C</span>，<br>∴<span class=\"mathquill-rendered-math\">AC = A'C</span>， <br>∴△<span class=\"mathquill-rendered-math\">ACA'</span>是等腰直角三角形，<br>∴<span class=\"mathquill-rendered-math\">∠CA'A = 45°</span>， <span class=\"mathquill-rendered-math\">∠CA'B'</span><span class=\"mathquill-rendered-math\"> = 45° － ∠1</span><span class=\"mathquill-rendered-math\"> = 20° = ∠BAC</span><br>∴<span class=\"mathquill-rendered-math\">∠BAA'</span><span class=\"mathquill-rendered-math\"> = ∠BAC + ∠CAA'</span><span class=\"mathquill-rendered-math\"> = 20° + 45°</span><span class=\"mathquill-rendered-math\"> = 65°</span>，<br>故选：C.\n"
        },
        {
            "kind": "example",
            "label": "题型三  根据旋转的性质求点的坐标",
            "type": 9,
            "Q": "<img src=\"27.svg\" style=\"width: 13em; vertical-align: middle; float: right; \">（中考真题）如图，在平面直角坐标系中，将点<span class=\"mathquill-rendered-math\">P（－4， 2）</span>绕原点<i>O</i>顺时针旋转90°，则其对应点<i>Q</i>的坐标为________.\n",
            "way": "要求平面直角坐标系中的点的坐标，只要过点分别向<i>x</i>轴，<i>y</i>轴作垂线段再判断即可.\n",
            "step": "<img src=\"28.svg\" style=\"width: 15em; vertical-align: middle; float: right; \">过点<i>P</i>作<i>PA</i>⊥<i>y</i>轴于点<i>A</i>，过点<i>Q</i>作<i>QB</i>⊥<i>x</i>轴于点<i>B</i>， 由旋转的性质有<i>∠POQ</i> = 90°， <br>又∵∠AOB = 90°， ∴<i>∠POA = ∠QOB</i>， <br>又∵<i>∠PAO = ∠QBO</i> = 90°， <i> OP = OQ </i>， <br>∴△<i>AOP</i> ≌ △<i>BOQ</i> <br> ∴<i>OB = OA = 2， QB = PA = 4</i><br>∴点Q的坐标为（2， 4）"
        },
        {
            "kind": "ques",
            "type": 1,
            "Q": "<img src=\"10.png\" style=\"width: 11.375em; vertical-align: middle; float: right; \">如图，将含有30°角的直角三角板<i>OAB</i>放置在平面直角坐标系中，<i>OB</i>在<i>x</i>轴上，若 <i>OA</i> = 2， 将三角板绕原点<i>O</i>顺时针旋转75°， 则点<i>A</i>的对应点<span class=\"mathquill-rendered-math\">A'</span>的坐标为（　　）",
            "opts": [
                "<span class=\"mathquill-rendered-math\"> \\left ( \\sqrt{3}，－1  \\right )</span>",
                "<span class=\"mathquill-rendered-math\"> \\left ( －\\sqrt{3}，1 \\right )</span>",
                "<span class=\"mathquill-rendered-math\"> \\left (  \\sqrt{2}，－\\sqrt{2} \\right )</span>",
                "<span class=\"mathquill-rendered-math\"> \\left (  －\\sqrt{2}，2 \\right )</span>"
            ],
            "way": "先根据题意画出点<span class=\"mathquill-rendered-math\">A'</span>的位置，然后过点<span class=\"mathquill-rendered-math\">A'</span>作<span class=\"mathquill-rendered-math\">A'C ⊥ OB</span> ，接下来根据旋转的定义和性质可得到<span class=\"mathquill-rendered-math\">OA'</span>的长和<span class=\"mathquill-rendered-math\">∠COA'</span>的度数，最后根据特殊角度求解即可",
            "step": "<img src=\"11.png\" style=\"width: 11.375em; vertical-align: middle; float: right; \">如右图， 根据旋转的性质可知：<span class=\"mathquill-rendered-math\">OA'</span> = <span class=\"mathquill-rendered-math\">OA</span>， <span class=\"mathquill-rendered-math\">∠AOA'</span> = 75°，<br>∴<span class=\"mathquill-rendered-math\">∠A'OB = 75° － 30° = 45°</span>， <br>过<span class=\"mathquill-rendered-math\">A'</span>点作<span class=\"mathquill-rendered-math\">A'C ⊥ OB</span>， <br> ∴△<span class=\"mathquill-rendered-math\">A'CO</span>为等腰直角三角形， <br>∵<span class=\"mathquill-rendered-math\">OA' = OA = 2</span> <br>∴ <span class=\"mathquill-rendered-math\">AC = OC = \\sqrt{2}</span><br>∵点<i>A</i>在第四象限<br>∴<span class=\"mathquill-rendered-math\">A\\left (  \\sqrt{2}，－\\sqrt{2} \\right )</span> <br>故选C"
        },
        {
            "kind": "example",
            "label": "题型四  利用旋转的性质进行证明",
            "type": 9,
            "Q": "<img src=\"13.png\" style=\"width: 9.875em; vertical-align: middle; float: right; \">如图， <i>P</i>是正方形<i>ABCD</i>的边<i>CD</i>上的点， <i>∠BAP</i>的平分线交边<i>BC</i>于点<i>Q</i>，试证明<i>AP = DP + BQ</i>.\n",
            "way": "首先把<i>DP</i>与<i>BQ</i>的和转移到一条线段上，因为将△<i>ABQ</i>绕点<i>A</i>逆时针旋转90°可以得到△<i>ADE</i>，所以<i>PE = DP + BQ</i>，再说明<i>AP = PE</i>即可.\n",
            "step": "证明：<img src=\"12.jpg\" style=\"width: 11.06em; vertical-align: middle; float: right; \">将<span class=\"mathquill-rendered-math\">△ABQ</span>绕点<i>A</i>逆时针旋转90°后得到<span class=\"mathquill-rendered-math\">△ADE</span>.\n<br>∴<i>∠EAQ</i> = 90°， <span class=\"mathquill-rendered-math\">△AED</span> ≌ <span class=\"mathquill-rendered-math\">△AQB</span> <br> ∴<span class=\"mathquill-rendered-math\">∠E = ∠AQB， ∠EAD = ∠QAB， DE = BQ，∠ADE = ∠B = 90°</span><br>∴<i>E， D， P</i>三点共线.\n又∵<i>∠BAP</i>的平分线交边<i>BC</i>于点<i>Q</i>， <br>∴<i>∠PAQ = ∠BAQ</i>， <br>又∵<i>AD ∥ BC</i>， ∴<i>∠DAQ = ∠AQB</i>， <br>∴<i>∠PAE = 90° － ∠PAQ = 90° － ∠BAQ = ∠DAQ = ∠AQB = ∠E</i>， <br> ∴ <i>AP = PE = DP + DE = DP + BQ</i>"
        },
        {
            "kind": "ques",
            "type": 9,
            "Q": "<img src=\"14.png\" style=\"width: 15.875em; vertical-align: middle; float: right;\">正方形<i>ABCD</i>和正方形<i>AEFG</i>有一公共点<i>A</i>，点<i>G</i>，<i>E</i> 分别在线段<i>AD</i>、<i>AB</i> 上（如图（1）所示），连接 <i>DE</i>、<i>BF</i> .\n<br>（1）求证：<i>DF = BF</i><br>（2）若将正方形<i>AEFG</i>绕点<i>A</i>按顺时针方向旋转，连接 <i>DG</i>、<i>BE</i>  （如图（2）所示），在旋转过程中，请猜想线段<i>DG</i> 、<i>BE</i> 始终有什么数量关系和位置关系并证明你的猜想.\n",
            "way": "（1）由正方形的性质可证<i>△DGF</i> ≌ <i>△BEF</i>， 即证<i>DF = BF</i><br>（2）由旋转的性质和正方形的性质可证<i>△DAG</i> ≌ <i>△BAE</i>， 得<i>DG = BE</i>，同时延长<i>DG</i>交<i>BE</i>或延长线于 <i>H</i>，交<i>AB</i>于 <i>I</i>，可证 <i>∠DHB</i> = 90°，即 <i>DG</i> ⊥ <i>BE</i>.\n",
            "step": "<img src=\"15.png\" style=\"width: 9.13em; vertical-align: middle; float: right;\">（1）证明：∵<i>AD = AB， AG = AE = EF = FG</i>， <br> <i>∠DGF = ∠BEF</i> = 90°， <br>∴<i>DG = BE</i>， <br>∴<i>△DGF</i> ≌ <i>△BEF</i>， ∴<i>DF = BF</i> <br> （2）猜想：<i>DG = BE</i>， <i>DG</i> ⊥ <i>BE</i>.\n<br>证明：如图，由正方形性质与旋转知<i>AD = AB</i>， <i>AG = AE</i>， <i>∠DAG = ∠BAE</i><br>∴<i>△DAG</i> ≌ <i>△BAE</i><br>∴<i>DG = BE</i>， <i>∠ADG = ∠ABE</i><br>延长<i>DG</i>交<i>BE</i>或延长线于<i>H</i>，交<i>AB</i>于<i>I</i>，<br> ∵<i>∠ADG = ∠ABE</i>， <i>∠DIA = ∠BIH</i><br>又∵ <i>∠ADG + ∠DIA</i> = 90°， <br>∴<i>∠ABE + ∠BIH</i> = 90°， <br>∴<i>∠DHB</i> = 90° <br>即<i>DG</i> ⊥ <i>BE</i>"
        },
        {
            "kind": "example",
            "label": "题型五 旋转与平移、轴对称的区别与联系",
            "type": 1,
            "Q": "在下列平面图形内经过平移和旋转变换可以将甲图变成乙图的是（      ）<br>",
            "opts": [
                "<img src=\"16.png\" style=\"width: 6em; vertical-align: middle;\">",
                "<img src=\"17.png\" style=\"width: 6em; vertical-align: middle;\">",
                "<img src=\"18.png\" style=\"width: 6em; vertical-align: middle;\">",
                "<img src=\"19.png\" style=\"width: 6em; vertical-align: middle;\">"
            ],
            "way": "根据旋转、平移的特点判断即可",
            "step": "<i>A</i>、<i>B</i>、<i>C</i>项无法利用平移和旋转变换将甲图变成乙图；<i>D</i>项中，甲图经过两次旋转和两次平移可得到乙图.\n故选<i>D</i>.\n"
        },
        {
            "kind": "ques",
            "type": 1,
            "Q": "<img src=\"20.png\" style=\"width: 9.5em; vertical-align: middle; float: right;\">如图所示，如果将其中的甲图变成乙图，可经过的变换正确的是（　　）",
            "opts": [
                "旋转、平移",
                "轴对称",
                "轴对称、旋转",
                "旋转"
            ],
            "way": "根据轴对称、旋转和平移的特点判断即可.\n",
            "step": "C"
        },
        {
            "kind": "kpt",
            "name": "旋转作图",
            "sub": [
                "1、已知图形、旋转中心、旋转方向和旋转角就可以做出旋转后的图形，步骤如下：",
                "　① 确定旋转中心、旋转方向和旋转角；",
                "　② 在已知图形上找到关键点；",
                "　③ 作出关键点旋转后的对应点；",
                "　④ 再顺次连接对应点即可.\n",
                "2、确定旋转中心：找到旋转前后两个图形上的两组对应点，然后分别连接两组对应点得到两条线段，最后分别做这两条线段的垂直平分线，垂直平分线的交点即为旋转中心.\n"
            ]
        },
        {
            "kind": "example",
            "label": "题型一  利用旋转作图的步骤作旋转后的图形",
            "type": 9,
            "Q": "<img src=\"21.png\" style=\"width:15.44em; float: right;\">如图，<i>△ABC</i>绕点<i>O</i>旋转，使点<i>A</i>旋转到点<i>D</i>处，画出顺时针旋转后的三角形，并写出简单作法.\n",
            "way": "抓住<i>△ABC</i>的关键点，旋转中心<i>O</i>以及旋转角<i>∠AOD</i>，按步骤即可作出所求的三角形.\n",
            "step": "<img src=\"22.png\" style=\"width:15.44em; float: right;\">作法：如图，（1）连接<i>OA</i> ，<i>OB</i> ，<i>OC</i> ，<i>OD</i> <br>（2）分别以 <i>OB</i>，<i>OC</i> 为边作<i>∠BOM = ∠CON = ∠AOD</i> <br> （3）分别在 <i>OM</i>、<i>ON</i> 上截取 <i>OE = OB</i>，<i>OF = OC</i> <br> （4）依次连接 <i>DE</i>，<i>EF</i> ，<i>FD</i> ，<i>△DEF</i>就是所求作的三角形.\n"
        },
        {
            "kind": "example",
            "label": "题型二  旋转中心的确定",
            "type": 1,
            "Q": "<img src=\"23.png\" style=\"width:8.06em; float: right;\">如图，在4 × 4的正方形网格中，<i>△MNP</i>绕某点旋转一定的角度，得到<i>△M<sub>1</sub>N<sub>1</sub>P<sub>1</sub></i>，则其旋转中心是（　　）",
            "opts": [
                "点<i>A</i>",
                "点<i>B</i>",
                "点<i>C</i>",
                "点<i>D</i>"
            ],
            "way": "分别找到旋转前后的两组对应点连线，再作他们的垂直平分线，交点即为旋转中心.\n",
            "step": "<img src=\"24.png\" style=\"width:9.94em; float: right;\">如图，分别连接旋转前后两图的两组对应点<i>P<sub>1</sub>P</i>和<i>M<sub>1</sub>M</i>，再分别做<i>P<sub>1</sub>P</i>和<i>M<sub>1</sub>M</i>的垂直平分线，两垂直平分线都过点 <i>B</i>，故点 <i>B</i>是旋转中心.\n故选B.\n"
        },
        {
            "kind": "ques",
            "type": 1,
            "Q": "<img src=\"25.png\" style=\"width:12.69em; float: right;\">如图，在6 × 4方格纸中，格点三角形甲经过旋转后得到格点三角形乙，则其旋转中心是（　　）",
            "opts": [
                "点<i>M</i>",
                "格点<i>N</i>",
                "格点<i>P</i>",
                "格点<i>Q</i>"
            ],
            "way": "根据旋转中心到对应点的距离相等，若分别连接备选的点与两组对应点，会使距离均相等的点即为旋转中心.\n",
            "step": "<img src=\"26.png\" style=\"width:12.94em; float: right;\">如图，连接 <i>N</i> 和两个三角形的对应点；发现两个三角形的对应点到点 <i>N</i> 的距离相等，因此格点 <i>N</i> 就是所求的旋转中心；所以 B 选项是正确的.\n",
            "notice": "确定旋转中心的方法可以通过作对应线段的垂直平分线找到交点的方法，也可以在备选项中选择能够使得到对应点距离相等的点，即为所求.\n"
        }
    ]
}