<?xml version='1.0' encoding='UTF-8'?>
<!-- This file was generated by dvisvgm 1.15.1 -->
<svg height='2.87073pt' version='1.1' viewBox='-0.299738 -0.274399 12.2812 2.87073' width='12.2812pt' xmlns='http://www.w3.org/2000/svg' xmlns:xlink='http://www.w3.org/1999/xlink'>
<defs>
<path d='M2.77091 -4.00364C3.39273 -4.71273 3.72 -5.50909 3.72 -5.59636C3.72 -5.72727 3.6 -5.72727 3.50182 -5.72727C3.33818 -5.72727 3.33818 -5.71636 3.24 -5.49818C2.79273 -4.49454 1.98545 -3.49091 0.556363 -2.88C0.403636 -2.81454 0.370909 -2.80364 0.370909 -2.72727C0.370909 -2.70545 0.370909 -2.68364 0.381818 -2.66182C0.403636 -2.64 0.414545 -2.62909 0.632727 -2.53091C1.83273 -2.02909 2.72727 -1.10182 3.28364 0.163636C3.32727 0.261818 3.37091 0.272727 3.50182 0.272727C3.6 0.272727 3.72 0.272727 3.72 0.141818C3.72 0.0545454 3.39273 -0.741818 2.77091 -1.45091H8.12727C7.50545 -0.741818 7.17818 0.0545454 7.17818 0.141818C7.17818 0.272727 7.29818 0.272727 7.39636 0.272727C7.56 0.272727 7.56 0.261818 7.65818 0.0436364C8.10545 -0.96 8.91272 -1.96364 10.3418 -2.57454C10.4945 -2.64 10.5273 -2.65091 10.5273 -2.72727C10.5273 -2.74909 10.5273 -2.77091 10.5164 -2.79273C10.4945 -2.81454 10.4836 -2.82545 10.2655 -2.92364C9.06545 -3.42545 8.17091 -4.35273 7.61454 -5.61818C7.57091 -5.71636 7.52727 -5.72727 7.39636 -5.72727C7.29818 -5.72727 7.17818 -5.72727 7.17818 -5.59636C7.17818 -5.50909 7.50545 -4.71273 8.12727 -4.00364H2.77091ZM2.34545 -1.88727C2.01818 -2.20364 1.64727 -2.46545 1.2 -2.72727C1.8 -3.07636 2.12727 -3.34909 2.34545 -3.56727H8.55272C8.88 -3.25091 9.25091 -2.98909 9.69818 -2.72727C9.09818 -2.37818 8.77091 -2.10545 8.55272 -1.88727H2.34545Z' id='g0-44'/>
</defs>
<g id='page1' transform='matrix(1.13 0 0 1.13 -80.23 -73.4474)'>
<use x='70.7347' xlink:href='#g0-44' y='68.7422'/>
</g>
</svg>
