<?xml version='1.0' encoding='UTF-8'?>
<!-- This file was generated by dvisvgm 1.15.1 -->
<svg height='8.18749pt' version='1.1' viewBox='-0.299738 -0.26443 9.55209 8.18749' width='9.55209pt' xmlns='http://www.w3.org/2000/svg' xmlns:xlink='http://www.w3.org/1999/xlink'>
<defs>
<path d='M7.87636 -2.72727C7.87636 -4.73454 6.24 -6.36 4.24364 -6.36C2.21454 -6.36 0.6 -4.71273 0.6 -2.72727C0.6 -0.72 2.23636 0.905454 4.23273 0.905454C6.26182 0.905454 7.87636 -0.741818 7.87636 -2.72727ZM4.24364 0.632727C2.36727 0.632727 0.872727 -0.883636 0.872727 -2.72727C0.872727 -4.60364 2.4 -6.08727 4.23273 -6.08727C6.10909 -6.08727 7.60363 -4.57091 7.60363 -2.72727C7.60363 -0.850909 6.07636 0.632727 4.24364 0.632727ZM4.98545 -2.72727C4.98545 -3.14182 4.64727 -3.48 4.24364 -3.48C3.80727 -3.48 3.49091 -3.12 3.49091 -2.72727C3.49091 -2.31273 3.82909 -1.97454 4.23273 -1.97454C4.66909 -1.97454 4.98545 -2.33454 4.98545 -2.72727Z' id='g0-12'/>
</defs>
<g id='page1' transform='matrix(1.13 0 0 1.13 -80.23 -70.7791)'>
<use x='70.7347' xlink:href='#g0-12' y='68.7422'/>
</g>
</svg>
