<?xml version='1.0' encoding='UTF-8'?>
<!-- This file was generated by dvisvgm 1.15.1 -->
<svg height='2.87073pt' version='1.1' viewBox='-0.299738 -0.274399 12.2812 2.87073' width='12.2812pt' xmlns='http://www.w3.org/2000/svg' xmlns:xlink='http://www.w3.org/1999/xlink'>
<defs>
<path d='M7.92 -3.56727C8.37818 -3.17454 8.93454 -2.89091 9.29454 -2.72727C8.90182 -2.55273 8.36727 -2.26909 7.92 -1.88727H0.992727C0.807273 -1.88727 0.6 -1.88727 0.6 -1.66909S0.796363 -1.45091 0.981818 -1.45091H7.42909C6.90545 -0.949091 6.33818 0.0109091 6.33818 0.152727C6.33818 0.272727 6.48 0.272727 6.54545 0.272727C6.63273 0.272727 6.70909 0.272727 6.75273 0.185454C6.98182 -0.229091 7.28727 -0.807273 7.99636 -1.44C8.74909 -2.10545 9.48 -2.4 10.0473 -2.56364C10.2327 -2.62909 10.2436 -2.64 10.2655 -2.66182C10.2873 -2.67273 10.2873 -2.70545 10.2873 -2.72727S10.2873 -2.77091 10.2764 -2.79273L10.2436 -2.81454C10.2218 -2.82545 10.2109 -2.83636 10.0036 -2.90182C8.53091 -3.33818 7.44 -4.33091 6.82909 -5.49818C6.70909 -5.71636 6.69818 -5.72727 6.54545 -5.72727C6.48 -5.72727 6.33818 -5.72727 6.33818 -5.60727C6.33818 -5.46545 6.89454 -4.51636 7.42909 -4.00364H0.981818C0.796363 -4.00364 0.6 -4.00364 0.6 -3.78545S0.807273 -3.56727 0.992727 -3.56727H7.92Z' id='g0-41'/>
</defs>
<g id='page1' transform='matrix(1.13 0 0 1.13 -80.23 -73.4474)'>
<use x='70.7347' xlink:href='#g0-41' y='68.7422'/>
</g>
</svg>
