<?xml version="1.0" encoding="UTF-8"?>
<!DOCTYPE svg PUBLIC "-//W3C//DTD SVG 1.1//EN" "http://www.w3.org/Graphics/SVG/1.1/DTD/svg11.dtd">
<!-- Creator: CorelDRAW X6 -->
<svg xmlns="http://www.w3.org/2000/svg" xml:space="preserve" width="50mm" height="40mm" version="1.1" style="shape-rendering:geometricPrecision; text-rendering:geometricPrecision; image-rendering:optimizeQuality; fill-rule:evenodd; clip-rule:evenodd"
viewBox="0 0 5000 4000"
 xmlns:xlink="http://www.w3.org/1999/xlink">
 <defs>
  <font id="FontID1" horiz-adv-x="677" font-variant="normal" style="fill-rule:nonzero" font-style="normal,italic" font-weight="400">
	<font-face 
		font-family="Meiryo">
	</font-face>
   <missing-glyph><path d="M0 0z"/></missing-glyph>
  </font>
  <font id="FontID0" horiz-adv-x="610" font-variant="normal" style="fill-rule:nonzero" font-style="normal,italic" font-weight="400">
	<font-face 
		font-family="Times New Roman">
	</font-face>
   <missing-glyph><path d="M0 0z"/></missing-glyph>
   <glyph unicode="D" horiz-adv-x="722"><path d="M144.17 645.007l5.82261 17.9887 212.181 0c89.8318,0 156.317,-10.3244 199.494,-30.8245 43.3254,-20.5 77.8332,-52.8313 103.672,-97.0124 25.8204,-44.1625 38.6562,-91.4875 38.6562,-141.993 0,-43.3254 -7.32941,-85.4974 -22.1557,-126.498 -14.8449,-40.8327 -31.6802,-73.6662 -50.3386,-98.1658 -18.677,-24.667 -47.4924,-51.8268 -86.1671,-81.4979 -38.6748,-29.6711 -80.6608,-51.5105 -125.995,-65.6671 -45.1671,-14.1752 -101.682,-21.3372 -169.339,-21.3372l-280.341 0 6.5109 18.0073c25.6716,0.65109 42.8231,2.99501 51.6593,6.82714 13.0032,5.50636 22.6765,13.0032 28.834,22.4905 9.50592,13.6729 19.9978,41.1675 31.6616,82.5024l115.503 401.165c9.00365,31.6802 13.6729,56.5146 13.6729,74.3359 0,12.8358 -4.3344,22.5091 -12.8358,29.3363 -8.33395,6.82714 -25.0019,10.343 -49.6689,10.343l-10.8267 0zm173.171 -18.0073l-144.505 -507.162c-10.8453,-33.1684 -16.1656,-53.6684 -16.1656,-61.6675 0,-4.66925 1.65563,-9.17107 5.17152,-13.5055 3.32986,-4.3344 7.99911,-7.32941 13.9891,-8.6688 8.50138,-2.66017 22.5091,-3.99955 41.6698,-3.99955 51.9942,0 100.324,5.33894 144.84,15.8308 44.4974,10.6779 80.9956,26.5087 109.495,47.3436 40.4978,30.3222 72.6617,71.992 96.8264,125.158 24.1647,53.1662 36.3308,113.829 36.3308,181.673 0,76.6612 -18.6584,133.659 -55.9937,170.995 -37.1679,37.3354 -91.6735,56.0124 -163.163,56.0124 -17.6724,0 -40.4978,-0.669693 -68.4947,-2.00908z"/></glyph>
   <glyph unicode="A" horiz-adv-x="610"><path d="M514.008 678.008l-50.0037 -551.511c-2.67877,-25.839 -3.83213,-42.6557 -3.83213,-50.8222 0,-13.0032 2.32532,-23.0114 7.32941,-29.8385 6.15745,-9.50592 14.4914,-16.5005 25.0019,-21.0023 10.6593,-4.50182 28.4991,-6.82714 53.501,-6.82714l-5.33894 -18.0073 -260.827 0 5.48776 18.0073 11.1801 0c21.1511,0 38.4887,4.50182 51.8268,13.6543 9.33849,6.17605 16.6679,16.5005 21.8394,30.8431 3.66471,10.157 6.99457,33.8195 10.3244,71.3223l7.99911 84.1767 -189.17 0 -66.9879 -91.5061c-15.3471,-20.5 -25.0019,-35.3263 -28.834,-44.1625 -3.83213,-9.00365 -5.84121,-17.3376 -5.84121,-25.1693 0,-10.4919 4.16698,-19.4955 12.6684,-26.9923 8.50138,-7.51544 22.5091,-11.515 42.0046,-12.1661l-5.33894 -18.0073 -195.997 0 5.50636 18.0073c23.9973,0.985936 45.1671,8.98504 63.4906,24.1647 18.3421,15.1611 45.8367,47.4924 82.1676,96.9938l394.505 538.842 17.3376 0zm-96.845 -162.177l-191.495 -261.831 166.326 0 25.1693 261.831z"/></glyph>
   <glyph unicode="C" horiz-adv-x="666"><path d="M702.991 678.008l-48.9992 -215.009 -17.9887 0 -2.00908 53.8359c-1.65563,19.4955 -5.32034,37.0005 -11.329,52.329 -5.84121,15.3285 -14.6588,28.6666 -26.4901,39.8281 -11.8498,11.3476 -26.8435,20.1652 -44.8508,26.5087 -17.9887,6.32488 -37.9865,9.50592 -59.9933,9.50592 -58.6725,0 -110.164,-15.9982 -153.992,-48.0132 -56.1798,-40.6652 -100.175,-98.1658 -132.004,-172.502 -26.1738,-61.3327 -39.3444,-123.316 -39.3444,-186.323 0,-64.1603 18.8444,-115.503 56.682,-153.676 37.819,-38.3213 86.9856,-57.5006 147.667,-57.5006 45.6507,0 86.3345,10.1756 121.996,30.3408 35.6611,20.3326 68.8295,51.4919 99.5052,93.664l23.1602 0c-35.8286,-56.9983 -75.6753,-98.8355 -119.336,-125.66 -43.6602,-26.8435 -96.0079,-40.3304 -156.838,-40.3304 -54.1521,0 -101.998,11.329 -143.835,33.9869 -41.6512,22.6765 -73.3313,54.5055 -95.1522,95.5056 -21.8394,41.0001 -32.8335,85.1626 -32.8335,132.506 0,72.3268 19.3281,142.663 58.1516,210.99 38.6748,68.5133 91.8409,122.331 159.35,161.34 67.4901,39.1584 135.65,58.6725 204.331,58.6725 32.1639,0 68.3273,-7.68286 108.323,-23.1788 17.505,-6.4923 30.1734,-9.82216 38.0051,-9.82216 7.83168,0 14.6588,1.65563 20.5,4.98549 5.84121,3.18104 15.6634,12.5009 29.3363,28.0155l17.9887 0z"/></glyph>
   <glyph unicode="E" horiz-adv-x="610"><path d="M321.992 627l-74.8196 -261.999 62.8209 0c44.516,0 76.6798,6.65972 96.5102,20.1652 19.9978,13.5055 37.1679,38.5073 51.4919,74.8382l18.0073 0 -68.011 -239.006 -19.9978 0c5.84121,20.1652 8.83622,37.3354 8.83622,51.6593 0,13.8403 -2.82759,25.0019 -8.50138,33.5032 -5.65518,8.50138 -13.4869,14.6774 -23.3276,18.677 -9.84076,4.16698 -30.5082,6.15745 -62.0024,6.15745l-65.4997 0 -65.8345 -229.835c-6.15745,-18.3235 -9.33849,-32.1639 -9.33849,-41.8186 0,-7.34802 4.16698,-13.8403 12.3335,-19.3467 5.84121,-3.99955 20.0164,-5.99003 42.8417,-5.99003l60.4956 0c63.3418,0 114.164,11.1615 152.336,33.6521 38.1725,22.5091 72.3268,61.6675 102.668,117.345l18.0073 0 -63.0069 -185.003 -510.176 0 6.34348 18.0073c25.5041,0.65109 42.4883,2.99501 51.3245,6.82714 13.0032,5.84121 22.5091,13.338 28.3317,22.4905 8.83622,13.338 19.1793,41.3349 31.1779,84.0092l115.169 400.16c9.15247,32.3313 13.6543,56.9983 13.6543,73.8336 0,12.5009 -4.3344,22.1743 -12.9846,29.1688 -8.50138,6.99457 -25.3367,10.5105 -50.506,10.5105l-10.1756 0 5.84121 17.9887 476.003 0 -41.0001 -160.001 -18.0073 0c2.34392,15.0123 3.32986,27.5132 3.32986,37.6702 0,17.1702 -4.16698,31.6616 -12.6684,43.344 -10.9941,14.9937 -27.1598,26.3226 -48.4969,34.1543 -15.6634,5.84121 -51.6593,8.83622 -108.155,8.83622l-85.0138 0z"/></glyph>
   <glyph unicode="B" horiz-adv-x="610"><path d="M144.84 645.007l6.82714 17.9887 237.834 0c39.9955,0 75.6567,-6.15745 106.835,-18.491 31.3267,-12.5009 54.8404,-29.6711 70.3363,-51.8454 15.4959,-22.1557 23.3276,-45.5019 23.3276,-70.3177 0,-38.0051 -14.6588,-72.5128 -43.8277,-103.17 -29.1688,-30.8431 -76.6798,-53.501 -142.663,-68.1784 43.6602,-14.9937 75.9915,-34.824 96.4916,-59.6585 20.6675,-24.8344 30.9919,-52.1616 30.9919,-81.8327 0,-33.001 -8.48277,-64.4951 -25.3181,-94.5011 -17.0028,-30.006 -38.6748,-53.3336 -65.1648,-70.0015 -26.5087,-16.6679 -58.5051,-28.834 -96.0079,-36.6657 -26.6761,-5.50636 -68.1598,-8.33395 -124.842,-8.33395l-242.485 0 6.32488 18.0073c25.3367,0.65109 42.6743,3.16244 51.6593,7.32941 13.1706,5.48776 22.3417,12.8358 27.8481,21.9882 7.83168,12.3335 18.3235,40.6838 31.3267,85.0138l115.503 401.667c9.98958,33.8195 15.1611,57.668 15.1611,71.3223 0,12.1661 -4.50182,21.672 -13.5055,28.6666 -8.98504,7.01317 -25.9878,10.5105 -50.9897,10.5105 -5.50636,0 -10.6779,0.167423 -15.6634,0.50227zm100.826 -275.002c21.1697,-0.669693 36.3308,-1.00454 45.6693,-1.00454 67.3227,0 117.494,14.6588 150.327,43.9951 32.8335,29.3363 49.334,66.0019 49.334,109.997 0,33.5032 -10.157,59.5096 -30.3222,78.0006 -20.1652,18.677 -52.5151,28.0155 -96.845,28.0155 -11.8312,0 -26.8249,-2.00908 -44.9996,-5.84121l-73.1639 -253.162zm-94.1662 -327.163c35.6611,-4.50182 63.658,-6.84575 83.8418,-6.84575 51.4919,0 97.1612,15.3285 136.989,46.0042 39.8281,30.8245 59.6771,72.4942 59.6771,124.991 0,40.349 -12.5009,71.6757 -37.3354,94.1848 -24.8344,22.4905 -64.9974,33.8195 -120.507,33.8195 -10.6593,0 -23.8299,-0.669693 -39.1584,-1.99048l-83.507 -290.163z"/></glyph>
  </font>
  <style type="text/css">
   <![CDATA[
    @font-face { font-family:"Meiryo";src:url("#FontID1") format(svg)}
    @font-face { font-family:"Times New Roman";src:url("#FontID0") format(svg)}
    .str0 {stroke:black;stroke-width:33.59}
    .fil0 {fill:none}
    .fil1 {fill:black}
    .fnt0 {font-style:italic;font-weight:normal;font-size:537.56px;font-family:'Times New Roman'}
    .fnt1 {font-style:italic;font-weight:normal;font-size:537.56px;font-family:'Times New Roman'}
    .fnt2 {font-style:italic;font-weight:normal;font-size:537.56px;font-family:'Times New Roman'}
    .fnt3 {font-style:italic;font-weight:normal;font-size:537.56px;font-family:'Times New Roman'}
    .fnt4 {font-style:italic;font-weight:normal;font-size:537.56px;font-family:'Times New Roman'}
   ]]>
  </style>
 </defs>
 <g id="图层_x0020_1">
  <metadata id="CorelCorpID_0Corel-Layer"/>
  <line class="fil0 str0" x1="935" y1="3045" x2="4145" y2= "3045" />
  <line class="fil0 str0" x1="4145" y1="3045" x2="2761" y2= "1142" />
  <line class="fil0 str0" x1="2761" y1="1142" x2="935" y2= "3045" />
  <line class="fil0 str0" x1="2761" y1="1142" x2="2631" y2= "3045" />
  <line class="fil0 str0" x1="2631" y1="3045" x2="3513" y2= "2176" />
  <g transform="matrix(1 0 0 1 1129.43 163.15)">
   <text x="2500" y="2000"  class="fil1 fnt0">E</text>
  </g>
  <g transform="matrix(1 0 0 1 316.02 1747.24)">
   <text x="2500" y="2000"  class="fil1 fnt1">D</text>
  </g>
  <g transform="matrix(1 0 0 1 1752.7 1223.01)">
   <text x="2500" y="2000"  class="fil1 fnt2">C</text>
  </g>
  <g transform="matrix(1 0 0 1 -1961.57 1206.03)">
   <text x="2500" y="2000"  class="fil1 fnt3">B</text>
  </g>
  <g transform="matrix(1 0 0 1 188.69 -944.23)">
   <text x="2500" y="2000"  class="fil1 fnt4">A</text>
  </g>
 </g>
</svg>
