<?xml version="1.0" encoding="utf-8"?>
<!-- Generator: Adobe Illustrator 19.0.0, SVG Export Plug-In . SVG Version: 6.00 Build 0)  -->
<svg version="1.1" id="图层_1" xmlns="http://www.w3.org/2000/svg" xmlns:xlink="http://www.w3.org/1999/xlink" x="0px" y="0px"
	 viewBox="15 15 70 70" style="enable-background:new 15 15 70 70;" xml:space="preserve">
<style type="text/css">
	.st0{fill:none;stroke:#040000;stroke-width:0.5;}
	.st1{fill:#040000;stroke:#040000;stroke-width:0.5;stroke-linecap:round;stroke-linejoin:round;}
</style>
<line class="st0" x1="31" y1="66.4" x2="49.7" y2="33.9"/>
<line class="st0" x1="68.4" y1="66.3" x2="31" y2="66.4"/>
<line class="st0" x1="68.4" y1="66.3" x2="49.7" y2="33.9"/>
<path class="st1" d="M69.6,66.3c0,0.7-0.5,1.2-1.2,1.2s-1.2-0.5-1.2-1.2s0.5-1.2,1.2-1.2C69.1,65.1,69.6,65.6,69.6,66.3z"/>
<path class="st1" d="M50.9,33.9c0,0.7-0.5,1.2-1.2,1.2s-1.2-0.5-1.2-1.2s0.5-1.2,1.2-1.2S50.9,33.3,50.9,33.9z"/>
<path class="st1" d="M32.3,66.4c0,0.7-0.5,1.2-1.2,1.2s-1.2-0.5-1.2-1.2s0.5-1.2,1.2-1.2S32.3,65.7,32.3,66.4z"/>
</svg>
