<?xml version='1.0' encoding='UTF-8'?>
<!-- This file was generated by dvisvgm 1.15.1 -->
<svg height='14.098pt' version='1.1' viewBox='-0.299738 -0.249525 20.4429 14.098' width='20.4429pt' xmlns='http://www.w3.org/2000/svg' xmlns:xlink='http://www.w3.org/1999/xlink'>
<defs>
<path d='M7.99402 -1.13973C7.99402 -1.25928 6.75068 -3.06052 4.23213 -3.06052S0.470237 -1.25928 0.470237 -1.13973C0.470237 -1.068 0.526027 -1.0122 0.597758 -1.0122C0.613699 -1.0122 0.653549 -1.02017 0.70934 -1.07597C0.948443 -1.3868 1.36289 -1.92877 2.3193 -2.30336C3.04458 -2.59029 3.76986 -2.64608 4.23213 -2.64608C4.75019 -2.64608 5.51532 -2.58232 6.34421 -2.22366C6.79054 -2.02441 7.26874 -1.7056 7.7071 -1.15567C7.81071 -1.02017 7.81868 -1.0122 7.8665 -1.0122C7.93823 -1.0122 7.99402 -1.068 7.99402 -1.13973Z' id='g0-95'/>
<path d='M1.74545 -0.850909C1.63636 -0.425454 1.61455 -0.338182 0.752727 -0.338182C0.567273 -0.338182 0.458182 -0.338182 0.458182 -0.12C0.458182 0 0.556363 0 0.752727 0H4.64727C6.37091 0 7.65818 -1.28727 7.65818 -2.35636C7.65818 -3.14182 7.02545 -3.77454 5.96727 -3.89454C7.10182 -4.10182 8.24727 -4.90909 8.24727 -5.94545C8.24727 -6.75273 7.52727 -7.45091 6.21818 -7.45091H2.55273C2.34545 -7.45091 2.23636 -7.45091 2.23636 -7.23273C2.23636 -7.11273 2.33454 -7.11273 2.54182 -7.11273C2.56364 -7.11273 2.77091 -7.11273 2.95636 -7.09091C3.15273 -7.06909 3.25091 -7.05818 3.25091 -6.91636C3.25091 -6.87273 3.24 -6.84 3.20727 -6.70909L1.74545 -0.850909ZM3.39273 -3.99273L4.06909 -6.69818C4.16727 -7.08 4.18909 -7.11273 4.65818 -7.11273H6.06545C7.02545 -7.11273 7.25454 -6.46909 7.25454 -5.98909C7.25454 -5.02909 6.31636 -3.99273 4.98545 -3.99273H3.39273ZM2.90182 -0.338182C2.74909 -0.338182 2.72727 -0.338182 2.66182 -0.349091C2.55273 -0.36 2.52 -0.370909 2.52 -0.458182C2.52 -0.490909 2.52 -0.512727 2.57454 -0.709091L3.32727 -3.75273H5.38909C6.43636 -3.75273 6.64363 -2.94545 6.64363 -2.47636C6.64363 -1.39636 5.67273 -0.338182 4.38545 -0.338182H2.90182Z' id='g1-66'/>
<path d='M1.73454 -0.850909C1.62545 -0.425454 1.60364 -0.338182 0.741818 -0.338182C0.556363 -0.338182 0.436364 -0.338182 0.436364 -0.130909C0.436364 0 0.534545 0 0.741818 0H4.35273C6.62182 0 8.77091 -2.30182 8.77091 -4.69091C8.77091 -6.22909 7.84363 -7.45091 6.20727 -7.45091H2.54182C2.33454 -7.45091 2.21454 -7.45091 2.21454 -7.24363C2.21454 -7.11273 2.31273 -7.11273 2.53091 -7.11273C2.67273 -7.11273 2.86909 -7.10182 3 -7.09091C3.17454 -7.06909 3.24 -7.03636 3.24 -6.91636C3.24 -6.87273 3.22909 -6.84 3.19636 -6.70909L1.73454 -0.850909ZM4.09091 -6.69818C4.18909 -7.08 4.21091 -7.11273 4.68 -7.11273H5.84727C6.91636 -7.11273 7.82182 -6.53454 7.82182 -5.09454C7.82182 -4.56 7.60363 -2.77091 6.67636 -1.57091C6.36 -1.16727 5.49818 -0.338182 4.15636 -0.338182H2.92364C2.77091 -0.338182 2.74909 -0.338182 2.68364 -0.349091C2.57454 -0.36 2.54182 -0.370909 2.54182 -0.458182C2.54182 -0.490909 2.54182 -0.512727 2.59636 -0.709091L4.09091 -6.69818Z' id='g1-68'/>
</defs>
<g id='page1' transform='matrix(1.13 0 0 1.13 -80.23 -66.7894)'>
<use x='75.579' xlink:href='#g0-95' y='61.7246'/>
<use x='70.7347' xlink:href='#g1-66' y='71.361'/>
<use x='79.5258' xlink:href='#g1-68' y='71.361'/>
</g>
</svg>
