<?xml version='1.0' encoding='UTF-8'?>
<!-- This file was generated by dvisvgm 1.15.1 -->
<svg height='29.4752pt' version='1.1' viewBox='-0.299738 -0.246805 52.2294 29.4752' width='52.2294pt' xmlns='http://www.w3.org/2000/svg' xmlns:xlink='http://www.w3.org/1999/xlink'>
<defs>
<path d='M4.53818 16.2436C4.53818 15.7309 4.53818 14.9236 3.85091 14.04C3.42545 13.4945 2.80364 12.9927 2.05091 12.6545C4.17818 11.6291 4.53818 10.0582 4.53818 9.43636V3.15273C4.53818 2.47636 4.53818 1.08 6.65454 0.0327273C6.74182 -0.0109091 6.74182 -0.0327273 6.74182 -0.196364C6.74182 -0.425454 6.74182 -0.436364 6.50182 -0.436364C6.34909 -0.436364 6.32727 -0.436364 6.04363 -0.305454C4.96363 0.229091 3.89454 1.09091 3.66545 2.42182C3.63273 2.64 3.63273 2.73818 3.63273 3.46909V8.50909C3.63273 8.84727 3.63273 9.41454 3.62182 9.53454C3.52364 10.68 2.85818 11.6727 1.61455 12.36C1.44 12.4582 1.42909 12.4691 1.42909 12.6436C1.42909 12.8291 1.44 12.84 1.59273 12.9273C2.32364 13.3309 3.37091 14.1164 3.58909 15.48C3.63273 15.7309 3.63273 15.7527 3.63273 15.8727V22.3527C3.63273 23.9345 4.72364 24.9709 6.07636 25.6145C6.31636 25.7345 6.33818 25.7345 6.50182 25.7345C6.73091 25.7345 6.74182 25.7345 6.74182 25.4945C6.74182 25.32 6.73091 25.3091 6.64363 25.2545C6.19636 25.0364 4.78909 24.3273 4.56 22.7564C4.53818 22.6036 4.53818 22.4836 4.53818 21.8291V16.2436Z' id='g0-26'/>
<path d='M3.20727 -6.98182C3.20727 -7.24363 3.20727 -7.26545 2.95636 -7.26545C2.28 -6.56727 1.32 -6.56727 0.970909 -6.56727V-6.22909C1.18909 -6.22909 1.83273 -6.22909 2.4 -6.51273V-0.861818C2.4 -0.469091 2.36727 -0.338182 1.38545 -0.338182H1.03636V0C1.41818 -0.0327273 2.36727 -0.0327273 2.80364 -0.0327273S4.18909 -0.0327273 4.57091 0V-0.338182H4.22182C3.24 -0.338182 3.20727 -0.458182 3.20727 -0.861818V-6.98182Z' id='g3-49'/>
<path d='M5.19273 -6.64363C5.29091 -6.77454 5.29091 -6.79636 5.29091 -7.02545H2.64C1.30909 -7.02545 1.28727 -7.16727 1.24364 -7.37454H0.970909L0.610909 -5.12727H0.883636C0.916363 -5.30182 1.01455 -5.98909 1.15636 -6.12C1.23273 -6.18545 2.08364 -6.18545 2.22545 -6.18545H4.48364C4.36364 -6.01091 3.50182 -4.82182 3.26182 -4.46182C2.28 -2.98909 1.92 -1.47273 1.92 -0.36C1.92 -0.250909 1.92 0.24 2.42182 0.24S2.92364 -0.250909 2.92364 -0.36V-0.916363C2.92364 -1.51636 2.95636 -2.11636 3.04364 -2.70545C3.08727 -2.95636 3.24 -3.89454 3.72 -4.57091L5.19273 -6.64363Z' id='g3-55'/>
<path d='M7.49454 -3.56727C7.65818 -3.56727 7.86545 -3.56727 7.86545 -3.78545S7.65818 -4.00364 7.50545 -4.00364H0.970909C0.818182 -4.00364 0.610909 -4.00364 0.610909 -3.78545S0.818182 -3.56727 0.981818 -3.56727H7.49454ZM7.50545 -1.45091C7.65818 -1.45091 7.86545 -1.45091 7.86545 -1.66909S7.65818 -1.88727 7.49454 -1.88727H0.981818C0.818182 -1.88727 0.610909 -1.88727 0.610909 -1.66909S0.818182 -1.45091 0.970909 -1.45091H7.50545Z' id='g3-61'/>
<path d='M2.60727 -7.45091C2.60727 -7.46182 2.60727 -7.57091 2.46545 -7.57091C2.21454 -7.57091 1.41818 -7.48363 1.13455 -7.46182C1.04727 -7.45091 0.927272 -7.44 0.927272 -7.24363C0.927272 -7.11273 1.02545 -7.11273 1.18909 -7.11273C1.71273 -7.11273 1.73454 -7.03636 1.73454 -6.92727C1.73454 -6.85091 1.63636 -6.48 1.58182 -6.25091L0.687273 -2.69454C0.556363 -2.14909 0.512727 -1.97454 0.512727 -1.59273C0.512727 -0.556363 1.09091 0.12 1.89818 0.12C3.18545 0.12 4.52727 -1.50545 4.52727 -3.07636C4.52727 -4.06909 3.94909 -4.82182 3.07636 -4.82182C2.57454 -4.82182 2.12727 -4.50545 1.8 -4.16727L2.60727 -7.45091ZM1.58182 -3.32727C1.64727 -3.56727 1.64727 -3.58909 1.74545 -3.70909C2.28 -4.41818 2.77091 -4.58182 3.05454 -4.58182C3.44727 -4.58182 3.74182 -4.25454 3.74182 -3.55636C3.74182 -2.91273 3.38182 -1.65818 3.18545 -1.24364C2.82545 -0.512727 2.32364 -0.12 1.89818 -0.12C1.52727 -0.12 1.16727 -0.414545 1.16727 -1.22182C1.16727 -1.42909 1.16727 -1.63636 1.34182 -2.32364L1.58182 -3.32727Z' id='g2-98'/>
<path d='M3.13091 -7.45091C3.13091 -7.46182 3.13091 -7.57091 2.98909 -7.57091C2.73818 -7.57091 1.94182 -7.48363 1.65818 -7.46182C1.57091 -7.45091 1.45091 -7.44 1.45091 -7.24363C1.45091 -7.11273 1.54909 -7.11273 1.71273 -7.11273C2.23636 -7.11273 2.25818 -7.03636 2.25818 -6.92727L2.22545 -6.70909L0.643636 -0.425454C0.6 -0.272727 0.6 -0.250909 0.6 -0.185454C0.6 0.0654545 0.818182 0.12 0.916363 0.12C1.05818 0.12 1.22182 0.0218182 1.28727 -0.109091C1.34182 -0.207273 1.83273 -2.22545 1.89818 -2.49818C2.26909 -2.46545 3.16364 -2.29091 3.16364 -1.57091C3.16364 -1.49455 3.16364 -1.45091 3.13091 -1.34182C3.10909 -1.21091 3.08727 -1.08 3.08727 -0.96C3.08727 -0.316364 3.52364 0.12 4.09091 0.12C4.41818 0.12 4.71273 -0.0545454 4.95273 -0.458182C5.22545 -0.938182 5.34545 -1.53818 5.34545 -1.56C5.34545 -1.66909 5.24727 -1.66909 5.21454 -1.66909C5.10545 -1.66909 5.09454 -1.62545 5.06182 -1.47273C4.84364 -0.676363 4.59273 -0.12 4.11273 -0.12C3.90545 -0.12 3.76364 -0.24 3.76364 -0.632727C3.76364 -0.818182 3.80727 -1.06909 3.85091 -1.24364C3.89454 -1.42909 3.89454 -1.47273 3.89454 -1.58182C3.89454 -2.29091 3.20727 -2.60727 2.28 -2.72727C2.61818 -2.92364 2.96727 -3.27273 3.21818 -3.53454C3.74182 -4.11273 4.24364 -4.58182 4.77818 -4.58182C4.84364 -4.58182 4.85454 -4.58182 4.87636 -4.57091C5.00727 -4.54909 5.01818 -4.54909 5.10545 -4.48364C5.12727 -4.47273 5.12727 -4.46182 5.14909 -4.44C4.62545 -4.40727 4.52727 -3.98182 4.52727 -3.85091C4.52727 -3.67636 4.64727 -3.46909 4.94182 -3.46909C5.22545 -3.46909 5.54182 -3.70909 5.54182 -4.13454C5.54182 -4.46182 5.29091 -4.82182 4.8 -4.82182C4.49454 -4.82182 3.99273 -4.73454 3.20727 -3.86182C2.83636 -3.44727 2.41091 -3.01091 1.99636 -2.84727L3.13091 -7.45091Z' id='g2-107'/>
<path d='M7.18909 -2.50909C7.37454 -2.50909 7.57091 -2.50909 7.57091 -2.72727S7.37454 -2.94545 7.18909 -2.94545H1.28727C1.10182 -2.94545 0.905454 -2.94545 0.905454 -2.72727S1.10182 -2.50909 1.28727 -2.50909H7.18909Z' id='g1-0'/>
</defs>
<g id='page1' transform='matrix(1.13 0 0 1.13 -80.23 -66.0615)'>
<use x='70.7347' xlink:href='#g0-26' y='58.6778'/>
<use x='82.5529' xlink:href='#g2-107' y='67.2677'/>
<use x='91.5846' xlink:href='#g3-61' y='67.2677'/>
<use x='103.068' xlink:href='#g1-0' y='67.2677'/>
<use x='111.521' xlink:href='#g3-49' y='67.2677'/>
<use x='85.6476' xlink:href='#g2-98' y='80.8169'/>
<use x='93.3422' xlink:href='#g3-61' y='80.8169'/>
<use x='104.826' xlink:href='#g3-55' y='80.8169'/>
</g>
</svg>
