<?xml version='1.0' encoding='UTF-8'?>
<!-- This file was generated by dvisvgm 1.15.1 -->
<svg height='29.9134pt' version='1.1' viewBox='-0.299738 -0.245162 46.6093 29.9134' width='46.6093pt' xmlns='http://www.w3.org/2000/svg' xmlns:xlink='http://www.w3.org/1999/xlink'>
<defs>
<path d='M4.53818 16.2436C4.53818 15.7309 4.53818 14.9236 3.85091 14.04C3.42545 13.4945 2.80364 12.9927 2.05091 12.6545C4.17818 11.6291 4.53818 10.0582 4.53818 9.43636V3.15273C4.53818 2.47636 4.53818 1.08 6.65454 0.0327273C6.74182 -0.0109091 6.74182 -0.0327273 6.74182 -0.196364C6.74182 -0.425454 6.74182 -0.436364 6.50182 -0.436364C6.34909 -0.436364 6.32727 -0.436364 6.04363 -0.305454C4.96363 0.229091 3.89454 1.09091 3.66545 2.42182C3.63273 2.64 3.63273 2.73818 3.63273 3.46909V8.50909C3.63273 8.84727 3.63273 9.41454 3.62182 9.53454C3.52364 10.68 2.85818 11.6727 1.61455 12.36C1.44 12.4582 1.42909 12.4691 1.42909 12.6436C1.42909 12.8291 1.44 12.84 1.59273 12.9273C2.32364 13.3309 3.37091 14.1164 3.58909 15.48C3.63273 15.7309 3.63273 15.7527 3.63273 15.8727V22.3527C3.63273 23.9345 4.72364 24.9709 6.07636 25.6145C6.31636 25.7345 6.33818 25.7345 6.50182 25.7345C6.73091 25.7345 6.74182 25.7345 6.74182 25.4945C6.74182 25.32 6.73091 25.3091 6.64363 25.2545C6.19636 25.0364 4.78909 24.3273 4.56 22.7564C4.53818 22.6036 4.53818 22.4836 4.53818 21.8291V16.2436Z' id='g0-26'/>
<path d='M2.24757 -1.6259C2.37509 -1.74545 2.70984 -2.00847 2.83736 -2.12005C3.33151 -2.57435 3.80174 -3.0127 3.80174 -3.73798C3.80174 -4.68643 3.00473 -5.30012 2.00847 -5.30012C1.05205 -5.30012 0.422416 -4.57484 0.422416 -3.8655C0.422416 -3.47497 0.73325 -3.41918 0.844832 -3.41918C1.0122 -3.41918 1.25928 -3.53873 1.25928 -3.84159C1.25928 -4.25604 0.860772 -4.25604 0.765131 -4.25604C0.996264 -4.83786 1.53026 -5.03711 1.9208 -5.03711C2.66202 -5.03711 3.04458 -4.40747 3.04458 -3.73798C3.04458 -2.90909 2.46276 -2.30336 1.52229 -1.33898L0.518057 -0.302864C0.422416 -0.215193 0.422416 -0.199253 0.422416 0H3.57061L3.80174 -1.42665H3.55467C3.53076 -1.26725 3.467 -0.868742 3.37136 -0.71731C3.32354 -0.653549 2.71781 -0.653549 2.59029 -0.653549H1.17161L2.24757 -1.6259Z' id='g3-50'/>
<path d='M1.11582 -4.4792C1.21943 -4.44732 1.53823 -4.36762 1.87298 -4.36762C2.86924 -4.36762 3.47497 -5.06899 3.47497 -5.18854C3.47497 -5.27621 3.41918 -5.30012 3.37933 -5.30012C3.36339 -5.30012 3.34745 -5.30012 3.27572 -5.26027C2.96488 -5.14072 2.59826 -5.04508 2.16787 -5.04508C1.69763 -5.04508 1.3071 -5.16463 1.06002 -5.26027C0.980324 -5.30012 0.964384 -5.30012 0.956413 -5.30012C0.852802 -5.30012 0.852802 -5.21245 0.852802 -5.06899V-2.73375C0.852802 -2.59029 0.852802 -2.49465 0.980324 -2.49465C1.04408 -2.49465 1.068 -2.52653 1.10785 -2.59029C1.20349 -2.70984 1.50635 -3.11631 2.18381 -3.11631C2.63014 -3.11631 2.84533 -2.74969 2.91706 -2.59826C3.05255 -2.31133 3.06849 -1.94471 3.06849 -1.63387C3.06849 -1.33898 3.06052 -0.908593 2.83736 -0.557908C2.68593 -0.318804 2.36712 -0.071731 1.94471 -0.071731C1.42665 -0.071731 0.916563 -0.398506 0.73325 -0.916563C0.757161 -0.908593 0.804981 -0.908593 0.812951 -0.908593C1.03611 -0.908593 1.21146 -1.05205 1.21146 -1.29913C1.21146 -1.59402 0.980324 -1.69763 0.820922 -1.69763C0.67746 -1.69763 0.422416 -1.61793 0.422416 -1.27522C0.422416 -0.557908 1.04408 0.167372 1.96065 0.167372C2.95691 0.167372 3.80174 -0.605729 3.80174 -1.59402C3.80174 -2.51856 3.13225 -3.33948 2.19178 -3.33948C1.79328 -3.33948 1.41868 -3.21196 1.11582 -2.94097V-4.4792Z' id='g3-53'/>
<path d='M1.44 -3.57818V-3.84C1.44 -6.6 2.79273 -6.99273 3.34909 -6.99273C3.61091 -6.99273 4.06909 -6.92727 4.30909 -6.55636C4.14545 -6.55636 3.70909 -6.55636 3.70909 -6.06545C3.70909 -5.72727 3.97091 -5.56363 4.21091 -5.56363C4.38545 -5.56363 4.71273 -5.66182 4.71273 -6.08727C4.71273 -6.74182 4.23273 -7.26545 3.32727 -7.26545C1.93091 -7.26545 0.458182 -5.85818 0.458182 -3.44727C0.458182 -0.534545 1.72364 0.24 2.73818 0.24C3.94909 0.24 4.98545 -0.785454 4.98545 -2.22545C4.98545 -3.61091 4.01454 -4.65818 2.80364 -4.65818C2.06182 -4.65818 1.65818 -4.10182 1.44 -3.57818ZM2.73818 -0.0654545C2.05091 -0.0654545 1.72364 -0.72 1.65818 -0.883636C1.46182 -1.39636 1.46182 -2.26909 1.46182 -2.46545C1.46182 -3.31636 1.81091 -4.40727 2.79273 -4.40727C2.96727 -4.40727 3.46909 -4.40727 3.80727 -3.73091C4.00364 -3.32727 4.00364 -2.77091 4.00364 -2.23636C4.00364 -1.71273 4.00364 -1.16727 3.81818 -0.774545C3.49091 -0.12 2.98909 -0.0654545 2.73818 -0.0654545Z' id='g4-54'/>
<path d='M7.49454 -3.56727C7.65818 -3.56727 7.86545 -3.56727 7.86545 -3.78545S7.65818 -4.00364 7.50545 -4.00364H0.970909C0.818182 -4.00364 0.610909 -4.00364 0.610909 -3.78545S0.818182 -3.56727 0.981818 -3.56727H7.49454ZM7.50545 -1.45091C7.65818 -1.45091 7.86545 -1.45091 7.86545 -1.66909S7.65818 -1.88727 7.49454 -1.88727H0.981818C0.818182 -1.88727 0.610909 -1.88727 0.610909 -1.66909S0.818182 -1.45091 0.970909 -1.45091H7.50545Z' id='g4-61'/>
<path d='M2.60727 -7.45091C2.60727 -7.46182 2.60727 -7.57091 2.46545 -7.57091C2.21454 -7.57091 1.41818 -7.48363 1.13455 -7.46182C1.04727 -7.45091 0.927272 -7.44 0.927272 -7.24363C0.927272 -7.11273 1.02545 -7.11273 1.18909 -7.11273C1.71273 -7.11273 1.73454 -7.03636 1.73454 -6.92727C1.73454 -6.85091 1.63636 -6.48 1.58182 -6.25091L0.687273 -2.69454C0.556363 -2.14909 0.512727 -1.97454 0.512727 -1.59273C0.512727 -0.556363 1.09091 0.12 1.89818 0.12C3.18545 0.12 4.52727 -1.50545 4.52727 -3.07636C4.52727 -4.06909 3.94909 -4.82182 3.07636 -4.82182C2.57454 -4.82182 2.12727 -4.50545 1.8 -4.16727L2.60727 -7.45091ZM1.58182 -3.32727C1.64727 -3.56727 1.64727 -3.58909 1.74545 -3.70909C2.28 -4.41818 2.77091 -4.58182 3.05454 -4.58182C3.44727 -4.58182 3.74182 -4.25454 3.74182 -3.55636C3.74182 -2.91273 3.38182 -1.65818 3.18545 -1.24364C2.82545 -0.512727 2.32364 -0.12 1.89818 -0.12C1.52727 -0.12 1.16727 -0.414545 1.16727 -1.22182C1.16727 -1.42909 1.16727 -1.63636 1.34182 -2.32364L1.58182 -3.32727Z' id='g2-98'/>
<path d='M3.13091 -7.45091C3.13091 -7.46182 3.13091 -7.57091 2.98909 -7.57091C2.73818 -7.57091 1.94182 -7.48363 1.65818 -7.46182C1.57091 -7.45091 1.45091 -7.44 1.45091 -7.24363C1.45091 -7.11273 1.54909 -7.11273 1.71273 -7.11273C2.23636 -7.11273 2.25818 -7.03636 2.25818 -6.92727L2.22545 -6.70909L0.643636 -0.425454C0.6 -0.272727 0.6 -0.250909 0.6 -0.185454C0.6 0.0654545 0.818182 0.12 0.916363 0.12C1.05818 0.12 1.22182 0.0218182 1.28727 -0.109091C1.34182 -0.207273 1.83273 -2.22545 1.89818 -2.49818C2.26909 -2.46545 3.16364 -2.29091 3.16364 -1.57091C3.16364 -1.49455 3.16364 -1.45091 3.13091 -1.34182C3.10909 -1.21091 3.08727 -1.08 3.08727 -0.96C3.08727 -0.316364 3.52364 0.12 4.09091 0.12C4.41818 0.12 4.71273 -0.0545454 4.95273 -0.458182C5.22545 -0.938182 5.34545 -1.53818 5.34545 -1.56C5.34545 -1.66909 5.24727 -1.66909 5.21454 -1.66909C5.10545 -1.66909 5.09454 -1.62545 5.06182 -1.47273C4.84364 -0.676363 4.59273 -0.12 4.11273 -0.12C3.90545 -0.12 3.76364 -0.24 3.76364 -0.632727C3.76364 -0.818182 3.80727 -1.06909 3.85091 -1.24364C3.89454 -1.42909 3.89454 -1.47273 3.89454 -1.58182C3.89454 -2.29091 3.20727 -2.60727 2.28 -2.72727C2.61818 -2.92364 2.96727 -3.27273 3.21818 -3.53454C3.74182 -4.11273 4.24364 -4.58182 4.77818 -4.58182C4.84364 -4.58182 4.85454 -4.58182 4.87636 -4.57091C5.00727 -4.54909 5.01818 -4.54909 5.10545 -4.48364C5.12727 -4.47273 5.12727 -4.46182 5.14909 -4.44C4.62545 -4.40727 4.52727 -3.98182 4.52727 -3.85091C4.52727 -3.67636 4.64727 -3.46909 4.94182 -3.46909C5.22545 -3.46909 5.54182 -3.70909 5.54182 -4.13454C5.54182 -4.46182 5.29091 -4.82182 4.8 -4.82182C4.49454 -4.82182 3.99273 -4.73454 3.20727 -3.86182C2.83636 -3.44727 2.41091 -3.01091 1.99636 -2.84727L3.13091 -7.45091Z' id='g2-107'/>
<path d='M7.18909 -2.50909C7.37454 -2.50909 7.57091 -2.50909 7.57091 -2.72727S7.37454 -2.94545 7.18909 -2.94545H1.28727C1.10182 -2.94545 0.905454 -2.94545 0.905454 -2.72727S1.10182 -2.50909 1.28727 -2.50909H7.18909Z' id='g1-0'/>
</defs>
<g id='page1' transform='matrix(1.13 0 0 1.13 -80.23 -65.6217)'>
<use x='70.7347' xlink:href='#g0-26' y='58.6778'/>
<use x='81.9032' xlink:href='#g2-107' y='67.2677'/>
<use x='90.935' xlink:href='#g4-61' y='67.2677'/>
<use x='103.614' xlink:href='#g3-53' y='62.9725'/>
<rect height='0.436352' width='4.23418' x='103.614' y='64.3223'/>
<use x='103.614' xlink:href='#g3-50' y='71.0296'/>
<use x='78.9166' xlink:href='#g2-98' y='80.8169'/>
<use x='86.6111' xlink:href='#g4-61' y='80.8169'/>
<use x='98.0946' xlink:href='#g1-0' y='80.8169'/>
<use x='106.548' xlink:href='#g4-54' y='80.8169'/>
</g>
</svg>
