<?xml version='1.0' encoding='UTF-8'?>
<!-- This file was generated by dvisvgm 1.15.1 -->
<svg height='14.8869pt' version='1.1' viewBox='-0.304804 -0.25141 4.78463 14.8869' width='4.78463pt' xmlns='http://www.w3.org/2000/svg' xmlns:xlink='http://www.w3.org/1999/xlink'>
<defs>
<path d='M2.24757 -1.6259C2.37509 -1.74545 2.70984 -2.00847 2.83736 -2.12005C3.33151 -2.57435 3.80174 -3.0127 3.80174 -3.73798C3.80174 -4.68643 3.00473 -5.30012 2.00847 -5.30012C1.05205 -5.30012 0.422416 -4.57484 0.422416 -3.8655C0.422416 -3.47497 0.73325 -3.41918 0.844832 -3.41918C1.0122 -3.41918 1.25928 -3.53873 1.25928 -3.84159C1.25928 -4.25604 0.860772 -4.25604 0.765131 -4.25604C0.996264 -4.83786 1.53026 -5.03711 1.9208 -5.03711C2.66202 -5.03711 3.04458 -4.40747 3.04458 -3.73798C3.04458 -2.90909 2.46276 -2.30336 1.52229 -1.33898L0.518057 -0.302864C0.422416 -0.215193 0.422416 -0.199253 0.422416 0H3.57061L3.80174 -1.42665H3.55467C3.53076 -1.26725 3.467 -0.868742 3.37136 -0.71731C3.32354 -0.653549 2.71781 -0.653549 2.59029 -0.653549H1.17161L2.24757 -1.6259Z' id='g0-50'/>
<path d='M4.03288 -4.8538C4.10461 -4.94147 4.10461 -4.95741 4.10461 -5.13275H2.0802C1.88095 -5.13275 1.63387 -5.14072 1.43462 -5.15666C1.02017 -5.18854 1.0122 -5.26027 0.988294 -5.3878H0.74122L0.470237 -3.7061H0.71731C0.73325 -3.82565 0.820922 -4.37559 0.932503 -4.43935C1.02017 -4.4792 1.61793 -4.4792 1.73748 -4.4792H3.42715L2.60623 -3.37933C1.69763 -2.16787 1.50635 -0.908593 1.50635 -0.278954C1.50635 -0.199253 1.50635 0.167372 1.88095 0.167372S2.25554 -0.191283 2.25554 -0.286924V-0.669489C2.25554 -1.81719 2.44682 -2.75766 2.83736 -3.27572L4.03288 -4.8538Z' id='g0-55'/>
</defs>
<g id='page1' transform='matrix(1.13 0 0 1.13 -81.586 -67.2941)'>
<use x='71.9303' xlink:href='#g0-55' y='64.447'/>
<rect height='0.436352' width='4.23418' x='71.9303' y='65.7968'/>
<use x='71.9303' xlink:href='#g0-50' y='72.5041'/>
</g>
</svg>
