<?xml version="1.0" encoding="UTF-8"?>
<!DOCTYPE svg PUBLIC "-//W3C//DTD SVG 1.1//EN" "http://www.w3.org/Graphics/SVG/1.1/DTD/svg11.dtd">
<!-- Creator: CorelDRAW X6 -->
<svg xmlns="http://www.w3.org/2000/svg" xml:space="preserve" width="60mm" height="50mm" version="1.1" style="shape-rendering:geometricPrecision; text-rendering:geometricPrecision; image-rendering:optimizeQuality; fill-rule:evenodd; clip-rule:evenodd"
viewBox="0 0 6000 5000"
 xmlns:xlink="http://www.w3.org/1999/xlink">
 <defs>
  <font id="FontID0" horiz-adv-x="722" font-variant="normal" style="fill-rule:nonzero" font-style="normal,italic" font-weight="400">
	<font-face 
		font-family="Times New Roman">
	</font-face>
   <missing-glyph><path d="M0 0z"/></missing-glyph>
   <glyph unicode="D" horiz-adv-x="722"><path d="M144.174 644.997l5.82912 18.0055 212.162 0c89.8425,0 156.332,-10.3444 199.504,-30.8296 43.3391,-20.5037 77.8327,-52.8322 103.666,-97.004 25.8332,-44.1718 38.6573,-91.508 38.6573,-142.009 0,-43.3206 -7.32804,-85.4938 -22.1507,-126.501 -14.8411,-40.8224 -31.6808,-73.6505 -50.334,-98.1513 -18.6717,-24.6674 -47.5027,-51.8329 -86.1785,-81.5152 -38.6573,-29.6638 -80.664,-51.4998 -126.002,-65.6563 -45.1526,-14.1749 -101.667,-21.3364 -169.322,-21.3364l-280.335 0 6.49531 18.0055c25.6666,0.666186 42.8394,2.99783 51.6664,6.8284 13.0091,5.49603 22.6688,12.9906 28.831,22.5023 9.51165,13.6568 20.0041,41.1555 31.6623,82.496l115.509 401.173c8.9935,31.6623 13.6568,56.4962 13.6568,74.3352 0,12.8241 -4.33021,22.4838 -12.8241,29.3307 -8.32732,6.8284 -25.0005,10.3259 -49.6678,10.3259l-10.8255 0zm173.153 -18.0055l-144.488 -507.152c-10.844,-33.1797 -16.1735,-53.6649 -16.1735,-61.6777 0,-4.6633 1.66546,-9.16005 5.16294,-13.4903 3.33093,-4.33021 8.01273,-7.34655 14.0084,-8.67892 8.49387,-2.66474 22.5023,-3.99711 41.6551,-3.99711 52.018,0 100.335,5.32948 144.84,15.8404 44.5049,10.659 80.9971,26.4994 109.495,47.3362 40.5078,30.3299 72.6697,72.0036 96.8375,125.169 24.1677,53.1653 36.3441,113.825 36.3441,181.665 0,76.6669 -18.6717,133.663 -56.0151,170.988 -37.1583,37.3434 -91.656,56.0151 -163.16,56.0151 -17.6724,0 -40.5078,-0.666186 -68.5061,-2.01706z"/></glyph>
   <glyph unicode="A" horiz-adv-x="610"><path d="M513.999 677.992l-50.0009 -551.491c-2.66474,-25.8332 -3.83057,-42.6729 -3.83057,-50.8337 0,-13.0091 2.33165,-23.0019 7.32804,-29.8303 6.16222,-9.51165 14.508,-16.5066 25.0005,-21.0033 10.6775,-4.49675 28.4979,-6.8284 53.4984,-6.8284l-5.32948 -18.0055 -260.83 0 5.49603 18.0055 11.1771 0c21.1514,0 38.4907,4.49675 51.8329,13.6568 9.3266,6.16222 16.6546,16.5066 21.8176,30.8296 3.68253,10.1778 7.01345,33.8459 10.3444,71.3374l7.99423 84.1799 -189.16 0 -67.0072 -91.508c-15.3223,-20.5037 -25.0005,-35.3263 -28.831,-44.1718 -3.83057,-8.9935 -5.82912,-17.3208 -5.82912,-25.167 0,-10.4924 4.16366,-19.5044 12.6575,-26.999 8.51237,-7.49459 22.5023,-11.4917 42.0067,-12.1579l-5.32948 -18.0055 -196.007 0 5.49603 18.0055c24.0012,0.999278 45.1711,8.9935 63.5097,24.1677 18.3201,15.1557 45.8373,47.4842 82.1629,96.9855l394.493 538.833 17.3393 0zm-96.8375 -162.161l-191.491 -261.829 166.324 0 25.167 261.829z"/></glyph>
   <glyph unicode="C" horiz-adv-x="666"><path d="M702.992 677.992l-48.9831 -214.993 -18.0055 0 -1.99856 53.8315c-1.66546,19.5044 -5.32948,37.0103 -11.3437,52.3326 -5.82912,15.3408 -14.6561,28.6645 -26.4994,39.8416 -11.8248,11.3252 -26.8325,20.1706 -44.8195,26.4994 -18.0055,6.32876 -38.0096,9.49314 -60.0122,9.49314 -58.6613,0 -110.161,-15.9885 -154,-48.0024 -56.1631,-40.6558 -100.168,-98.1698 -131.997,-172.487 -26.1663,-61.3446 -39.342,-123.337 -39.342,-186.347 0,-64.1574 18.8382,-115.491 56.6813,-153.667 37.8245,-38.3242 86.9927,-57.4955 147.653,-57.4955 45.6707,0 86.345,10.1593 122.004,30.3299 35.6779,20.3372 68.8392,51.4998 99.5022,93.6731l23.1685 0c-35.826,-56.9959 -75.6676,-98.836 -119.34,-125.668 -43.6537,-26.8325 -95.9862,-40.3412 -156.831,-40.3412 -54.1646,0 -102,11.3437 -143.822,34.0125 -41.6736,22.6688 -73.3359,54.4977 -95.172,95.4866 -21.8361,41.0074 -32.8281,85.1792 -32.8281,132.515 0,72.3181 19.3194,142.656 58.1617,210.996 38.6573,68.5061 91.8226,122.338 159.329,161.328 67.5068,39.1754 135.661,58.6613 204.334,58.6613 32.162,0 68.3395,-7.66113 108.329,-23.1499 17.5059,-6.51381 30.1634,-9.84474 38.0096,-9.84474 7.82768,0 14.6561,1.66546 20.5037,4.99639 5.82912,3.16438 15.6554,12.5095 29.3307,27.9983l17.987 0z"/></glyph>
   <glyph unicode="2" horiz-adv-x="500"><path d="M458.003 128.666l-46.3369 -128.666 -390.662 0 0 18.3386c114.991,104.832 195.822,190.326 242.658,256.666 46.8365,66.3225 70.3381,127.001 70.3381,181.998 0,41.9882 -12.8241,76.5003 -38.6573,103.499 -25.6666,26.999 -56.3482,40.4893 -92.1742,40.4893 -32.6616,0 -61.8257,-9.3266 -87.6589,-28.1648 -26.0182,-18.8197 -45.0045,-46.4849 -57.514,-82.8291l-17.987 0c8.16077,59.8272 29.1641,105.831 62.825,137.993 33.6609,32.0139 75.8341,48.0024 126.501,48.0024 53.6649,0 98.6695,-17.3208 134.662,-51.8329 36.011,-34.4936 53.998,-75.1679 53.998,-122.153 0,-33.5128 -7.82768,-67.1737 -23.5015,-100.668 -24.0012,-52.6657 -63.1581,-108.514 -117.156,-167.509 -81.1636,-88.3251 -131.165,-141.324 -150.336,-158.83l171.173 0c34.8267,0 59.3275,1.33237 73.3174,3.83057 14.0084,2.66474 26.6844,7.99423 38.0096,16.007 11.3252,7.82768 21.1699,19.1528 29.4972,33.8274l19.0048 0z"/></glyph>
   <glyph unicode="E" horiz-adv-x="610"><path d="M322.008 626.992l-74.8348 -261.996 62.825 0c44.5049,0 76.6669,6.66186 96.5044,20.1706 20.0041,13.5088 37.1583,38.5092 51.4998,74.8348l18.0055 0 -68.0064 -238.994 -20.0041 0c5.82912,20.1521 8.82696,37.3249 8.82696,51.6664 0,13.8233 -2.83129,25.0005 -8.49387,33.4943 -5.66258,8.49387 -13.4903,14.6746 -23.335,18.6717 -9.82624,4.16366 -30.4965,6.16222 -61.9923,6.16222l-65.5082 0 -65.8228 -229.834c-6.18072,-18.3386 -9.3451,-32.162 -9.3451,-41.8402 0,-7.32804 4.16366,-13.8233 12.3429,-19.3194 5.82912,-4.01562 20.0041,-6.01417 42.8209,-6.01417l60.5119 0c63.3246,0 114.158,11.1771 152.334,33.6794 38.1576,22.5023 72.3366,61.6592 102.667,117.323l17.987 0 -62.9915 -184.996 -510.169 0 6.32876 18.0055c25.5001,0.666186 42.5063,2.99783 51.3333,6.8284 13.0091,5.82912 22.5023,13.3237 28.3314,22.5023 8.84546,13.3237 19.1713,41.322 31.1812,83.9949l115.158 400.174c9.17856,32.3285 13.6753,56.9959 13.6753,73.8356 0,12.491 -4.33021,22.1507 -13.0091,29.1641 -8.49387,6.99495 -25.3336,10.4924 -50.5006,10.4924l-10.1593 0 5.82912 18.0055 476.008 0 -41.0074 -159.996 -18.0055 0c2.33165,14.9892 3.33093,27.4987 3.33093,37.658 0,17.1728 -4.16366,31.6623 -12.6575,43.3391 -10.9921,14.9892 -27.1656,26.3328 -48.502,34.1605 -15.6739,5.82912 -51.6664,8.82696 -108.163,8.82696l-84.9942 0z"/></glyph>
   <glyph unicode="B" horiz-adv-x="610"><path d="M144.84 644.997l6.8284 18.0055 237.828 0c40.0081,0 75.6676,-6.16222 106.83,-18.5052 31.3477,-12.491 54.8308,-29.6638 70.3381,-51.8329 15.5073,-22.1692 23.335,-45.5042 23.335,-70.3381 0,-37.9911 -14.6746,-72.4847 -43.8387,-103.166 -29.1641,-30.8296 -76.6669,-53.4984 -142.656,-68.1545 43.6537,-15.0077 76.0007,-34.8452 96.5044,-59.6791 20.6518,-24.8339 30.9961,-52.166 30.9961,-81.8298 0,-32.9947 -8.51237,-64.4905 -25.3336,-94.5058 -17.0062,-29.9969 -38.6758,-53.3319 -65.1752,-69.9865 -26.4994,-16.6731 -58.4948,-28.831 -96.0047,-36.6772 -26.6659,-5.49603 -68.1545,-8.32732 -124.817,-8.32732l-242.51 0 6.32876 18.0055c25.3336,0.666186 42.6729,3.16438 51.6664,7.32804 13.1757,5.49603 22.3357,12.8241 27.8318,22.0026 7.84619,12.3244 18.3386,40.6558 31.3477,84.9942l115.491 401.673c10.0113,33.8274 15.1742,57.6621 15.1742,71.3374 0,12.1579 -4.49675,21.651 -13.5088,28.6645 -8.9935,6.99495 -25.9997,10.4924 -51.0002,10.4924 -5.49603,0 -10.659,0.166546 -15.6554,0.499639zm100.835 -275.005c21.1514,-0.666186 36.3256,-0.999278 45.6522,-0.999278 67.3403,0 117.508,14.6746 150.336,44.0053 32.8466,29.3307 49.3347,66.0079 49.3347,109.995 0,33.5128 -10.1593,59.5126 -30.3299,77.9992 -20.1706,18.6717 -52.4991,28.0168 -96.8375,28.0168 -11.8248,0 -26.8325,-2.01706 -45.0045,-5.84763l-73.1509 -253.169zm-94.1727 -327.153c35.6594,-4.51526 63.6577,-6.84691 83.8283,-6.84691 51.4998,0 97.1706,15.3408 137.012,46.0038 39.8231,30.8296 59.6606,72.5032 59.6606,125.002 0,40.3412 -12.5095,71.6705 -37.3434,94.1727 -24.8339,22.5023 -64.9901,33.8274 -120.487,33.8274 -10.6775,0 -23.8346,-0.666186 -39.1754,-1.99856l-83.4953 -290.161z"/></glyph>
   <glyph unicode="1" horiz-adv-x="500"><path d="M116.009 597.994l161.828 77.9992 16.155 0 0 -558.985c0,-37.1769 1.51742,-60.5119 4.6818,-69.6719 3.16438,-9.01201 9.49314,-16.1735 19.3194,-21.0033 9.84474,-4.82985 29.8488,-7.66113 60.0122,-8.32732l0 -18.0055 -250.005 0 0 18.0055c31.3292,0.666186 51.4998,3.33093 60.4933,8.16077 9.17856,4.6633 15.5073,10.9921 19.1713,19.0048 3.49747,7.99423 5.32948,31.9954 5.32948,71.837l0 358.001c0,48.1504 -1.66546,79.165 -4.82985,92.8219 -2.33165,10.5109 -6.49531,18.1721 -12.491,23.0019 -6.18072,4.82985 -13.3422,7.32804 -21.8361,7.32804 -12.1764,0 -28.9976,-4.99639 -50.5006,-15.1557l-7.32804 14.9892z"/></glyph>
  </font>
  <style type="text/css">
   <![CDATA[
    @font-face { font-family:"Times New Roman";src:url("#FontID0") format(svg)}
    .str0 {stroke:black;stroke-width:33.77}
    .fil0 {fill:none}
    .fil1 {fill:black}
    .fnt0 {font-weight:normal;font-size:540.39px;font-family:'Times New Roman'}
    .fnt1 {font-style:italic;font-weight:normal;font-size:540.39px;font-family:'Times New Roman'}
   ]]>
  </style>
 </defs>
 <g id="图层_x0020_1">
  <metadata id="CorelCorpID_0Corel-Layer"/>
  <path class="fil0 str0" d="M1889 2928c131,78 237,190 307,326"/>
  <path class="fil0 str0" d="M3889 4673c21,-202 156,-373 347,-441"/>
  <line class="fil0 str0" x1="1878" y1="4664" x2="4519" y2= "4664" />
  <line class="fil0 str0" x1="1878" y1="4664" x2="1878" y2= "846" />
  <line class="fil0 str0" x1="1878" y1="846" x2="4519" y2= "4664" />
  <line class="fil0 str0" x1="3995" y1="3906" x2="3129" y2= "2653" />
  <line class="fil0 str0" x1="1876" y1="3520" x2="3129" y2= "2653" />
  <line class="fil0 str0" x1="3035" y1="3170" x2="2823" y2= "2865" />
  <line class="fil0 str0" x1="3340" y1="2959" x2="3035" y2= "3170" />
  <g transform="matrix(1 0 0 1 668.03 1964.97)">
   <text x="3000" y="2500"  class="fil1 fnt0">2</text>
  </g>
  <g transform="matrix(1 0 0 1 -915.32 446.47)">
   <text x="3000" y="2500"  class="fil1 fnt0">1</text>
  </g>
  <g transform="matrix(1 0 0 1 -1558.38 1224.64)">
   <text x="3000" y="2500"  class="fil1 fnt1">E</text>
  </g>
  <g transform="matrix(1 0 0 1 262.73 106.03)">
   <text x="3000" y="2500"  class="fil1 fnt1">D</text>
  </g>
  <g transform="matrix(1 0 0 1 -1590.81 2337.84)">
   <text x="3000" y="2500"  class="fil1 fnt1">C</text>
  </g>
  <g transform="matrix(1 0 0 1 1683.96 2337.84)">
   <text x="3000" y="2500"  class="fil1 fnt1">B</text>
  </g>
  <g transform="matrix(1 0 0 1 -1153.09 -1747.51)">
   <text x="3000" y="2500"  class="fil1 fnt1">A</text>
  </g>
 </g>
</svg>
