{
    "couID": 1,
    "no": 200,
    "pages": [
        {
            "kind": "cover",
            "title": "第二讲：坐标方法的简单应用",
            "description": "1.\n掌握建立适当的平面直角坐标系描述物体位置的方法.\n<br/>2.\n掌握用“方位角十距离”的方法刻画两个物体的相对位置.\n<br/>3.\n掌握平面直角坐标系中图形的平移与图形对应点的坐标的变化规律，感受数与形相互转化的过程，体会平面直角坐标系的作用.\n理解对称点的坐标特性.\n<br/>4.\n会用割补法求解平面直角坐标系内几何图形的面积.\n"
        },
        {
            "kind": "kpt",
            "name": "用坐标表示地理位置",
            "sub": [
                {
                    "kind": "kpt",
                    "name": "利用平面直角坐标系表示地理位置的方法",
                    "sub": [
                        "(1)建立平面直角坐标系，选择一个适当的参照点为原点，确定<i>x</i> 轴、<i>y</i> 轴的正方向.\n<br/>(2)根据具体问题确定单位长度.\n<br/>(3)在坐标平面内画出这些点，写出各点的坐标和各个地点的名称.\n"
                    ]
                }
            ]
        },
        {
		"kind":"video",
		"title":"已知两点确定第三点的坐标",
		"name":"已知两点确定第三点的坐标",
		"url":"http://v.leleketang.com/dat/ms/ma/k/video/19506.mp4"
	},
        {
            "kind": "example",
            "label": "题型一　利用坐标表示地理位置",
            "type": 9,
            "Q": "如图，围棋棋盘放置在某个平面直角坐标系内，白棋②的坐标为<var class=\"latex\">( －7，－4 )</var>，白棋④的坐标为<var class=\"latex\">( －6，－8\n)</var>，那么黑棋的坐标应该是________.\n<br/><img style=\"width:9.19em\" src=\"1.png\">",
            "way": "黑棋在白棋④的右3，上1的位置，得<var class=\"latex\">－6 + 3 =－3</var>，<var class=\"latex\">－8 + 1 =－7</var>.\n",
            "step": "<var class=\"latex\">( －3，－7\n)</var>",
            "notice": "",
            "A": ""
        },
        {
            "kind": "ques",
            "type": 9,
            "Q": "小明一家去人民公园游玩，回到家后，他利用平面直角坐标系画出了公园的景区地图，如图所示（每个小格都是边长为1的正方形）.\n可是她忘记了在图中标出原点和<var class=\"latex\">x</var>轴、<var class=\"latex\">y</var>轴.\n只知道游乐园<var class=\"latex\">D</var>的坐标为<var class=\"latex\">(2－2)</var>，你能帮他求出其他各景点的坐标？<br/><img style=\"width:17.50em\" src=\"2.png\">",
            "way": "由点<var class=\"latex\">D</var>的坐标为<var class=\"latex\">(2－2)</var>可知，点<var class=\"latex\">F( 0，0 )</var>，所以<var class=\"latex\">A( 0，4 )</var>，<var class=\"latex\">B( －3，2\n)</var>，<var class=\"latex\">C( －2，－1 )</var>，<var class=\"latex\">E( 3，3 )</var>",
            "step": "<var class=\"latex\">A( 0，4\n)</var>，<var class=\"latex\">B( －3，2 )</var>，<var class=\"latex\">B( －2，－1 )</var>，<var class=\"latex\">E(\n3，3 )</var>",
            "notice": "",
            "A": ""
        },
        {
            "kind": "ques",
            "type": 9,
            "Q": "（创新题）如图为某废墟示意图，由于雨水冲蚀，残缺不全，依稀可见钟楼坐标为<var class=\"latex\">A( 5，－2 )</var>，街口坐标为<var class=\"latex\">B( 5，2\n)</var>，资料记载阿明先生的祖居的坐标为<var class=\"latex\">( 2，1 )</var>，你能帮助阿明先生找到他家的祖居吗？<br/><img style=\"width:11.44em\" src=\"3.png\">",
            "way": "根据钟楼<i>A</i>的坐标为<var class=\"latex\">( 5，－2 )</var> ，街口<i>B</i>的坐标为<var class=\"latex\">( 5，2 )</var> 先确定<i>x</i> 轴及单位长度，而<i>A</i>，<i>B</i> 两点的横坐标都是5，知<i>AB ∥ y</i>轴且在<i>y</i> 轴右侧，与<i>y</i>轴距离5个单位长度：根据这些条件建立平面直角坐标系，找出坐标为<var class=\"latex\">( 2，1 )</var>的点.\n",
            "step": "根据题意建立平面直角坐标系，阿明家的祖居在点<i>C</i>处（如图）.\n<br/><img style=\"width:12.63em\" src=\"4.png\">",
            "notice": "",
            "A": ""
        },
        {
            "kind": "kpt",
            "name": "用方位角及距离表示平面内点的位置",
            "sub": [
                "定义：确定平面内一个物体的位置、可以选定一个参照物，然后用方位角和距离来表示物体的位置，这种表示物体位置的方法称为方位角距离定位法.\n",
                {
                    "kind": "kpt",
                    "name": "方法",
                    "sub": [
                        "(1)选取某个点为参照点，过参照点画出表示东西和南北方向的直线；<br/>(2)用量角器量出点<i>M</i>相对于参照点的方位角；<br/>(3)用刻度尺量出点 <i>M</i> 与参照点之间的距离，并利用比例尺计算出点<i>M</i> 与参照点之间的实际距离；<br/>(4)用方位角和距离表示点<i>M</i> 的位置.\n"
                    ]
                }
            ]
        },
        {
            "kind": "example",
            "label": "题型一　利用方位角和距离表示平面内点的位置",
            "type": 9,
            "Q": "小明在光明广场(点<i>O</i>)绘制了市内的几所学校相对光明广场的位置简图(图中1<i>cm</i>表示5<i>km</i>).\n东方红中学在广场的正南方向，测得<var class=\"latex\">OA = 1.7cm</var>，<var class=\"latex\">OB = 2cm</var>，<var class=\"latex\">OC = 2cm</var>，<var class=\"latex\">OD = 1.4cm</var>，<i>∠AOC = 123°18'</i>，<i>∠BOA = 68°24'</i>，<i>∠AOD = 88°28'</i>，如何确定每所学校的具体位置？<br/><img style=\"width:21.00em\" src=\"5.png\">",
            "way": "要确定每所学校的位置，应以光明广场为参照物，通过计算确定各学校所在位置的方位角，最后用方位角和各学校到光明广场的距离来表示各学校的位置.\n",
            "step": "由题意得<i>∠BOC = ∠AOC－∠AOB = 123°18'－68°24' = 54°54'</i>；<i>∠NOD = 180°－68°24'－88°28' = 23°8'</i>.\n对光明广场来说，东方国际中学在南偏东<i>68°24'</i>，距离为8.5千米处；东方红中学在正南方向，距离为10千米处；29中学在南偏西<i>54°54'</i>，距离为10千米处；37中在北偏东<i>23°8'</i>，距离为7千米处.\n",
            "notice": "",
            "A": ""
        },
        {
            "kind": "kpt",
            "name": "用坐标表示点的平移",
            "sub": [
                {
                    "kind": "kpt",
                    "name": "点在坐标系中的平移",
                    "sub": [
                        "在平面直角坐标系中，某个点经过平移后，其位置发生了变化，其坐标也发生了变化.\n"
                    ]
                },
                {
                    "kind": "kpt",
                    "name": "点的平移与坐标变化的关系",
                    "sub": [
                        "根据点的平移情况可以得到平移后点的坐标变化情况；反过来，根据点的坐标变化情况，可以得到点的平移情况，即：<img src=\"141.svg\" style=\"width: 18.75em; vertical-align:middle;\"><img src=\"142.svg\" style=\"width: 18.75em;vertical-align:middle;\">"
                    ]
                }
            ]
        },
        {
		"kind":"video",
		"title":"坐标系中点的平移",
		"name":"坐标系中点的平移",
		"url":"http://v.leleketang.com/dat/ms/ma/k/video/18545.mp4"
	},
        {
            "kind": "example",
            "label": "题型一　利用点的平移方式求点的坐标（高频考点）",
            "type": 1,
            "Q": "点<var class=\"latex\">P( －2，－3\n)</var> 向左平移1个单位，再向上平移3个单位，则所得到的点的坐标为（　　）",
            "opts": [
                "<var class=\"latex\">( －3，0 )</var>",
                "<var class=\"latex\">(\n－1，6 )</var>",
                "<var class=\"latex\">( －3，－6 )",
                "<var class=\"latex\">( －1，0 )</var>"
            ],
            "way": "<i>P</i>点的坐标为<var class=\"latex\">P( －2，－3 )</var> ，由平移的性质可知，将点先向左平移1个单位，点的横坐标减小1个单位，再向上平移3个单位，点的纵坐标增大3个单位，所以对应点的坐标是<var class=\"latex\">P( －3，0 )</var>.\n",
            "step": "故本题正确答案为A.\n",
            "notice": "",
            "A": ""
        },
        {
            "kind": "ques",
            "type": 9,
            "Q": "点<i>A</i>在平面直角坐标系<i>xOy</i>中的坐标为<var class=\"latex\">( 2，5\n)</var>，将坐标系<i>xOy</i>中的<i>x</i>轴向上平移2个单位，<i>y</i>轴向左平移3单位，得到平面直角坐标系<i>xOy</i>，在新坐标系<i>xOy</i>中，点<i>A</i>的坐标为________.\n",
            "way": "<i>x</i>轴向上平移2个单位，<i>y</i>轴向左平移3单位，相当于将点<var class=\"latex\">( 2，5 )</var>向下平移2个单位，即横坐标不变纵坐标减2，得到点坐标为<var class=\"latex\">( 2，3 )</var>；再向右平移3个单位，即纵坐标不变横坐标加3，故平移后点的坐标为<var class=\"latex\">( 5，3 )</var>.\n",
            "step": "<var class=\"latex\">( 5，3\n)</var>",
            "notice": "",
            "A": ""
        },
        {
            "kind": "example",
            "label": "题型二　利用点的坐标变化确定点的平移方式",
            "type": 1,
            "Q": "在如图所示的平面直角坐标系内，画在透明胶片上的平行四边形<i>ABCD</i>，点<var class=\"latex\">A</var> 的坐标是<var class=\"latex\">( 0，2\n)</var>.\n现将这张胶片平移，使点<var class=\"latex\">A</var>落在点<i>A'(5，－1)</i> 处，则此平移可以是（　　）.\n<br/><img style=\"width:10.56em\" src=\"6.png\">",
            "opts": [
                "先向右平移5个单位，再向下平移1个单位",
                "先向右平移5个单位，再向下平移3个单位",
                "先向右平移4个单位，再向下平移1个单位",
                "先向右平移4个单位，再向下平移3个单位"
            ],
            "way": "",
            "step": "由平移的性质可知，点<var class=\"latex\">A</var>的坐标为<var class=\"latex\">( 0，2 )</var> ，点<img src=\"111.svg\" style=\"width:1.01em;vertical-align:middle\" tex=\"{A}'\">的坐标为<var class=\"latex\">( 5，－1 )</var> 是由点<var class=\"latex\">A</var>的横坐标加5，纵坐标减3得出，故先向右平移5个单位，再向下平移3个单位.\n<br/>故本题正确答案为B.\n",
            "notice": "",
            "A": ""
        },
        {
            "kind": "ques",
            "type": 1,
            "Q": "在平面直角坐标系中，将一个点的纵坐标减去3，横坐标保持不变，所得的点与原来的点相比（　　）",
            "opts": [
                "向右平移3个单位长度",
                "向左平移3个单位长度 ",
                "向上平移3个单位长度 ",
                "向下平移3个单位长度"
            ],
            "way": "纵坐标减去3，那么就会下降3个单位长度.\n",
            "step": "因此答案为<i>D</i>",
            "notice": "",
            "A": ""
        },
        {
            "kind": "kpt",
            "name": "用点的坐标表示图形的平移",
            "sub": [
                "图形在坐标平面中的平移：是指在坐标系中，在保持坐标轴不动的情况下，图形的整体移动.\n图形在坐标平面中平移变换的实质：(1)图形的位置及表示位置的坐标发生变化；(2)图形的形状、大小、方向不变.\n"
            ]
        },
        {
		"kind":"video",
		"title":"坐标系中图形的平移",
		"name":"坐标系中图形的平移",
		"url":"http://v.leleketang.com/dat/ms/ma/k/video/18546.mp4"
	},
        {
            "kind": "example",
            "type": 9,
            "Q": "已知<i>△A'B'C'</i>是由△<i>ABC</i>经过平移得到的，它们各顶点在平面直角坐标系中的坐标如下表所示：<br/><table border=\"1\" cellpadding=\"0\" cellspacing=\"0\"><tr><td>△<i>ABC</i></td><td><i>A</i>（<i>a</i>，0）</td><td><i>B</i>（3，0）</td><td><i>C</i>（5，5）</td></tr><tr><td>△<i>A'B'C'</td><td><i>A</i>'（4，0）</td><td><i>B</i>'（7，<i>b</i>）</td><td><i>C</i>'（<i>c</i>，7）</td></tr></table><br>（1）观察表中各对应点坐标的变化，并填空：<br/><var class=\"latex\">a = </var>_____，<var class=\"latex\">b = </var>_____，<var class=\"latex\">c = </var>_____；<br>（2）在平面直角坐标系中画出 <i>△ABC</i> 及平移后的 <i>△A'B'C'</i>；<br/><img style=\"width:9.44em\" src=\"8.png\">",
            "way": "该题考查的是平面直角坐标系中的平移.\n<br/>（1）从 <i>A</i> 到 <i>A'</i> 的变化，发现纵坐标增加了2，从<i>B</i>到<i>B'</i>的变化，发现纵坐标增加了4，因为平移，所以3个点遵循同样的变换规律.\n<br/>所以<var class=\"latex\">a = 0</var>，<var class=\"latex\">b = 2</var>，<var class=\"latex\">c = 9</var>.\n",
            "step": "（1）0，2，9<br>（2）<img style=\"width:9.44em\" src=\"9.png\">"
        },
        {
            "kind": "ques",
            "type": 9,
            "Q": "如图，△<i>ABC</i>三个顶点的坐标分别是<var class=\"latex\">A( 4，3 )</var>、<var class=\"latex\">B( 3，1 )</var>、<var class=\"latex\">C( 1，2 )</var><br>\n(1)将△<i>ABC</i>三个顶点的横坐标都减去6，纵坐标不变，分别得到<var class=\"latex\">A<sub>1</sub></var>、<var class=\"latex\">B<sub>1</sub></var>、<var class=\"latex\">C<sub>1</sub></var>，依次连接<var class=\"latex\">A<sub>1</sub></var>，<var class=\"latex\">B<sub>1</sub></var>，<var class=\"latex\">C<sub>1</sub></var>各点，所得<var class=\"latex\">Δ\nA<sub>1</sub>B<sub>1</sub>C<sub>1</sub></var>与△<i>ABC</i>的大小、形状和位置有什么关系？<br>\n(2)将△<i>ABC</i>三个顶点的纵坐标都减去5，横坐标不变，分别得到点<var class=\"latex\">A<sub>2</sub></var>、<var class=\"latex\">B<sub>2</sub></var>、<var class=\"latex\">C<sub>2</sub></var>，依次连接<var class=\"latex\">A<sub>2</sub></var>、<var class=\"latex\">B<sub>2</sub></var>、<var class=\"latex\">C<sub>2</sub></var>各点，所得<var class=\"latex\">Δ A<sub>2</sub>B<sub>2</sub>C<sub>2</sub></var>与△<i>ABC</i>的大小、形状和位置上有什么关系？<br/><img style=\"width:13.94em\" src=\"10.png\">",
            "way": "(1)分别作出点<i>A</i>、<i>B</i>、<i>C</i>横坐标都减去6，纵坐标不变的点，然后顺次连接，可得<var class=\"latex\">Δ A<sub>1</sub>B<sub>1</sub>C<sub>1</sub></var>；<br>\n(2)分别作出点<i>A</i>、<i>B</i>、<i>C</i>纵坐标都减去5，横坐标不变的点，然后顺次连接，可得<var class=\"latex\">Δ A<sub>2</sub>B<sub>2</sub>C<sub>2</sub></var>.\n",
            "step": "(1)所作图形如图所示：<var class=\"latex\">Δ\nA<sub>1</sub>B<sub>1</sub>C<sub>1</sub></var>与△<i>ABC</i>的大小相等、形状不变，是△<i>ABC</i>向左平移6个单位得到的图形；<br>\n(2)所作图形如图所示：<var class=\"latex\">Δ A<sub>2</sub>B<sub>2</sub>C<sub>2</sub></var> 与△<i>ABC</i> 的大小相等、形状不变，是△<i>ABC</i> 向下平移5个单位得到的图形.\n<br/><img style=\"width:14.50em\" src=\"11.png\">",
            "notice": "",
            "A": ""
        },
        {
            "kind": "kpt",
            "name": "用点的坐标表示点的对称",
            "sub": [
                "点<i>P(a，b)</i>关于<var class=\"latex\">x</var>轴的对称点是<i>P'(a，－b)</i>，即横坐标不变，纵坐标变为其相反数.\n<br/>",
                "点<i>P(a，b)</i>关于<var class=\"latex\">y</var>轴的对称点是<i>P'(－a，b)</i>，即纵坐标不变，横坐标变为其相反数.\n<br/>",
                "点<i>P(a，b)</i>关于坐标原点的对称点是<i>P'(－a，－b)</i>，即横坐标变为其相反数，纵坐标也变为其相反数.\n<br/>"
            ]
        },
        {
            "kind": "example",
            "type": 1,
            "Q": "已知点<i>P</i><sub>1</sub>（<i>a</i>－1，4）和<i>P</i><sub>2</sub>（2，<i>b</i>）关于<i>x</i>轴对称，则<span class=\"mathquill-rendered-math\">{{\\left( a + b \\right)}^{2018}}</span>的值为（　　）",
            "opts": [
                "－1",
                "0",
                "1",
                "<span class=\"mathquill-rendered-math\">{{\\left( －3 \\right)}^{2018}}</span>"
            ],
            "way": "两个点关于 <i>x</i> 轴对称，则它们横坐标相等，纵坐标互为相反数，<br/>∵<i>P</i><sub>1</sub>（<i>a</i>－1，4）和<i>P</i><sub>2</sub>（2，<i>b</i>）关于<i>x</i>轴对称，<br/>∴<var class=\"latex\">a－1 = 2</var>且<var class=\"latex\">b =－4</var>，即<var class=\"latex\">a = 3</var>，<var class=\"latex\">b =－4</var>，<br/>∴ （<i>a</i> + <i>b</i>）<sup>2008</sup> = [ 3 +（－4）]<sup>2008</sup> = （－1）<sup>2008</sup>",
            "step": "C.\n"
        },
        {
            "kind": "ques",
            "type": 1,
            "Q": "在平面直角坐标系中，若点<var class=\"latex\">P(\nm，m－n )</var>与点<var class=\"latex\">Q( －2，3 )</var>关于原点对称，则点<var class=\"latex\">P( m，n )</var>在（　　）",
            "way": "根据平面内两点关于原点对称的点，横坐标与纵坐标都互为相反数，<br/>∴<var class=\"latex\">m = 2</var>且<var class=\"latex\">m－n =－3</var>，<br/>∴<var class=\"latex\">m = 2</var>，<var class=\"latex\">n = 5</var>，<br/>∴点<i>M</i>（<i>m</i>，<i>n</i>）在第一象限.\n",
            "step": "A.\n",
            "notice": "",
            "A": "",
            "opts": [
                "第一象限",
                "第二象限",
                "第三象限",
                "第四象限"
            ]
        },
        {
            "kind": "ques",
            "type": 1,
            "Q": "把图中的△<i>ABC</i>经过一定的变换得到△<i>A</i>′<i>B</i>′<i>C</i>′，如果图中△<i>ABC</i>上的点<i>P</i>的坐标为<var class=\"latex\">( a，b\n)</var>，那么它的对应点<i>P</i>′的坐标为（　　）.\n<br/><img style=\"width:13.06em\" src=\"12.png\">",
            "way": "由图可知，△<i>ABC</i>与△<i>A</i>′<i>B</i>′<i>C</i>′关于点<var class=\"latex\">( －1，0 )</var>成中心对称，<br/>设点<i>P</i>′的坐标为<var class=\"latex\">( x，y )</var>，<br/>所以，<span class=\"mathquill-rendered-math\">\\frac{a + x}{2} =－1</span>，<span class=\"mathquill-rendered-math\">\\frac{b + y}{2} = 0</span>，<br/>解得<var class=\"latex\">x =－a－2</var>，<var class=\"latex\">x =－b</var>，<br/>所以<i>P</i>′<var class=\"latex\">( －a－2，－b )</var>.\n",
            "step": "C.\n",
            "notice": "",
            "A": "",
            "opts": [
                "<var class=\"latex\">( a－2，b )</var>",
                "<var class=\"latex\">( a + 2，b )</var>",
                "<var class=\"latex\">( －a－2，－b )</var>",
                "<var class=\"latex\">( a + 2，－b )</var>"
            ]
        },
        {
            "kind": "kpt",
            "name": "坐标系内求几何图形面积",
            "sub": [
                {
                    "kind": "example",
                    "label": "题型一　求三角形的面积",
                    "type": 1,
                    "Q": "已知△<i>ABC</i>的面积为<var class=\"latex\">3</var>，边<i>BC</i>长为2，以<i>B</i>为坐标原点，<i>BC</i>所在的直线为<i>x</i>轴，则点<i>A</i>的纵坐标为（　　）",
                    "way": "由题意可得，<i>BC</i>边上的高为<var class=\"latex\">3</var>，以<i>B</i>为坐标原点，<i>BC</i>所在的直线为<var class=\"latex\">x</var>轴，则点<i>A</i>的纵坐标的绝对值为<var class=\"latex\">3</var>，所以点<i>A</i>的纵坐标为<img src=\"138.svg\" style=\"width:1.23em;vertical-align:middle\" tex=\" ± 3\">，故答案为D选项.\n",
                    "step": "D.\n",
                    "notice": "",
                    "A": "",
                    "opts": [
                        "3",
                        "－3",
                        "6",
                        "±3"
                    ]
                }
            ]
        },
        {
		"kind":"video",
		"title":"坐标系中的面积计算",
		"name":"坐标系中的面积计算",
		"url":"http://v.leleketang.com/dat/ms/ma/k/video/27688.mp4"
	},
        {
            "kind": "ques",
            "type": 9,
            "Q": "在平面直角坐标系中，已知<var class=\"latex\">A(－1， 0 )</var>，<var class=\"latex\">B( 3， 0 )</var>，点<i>C</i>在<i>y</i>轴上，△<i>ABC</i>的面积是4，则点<i>C</i>的坐标是________.\n",
            "way": "该题考查的是点的坐标的求解.\n",
            "step": "设点<i>C</i>的坐标为<var class=\"latex\">( 0， y )</var>，则△<i>ABC</i>的面积<span class=\"mathquill-rendered-math\">{{S}_{\\Delta\nABC}} = \\frac{1}{2} × \\left[ 3－\\left(－1 \\right) \\right]\\cdot \\left| y\n\\right| = 2\\left| y \\right| = 4</span>，解得<var class=\"latex\">y = 2</var>或<var class=\"latex\">－2</var>，故点<i>C</i>的坐标为<var class=\"latex\">( 0，2 )</var>或<var class=\"latex\">( 0，－2 )</var>.\n",
            "notice": "",
            "A": ""
        },
        {
            "kind": "example",
            "type": 9,
            "Q": "在平面直角坐标系中，点<var class=\"latex\">A(－3，2 )</var>， 点<var class=\"latex\">B(\n－3，－1 )</var>， 已知△<i>ABC</i>的面积为9.\n<br>（1）若点<i>C</i>在<i>x</i>轴上，求点<i>C</i>的坐标；<br>（2）设点 <var class=\"latex\">C(\na，b )</var>，那么<i>a</i>、<i>b</i>应分别满足什么条件？<br><img src=\"13.png\" style=\"width: 10em\">",
            "way": "（1）由于点<var class=\"latex\">A(\n－3，2 )</var> ，点 <var class=\"latex\">B(\n－3，－1 )</var>，所以线段<i>AB</i>的长为3.\n又因为△ABC的面积为9，所以若以<i>AB</i>为三角形的底，则三角形的高应该为6.\n设点 <var class=\"latex\">C( a，0 )</var>，由题意可知，<var class=\"latex\">|a－(－3)| = 6</var> ，解得 <var class=\"latex\">a = 3</var> 或 <var class=\"latex\">a =－9</var>.\n所以点<var class=\"latex\">C( 3，0 )</var>或 <var class=\"latex\">C( －9，0 )</var>.\n<br>（2）由数形结合可知，若点 <var class=\"latex\">C( a，b )</var>，那么 <var class=\"latex\">a =－9</var> 或 <var class=\"latex\">a = 3</var>，b为任意数均可.\n",
            "step": "（1）点<var class=\"latex\">C( 3，0 )</var>或 <var class=\"latex\">C( －9，0 )</var>；（2）<var class=\"latex\">a =－9 或 a = 3</var>，<i>b</i>为任意数均可.\n"
        },
        {
            "kind": "ques",
            "type": 9,
            "Q": "如图，平面直角坐标系中，已知三角形<i>ABC</i>三个顶点的坐标分别是<i>A</i>(－3，－1)，<i>B</i>(1，3)，<i>C</i>(2，－3).\n求三角形<i>ABC</i>的面积.\n<br/><img style=\"width:15.38em\" src=\"14.png\">",
            "way": "求不规则图形和位置特殊的规则图形的面积经常采取分割成若干个位置、形状规则的图形.\n也可以将图形补充成规则图形来求出图形的面积.\n<br/><img style=\"width:19.25em\" src=\"15.png\">",
            "step": "<br>如图：<br>\n<var class=\"latex\">S<sub>Δ ABC</sub> = S<sub>ACNM</sub>－S<sub>ΔABM</sub>－S<sub>Δ BCN</sub></var><br/>=<span class=\"mathquill-rendered-math\">\\frac{1}{2}（AM + CN）·MN</span>－<span class=\"mathquill-rendered-math\">\\frac{1}{2}AM·BM</span>－<span class=\"mathquill-rendered-math\">\\frac{1}{2}CN·BN</span><br/>= <span class=\"mathquill-rendered-math\">\\frac{1}{2}</span> ×（4 + 6）× 5－<span class=\"mathquill-rendered-math\">\\frac{1}{2}</span> × 4 × 4－<span class=\"mathquill-rendered-math\">\\frac{1}{2}</span> × 6 × 1<br/> = 14<br>\n故答案为：14.\n",
            "notice": "",
            "A": ""
        }
    ]
}