<?xml version="1.0" encoding="UTF-8"?>
<!DOCTYPE svg PUBLIC "-//W3C//DTD SVG 1.1//EN" "http://www.w3.org/Graphics/SVG/1.1/DTD/svg11.dtd">
<!-- Creator: CorelDRAW X6 -->
<svg xmlns="http://www.w3.org/2000/svg" xml:space="preserve" width="40mm" height="55mm" version="1.1" style="shape-rendering:geometricPrecision; text-rendering:geometricPrecision; image-rendering:optimizeQuality; fill-rule:evenodd; clip-rule:evenodd"
viewBox="0 0 4000 5500"
 xmlns:xlink="http://www.w3.org/1999/xlink">
 <defs>
  <font id="FontID1" horiz-adv-x="677" font-variant="normal" style="fill-rule:nonzero" font-style="italic" font-weight="400">
	<font-face 
		font-family="Meiryo">
	</font-face>
   <missing-glyph><path d="M0 0z"/></missing-glyph>
  </font>
  <font id="FontID0" horiz-adv-x="610" font-variant="normal" style="fill-rule:nonzero" font-style="italic" font-weight="400">
	<font-face 
		font-family="Times New Roman">
	</font-face>
   <missing-glyph><path d="M0 0z"/></missing-glyph>
   <glyph unicode="D" horiz-adv-x="722"><path d="M144.173 644.993l5.8268 18.015 212.17 0c89.8254,0 156.326,-10.335 199.501,-30.8446 43.3357,-20.4918 77.8332,-52.8332 103.671,-96.9886 25.8197,-44.1732 38.6493,-91.5004 38.6493,-141.999 0,-43.3357 -7.32359,-85.5132 -22.1668,-126.515 -14.8254,-40.8232 -31.6643,-73.6636 -50.3207,-98.1646 -18.6743,-24.6614 -47.5053,-51.8354 -86.1725,-81.5039 -38.6671,-29.6507 -80.6664,-51.4968 -125.998,-65.6629 -45.1711,-14.1661 -101.675,-21.3293 -169.334,-21.3293l-280.328 0 6.4861 17.9971c25.6771,0.67712 42.8368,3.0114 51.675,6.84248 13.0078,5.48824 22.6657,12.99 28.8311,22.4875 9.49751,13.6671 20.0107,41.1796 31.6643,82.5018l115.502 401.176c8.99857,31.6643 13.6671,56.5039 13.6671,74.3229 0,12.8475 -4.33001,22.5053 -12.8297,29.33 -8.33927,6.84248 -25,10.335 -49.6614,10.335l-10.8339 0zm173.165 -17.9971l-144.512 -507.163c-10.8339,-33.1611 -16.1618,-53.6707 -16.1618,-61.6714 0,-4.66857 1.67498,-9.15895 5.1675,-13.489 3.33215,-4.33001 8.00071,-7.34141 14.0057,-8.67783 8.49964,-2.65502 22.4875,-3.99145 41.6607,-3.99145 51.9957,0 100.339,5.32787 144.833,15.8232 44.4939,10.6736 81.005,26.5146 109.498,47.345 40.5025,30.3279 72.6657,71.9886 96.846,125.16 24.1625,53.1718 36.3329,113.828 36.3329,181.664 0,76.675 -18.6743,133.678 -56.005,171.009 -37.1703,37.3307 -91.6607,55.9872 -163.168,55.9872 -17.6586,0 -40.5025,-0.659301 -68.4961,-1.99572z"/></glyph>
   <glyph unicode="A" horiz-adv-x="610"><path d="M514.006 677.994l-50 -551.497c-2.67284,-25.8375 -3.83108,-42.6586 -3.83108,-50.8375 0,-12.99 2.33428,-22.9865 7.32359,-29.8289 6.16536,-9.49751 14.5046,-16.5004 25,-20.9907 10.6736,-4.5082 28.5103,-6.84248 53.5103,-6.84248l-5.34569 -17.9971 -260.834 0 5.50606 17.9971 11.1725 0c21.1511,0 38.489,4.5082 51.8175,13.6671 9.33713,6.16536 16.6785,16.5004 21.846,30.8446 3.67071,10.1568 7.00285,33.8204 10.335,71.3293l8.00071 84.1589 -189.166 0 -66.9993 -91.5004c-15.3421,-20.4918 -25,-35.335 -28.8489,-44.1554 -3.83108,-9.01639 -5.8268,-17.3378 -5.8268,-25.1782 0,-10.4954 4.16964,-19.4939 12.6693,-26.9957 8.49964,-7.50178 22.5053,-11.4932 41.9993,-12.1703l-5.32787 -17.9971 -196.009 0 5.50606 17.9971c24.0021,0.997862 45.1711,8.99857 63.489,24.1625 18.3357,15.1818 45.8482,47.5053 82.181,97.0064l394.494 538.828 17.3378 0zm-96.846 -162.153l-191.5 -261.85 166.34 0 25.1604 261.85z"/></glyph>
   <glyph unicode="C" horiz-adv-x="666"><path d="M702.994 677.994l-49.0021 -214.986 -17.9971 0 -1.99572 53.8311c-1.65716,19.4939 -5.32787,36.9922 -11.3329,52.3343 -5.8268,15.3243 -14.665,28.6529 -26.4968,39.8254 -11.8318,11.3329 -26.8354,20.1711 -44.8325,26.4968 -17.9971,6.34355 -38.0078,9.49751 -59.9964,9.49751 -58.6778,0 -110.175,-16.0014 -154.009,-47.9865 -56.1654,-40.6807 -100.16,-98.1646 -132.003,-172.505 -26.1582,-61.3329 -39.3264,-123.343 -39.3264,-186.333 0,-64.1661 18.8346,-115.502 56.6643,-153.671 37.8297,-38.3286 86.9922,-57.5018 147.666,-57.5018 45.67,0 86.3329,10.1746 122.006,30.3457 35.6557,20.3314 68.8346,51.4968 99.5011,93.6565l23.1646 0c-35.8339,-57.0029 -75.6771,-98.8239 -119.334,-125.659 -43.6743,-26.8354 -96.0086,-40.3421 -156.842,-40.3421 -54.1696,0 -101.996,11.3329 -143.835,33.9986 -41.6607,22.6657 -73.325,54.5082 -95.1532,95.5096 -21.846,41.0014 -32.8403,85.1568 -32.8403,132.502 0,72.3272 19.3336,142.659 58.1611,210.994 38.6671,68.4961 91.8389,122.327 159.337,161.333 67.4982,39.1661 135.674,58.66 204.33,58.66 32.181,0 68.3357,-7.66215 108.339,-23.1646 17.4982,-6.50392 30.1675,-9.83607 38.0078,-9.83607 7.82252,0 14.665,1.67498 20.4918,5.00713 5.8268,3.17177 15.6629,12.5089 29.33,27.9936l17.9971 0z"/></glyph>
   <glyph unicode="B" horiz-adv-x="610"><path d="M144.833 644.993l6.84248 18.015 237.83 0c40.0036,0 75.6593,-6.18318 106.825,-18.5139 31.3435,-12.4911 54.8289,-29.6686 70.3314,-51.8354 15.5025,-22.1668 23.3428,-45.4918 23.3428,-70.3314 0,-37.99 -14.665,-72.4875 -43.8346,-103.154 -29.1696,-30.8446 -76.675,-53.5103 -142.676,-68.1753 43.6743,-15.0036 76.0157,-34.8361 96.5075,-59.6579 20.67,-24.8396 31.005,-52.1739 31.005,-81.8425 0,-33.0007 -8.49964,-64.5046 -25.3386,-94.4939 -16.9993,-30.0071 -38.6671,-53.3321 -65.1639,-70.0107 -26.4968,-16.6607 -58.4996,-28.8311 -96.0086,-36.6536 -26.6572,-5.50606 -68.1575,-8.33927 -124.822,-8.33927l-242.498 0 6.32573 17.9971c25.3386,0.67712 42.6586,3.17177 51.675,7.34141 13.1504,5.48824 22.3272,12.8297 27.8332,21.9886 7.82252,12.3307 18.3179,40.6807 31.3257,85.0143l115.502 401.657c9.99644,33.8382 15.1639,57.6622 15.1639,71.3293 0,12.1703 -4.5082,21.6679 -13.5068,28.6707 -8.99857,7.00285 -25.9979,10.4954 -50.9979,10.4954 -5.48824,0 -10.6557,0.17819 -15.6629,0.498931zm100.837 -275c21.1689,-0.659301 36.3329,-0.997862 45.67,-0.997862 67.32,0 117.498,14.665 150.321,44.0128 32.8403,29.33 49.3407,65.9836 49.3407,109.996 0,33.4996 -10.1746,59.4975 -30.3279,77.9936 -20.1711,18.6743 -52.5125,27.9936 -96.846,27.9936 -11.8318,0 -26.8354,-1.99572 -44.9929,-5.8268l-73.1646 -253.172zm-94.1732 -327.156c35.6736,-4.5082 63.6671,-6.84248 83.8382,-6.84248 51.4968,0 97.1668,15.3421 136.992,46.0086 39.8432,30.8268 59.6757,72.5053 59.6757,125 0,40.3243 -12.5089,71.6679 -37.3307,94.1554 -24.8396,22.5053 -65.0036,33.8382 -120.51,33.8382 -10.6557,0 -23.8239,-0.659301 -39.1661,-1.99572l-83.4996 -290.164z"/></glyph>
  </font>
  <style type="text/css">
   <![CDATA[
    @font-face { font-family:"Meiryo";src:url("#FontID1") format(svg)}
    @font-face { font-family:"Times New Roman";src:url("#FontID0") format(svg)}
    .str0 {stroke:black;stroke-width:35.07}
    .fil0 {fill:none}
    .fil1 {fill:black}
    .fnt0 {font-style:italic;font-weight:normal;font-size:561.2px;font-family:'Times New Roman'}
    .fnt1 {font-style:italic;font-weight:normal;font-size:561.2px;font-family:'Times New Roman'}
    .fnt2 {font-style:italic;font-weight:normal;font-size:561.2px;font-family:'Times New Roman'}
    .fnt3 {font-style:italic;font-weight:normal;font-size:561.2px;font-family:'Times New Roman'}
   ]]>
  </style>
 </defs>
 <g id="图层_x0020_1">
  <metadata id="CorelCorpID_0Corel-Layer"/>
  <line class="fil0 str0" x1="821" y1="4584" x2="3127" y2= "4584" />
  <line class="fil0 str0" x1="821" y1="4584" x2="1965" y2= "1042" />
  <line class="fil0 str0" x1="1965" y1="1042" x2="3127" y2= "4584" />
  <line class="fil0 str0" x1="821" y1="4584" x2="2903" y2= "3901" />
  <line class="fil0 str0" x1="2656" y1="4389" x2="3023" y2= "4268" />
  <line class="fil0 str0" x1="2536" y1="4022" x2="2656" y2= "4389" />
  <g transform="matrix(1 0 0 1 1064.27 1122.01)">
   <text x="2000" y="2750"  class="fil1 fnt0">D</text>
  </g>
  <g transform="matrix(1 0 0 1 1271.92 2036.77)">
   <text x="2000" y="2750"  class="fil1 fnt1">C</text>
  </g>
  <g transform="matrix(1 0 0 1 -1601.46 2003.1)">
   <text x="2000" y="2750"  class="fil1 fnt2">B</text>
  </g>
  <g transform="matrix(1 0 0 1 9.21001 -1785.05)">
   <text x="2000" y="2750"  class="fil1 fnt3">A</text>
  </g>
 </g>
</svg>
