<?xml version="1.0" encoding="UTF-8"?>
<!DOCTYPE svg PUBLIC "-//W3C//DTD SVG 1.1//EN" "http://www.w3.org/Graphics/SVG/1.1/DTD/svg11.dtd">
<!-- Creator: CorelDRAW X6 -->
<svg xmlns="http://www.w3.org/2000/svg" xml:space="preserve" width="60mm" height="40mm" version="1.1" style="shape-rendering:geometricPrecision; text-rendering:geometricPrecision; image-rendering:optimizeQuality; fill-rule:evenodd; clip-rule:evenodd"
viewBox="0 0 6000 4000"
 xmlns:xlink="http://www.w3.org/1999/xlink">
 <defs>
  <font id="FontID1" horiz-adv-x="677" font-variant="normal" style="fill-rule:nonzero" font-style="normal,italic" font-weight="400">
	<font-face 
		font-family="Meiryo">
	</font-face>
   <missing-glyph><path d="M0 0z"/></missing-glyph>
  </font>
  <font id="FontID0" horiz-adv-x="610" font-variant="normal" style="fill-rule:nonzero" font-style="normal,italic" font-weight="400">
	<font-face 
		font-family="Times New Roman">
	</font-face>
   <missing-glyph><path d="M0 0z"/></missing-glyph>
   <glyph unicode="D" horiz-adv-x="722"><path d="M144.171 645.001l5.83327 18.002 212.161 0c89.8362,0 156.339,-10.3338 199.509,-30.8275 43.3246,-20.513 77.822,-52.8471 103.666,-97.0022 25.8248,-44.1745 38.6502,-91.4973 38.6502,-142.007 0,-43.3246 -7.32056,-85.4902 -22.1548,-126.497 -14.8343,-40.8329 -31.6774,-73.6692 -50.3361,-98.1612 -18.6587,-24.6658 -47.4967,-51.8427 -86.1663,-81.5112 -38.6696,-29.6685 -80.6614,-51.495 -125.995,-65.6726 -45.1789,-14.1582 -101.677,-21.3243 -169.339,-21.3243l-280.325 0 6.48999 18.002c25.6702,0.656726 42.8417,2.9939 51.6689,6.83767 12.9993,5.48559 22.657,12.9993 28.838,22.5025 9.50321,13.656 19.9915,41.1612 31.658,82.4963l115.506 401.163c9.001,31.658 13.656,56.4977 13.656,74.3259 0,12.8448 -4.32666,22.5025 -12.8255,29.3402 -8.32496,6.83767 -24.9942,10.3338 -49.66,10.3338l-10.836 0zm173.163 -18.002l-144.499 -507.166c-10.836,-33.1646 -16.167,-53.6583 -16.167,-61.6743 0,-4.65503 1.66113,-9.15553 5.15723,-13.5015 3.34157,-4.32666 8.01592,-7.32056 14.0037,-8.65333 8.4988,-2.66553 22.5025,-3.9983 41.6634,-3.9983 52.0165,0 100.344,5.33107 144.847,15.8194 44.5028,10.6814 80.9897,26.5008 109.499,47.3422 40.5045,30.3253 72.6648,72.008 96.8284,125.164 24.1636,53.1755 36.3324,113.826 36.3324,181.662 0,76.6824 -18.6587,133.682 -55.9955,171 -37.1629,37.3368 -91.6712,56.0148 -163.177,56.0148 -17.6543,0 -40.4852,-0.676041 -68.4926,-2.00881z"/></glyph>
   <glyph unicode="A" horiz-adv-x="610"><path d="M514.004 677.992l-50.0077 -551.495c-2.66553,-25.8248 -3.82446,-42.6679 -3.82446,-50.8383 0,-12.9993 2.33717,-22.9854 7.32056,-29.8231 6.18095,-9.50321 14.5059,-16.4954 25.0135,-20.9959 10.6621,-4.5005 28.4903,-6.83767 53.5038,-6.83767l-5.35038 -18.002 -260.817 0 5.48559 18.002 11.1643 0c21.1697,0 38.515,4.5005 51.8427,13.656 9.32937,6.18095 16.6692,16.5147 21.8265,30.8468 3.66994,10.1599 7.01151,33.8214 10.3338,71.332l7.9966 84.1575 -189.156 0 -67.0053 -91.4973c-15.3365,-20.4937 -24.9942,-35.328 -28.838,-44.1551 -3.82446,-9.001 -5.83327,-17.3453 -5.83327,-25.168 0,-10.5076 4.17214,-19.5086 12.6709,-27.003 8.4988,-7.51371 22.5025,-11.512 42.0111,-12.1687l-5.35038 -18.002 -195.994 0 5.50491 18.002c23.9898,1.0044 45.1595,9.001 63.4899,24.1636 18.3497,15.1626 45.8356,47.4967 82.168,97.0022l394.499 538.824 17.3453 0zm-96.8284 -162.153l-191.513 -261.84 166.345 0 25.168 261.84z"/></glyph>
   <glyph unicode="C" horiz-adv-x="667"><path d="M703.005 677.992l-49.0033 -215 -18.002 0 -2.00881 53.8322c-1.66113,19.5086 -5.33107,37.0084 -11.3189,52.3449 -5.83327,15.3365 -14.6797,28.6641 -26.5008,39.8285 -11.8404,11.3382 -26.8292,20.1653 -44.8312,26.5008 -18.002,6.33547 -38.0128,9.50321 -60.0131,9.50321 -58.6611,0 -110.156,-15.9932 -154.002,-47.9989 -56.15,-40.6784 -100.151,-98.1612 -131.983,-172.506 -26.1724,-61.3266 -39.3456,-123.329 -39.3456,-186.336 0,-64.166 18.8326,-115.487 56.6716,-153.654 37.839,-38.3412 86.9968,-57.5021 147.667,-57.5021 45.6617,0 86.3401,10.1599 121.996,30.3253 35.6757,20.3392 68.8403,51.5143 99.4939,93.68l23.1786 0c-35.8302,-56.9999 -75.678,-98.8372 -119.331,-125.666 -43.6723,-26.8485 -95.9978,-40.35 -156.842,-40.35 -54.1606,0 -102.005,11.3382 -143.823,34.0145 -41.6828,22.657 -73.3408,54.4889 -95.1673,95.4956 -21.8458,41.0067 -32.8363,85.1619 -32.8363,132.504 0,72.3364 19.3348,142.664 58.1589,211.002 38.6696,68.4926 91.845,122.325 159.333,161.323 67.5075,39.1718 135.672,58.6611 204.338,58.6611 32.1602,0 68.3381,-7.66824 108.34,-23.1592 17.4998,-6.48999 30.1514,-9.83157 37.9935,-9.83157 7.82276,0 14.6604,1.66113 20.4937,5.0027 5.83327,3.16774 15.6648,12.4971 29.3402,27.9881l18.002 0z"/></glyph>
   <glyph unicode="E" horiz-adv-x="610"><path d="M322.008 626.999l-74.8474 -261.995 62.8332 0c44.5028,0 76.6824,6.66383 96.5,20.1653 20.0108,13.5015 37.1823,38.4957 51.5143,74.8281l17.9827 0 -67.9904 -238.99 -19.9915 0c5.83327,20.1653 8.82717,37.3175 8.82717,51.6495 0,13.8492 -2.83937,25.0135 -8.4988,33.5123 -5.67875,8.4988 -13.5015,14.6604 -23.3331,18.6587 -9.83157,4.17214 -30.4991,6.18095 -62.0026,6.18095l-65.4987 0 -65.8271 -229.835c-6.18095,-18.3497 -9.34868,-32.1796 -9.34868,-41.8373 0,-7.33987 4.17214,-13.8299 12.3426,-19.3348 5.83327,-3.9983 19.9915,-6.00711 42.8224,-6.00711l60.5153 0c63.3354,0 114.154,11.1643 152.322,33.6668 38.1673,22.5025 72.3364,61.6743 102.662,117.341l18.002 0 -62.9877 -185.003 -510.179 0 6.33547 18.002c25.4964,0.656726 42.5133,2.9939 51.3405,6.83767 12.9993,5.83327 22.5025,13.3277 28.3358,22.5025 8.82717,13.3277 19.1609,41.3158 31.1558,83.9836l115.178 400.178c9.15553,32.3341 13.656,56.9999 13.656,73.8237 0,12.4971 -4.32666,22.1741 -12.9993,29.1663 -8.4988,7.01151 -25.3226,10.5076 -50.4906,10.5076l-10.1792 0 5.83327 18.002 476.01 0 -41.0067 -160.009 -18.002 0c2.33717,15.0081 3.34157,27.5052 3.34157,37.6651 0,17.1714 -4.17214,31.6774 -12.6709,43.3439 -10.9905,14.9888 -27.1575,26.327 -48.5011,34.169 -15.6648,5.83327 -51.6689,8.82717 -108.167,8.82717l-84.988 0z"/></glyph>
   <glyph unicode="B" horiz-adv-x="610"><path d="M144.827 645.001l6.83767 18.002 237.831 0c40.0023,0 75.678,-6.16163 106.834,-18.5042 31.3297,-12.4971 54.8366,-29.6685 70.3276,-51.8234 15.5103,-22.1741 23.3331,-45.5072 23.3331,-70.3469 0,-37.9935 -14.6604,-72.4909 -43.8268,-103.164 -29.1663,-30.8275 -76.6631,-53.5038 -142.664,-68.1643 43.6723,-15.0081 76.0063,-34.8258 96.5,-59.6655 20.6675,-24.8397 31.0013,-52.1711 31.0013,-81.8396 0,-32.9908 -8.4988,-64.4943 -25.3419,-94.4912 -16.9976,-29.9969 -38.6502,-53.33 -65.151,-69.9992 -26.5008,-16.6692 -58.5065,-28.838 -96.0172,-36.6801 -26.6553,-5.48559 -68.1643,-8.32496 -124.817,-8.32496l-242.506 0 6.33547 18.002c25.3226,0.656726 42.6679,3.16774 51.6689,7.33987 13.1538,5.48559 22.3287,12.8255 27.8336,22.0003 7.82276,12.3233 18.3304,40.659 31.3297,84.988l115.487 401.665c10.0054,33.8407 15.182,57.676 15.182,71.332 0,12.1687 -4.5005,21.6719 -13.5015,28.6641 -9.001,7.01151 -25.9986,10.5076 -51.0121,10.5076 -5.48559,0 -10.6621,0.173839 -15.6648,0.502202zm100.846 -274.994c21.1504,-0.676041 36.3324,-1.0044 45.6617,-1.0044 67.3337,0 117.496,14.6604 150.332,44.0006 32.8363,29.3209 49.3317,66.0009 49.3317,110.002 0,33.493 -10.1599,59.4916 -30.3253,77.9958 -20.1653,18.6587 -52.4994,28.0074 -96.8477,28.0074 -11.8211,0 -26.8292,-2.00881 -44.9857,-5.83327l-73.167 -253.168zm-94.1822 -327.165c35.6757,-4.5005 63.6831,-6.83767 83.8484,-6.83767 51.495,0 97.1568,15.3365 136.985,45.9901 39.8478,30.8468 59.6848,72.5102 59.6848,125.01 0,40.3307 -12.5164,71.6604 -37.3368,94.1629 -24.8397,22.5025 -64.9965,33.8407 -120.509,33.8407 -10.6621,0 -23.8353,-0.676041 -39.1718,-2.00881l-83.5007 -290.157z"/></glyph>
  </font>
  <style type="text/css">
   <![CDATA[
    @font-face { font-family:"Meiryo";src:url("#FontID1") format(svg)}
    @font-face { font-family:"Times New Roman";src:url("#FontID0") format(svg)}
    .str0 {stroke:black;stroke-width:32.35}
    .fil0 {fill:none}
    .fil1 {fill:black}
    .fnt0 {font-style:italic;font-weight:normal;font-size:517.72px;font-family:'Times New Roman'}
    .fnt1 {font-style:italic;font-weight:normal;font-size:517.72px;font-family:'Times New Roman'}
    .fnt2 {font-style:italic;font-weight:normal;font-size:517.72px;font-family:'Times New Roman'}
    .fnt3 {font-style:italic;font-weight:normal;font-size:517.72px;font-family:'Times New Roman'}
    .fnt4 {font-style:italic;font-weight:normal;font-size:517.72px;font-family:'Times New Roman'}
   ]]>
  </style>
 </defs>
 <g id="图层_x0020_1">
  <metadata id="CorelCorpID_0Corel-Layer"/>
  <line class="fil0 str0" x1="927" y1="3296" x2="5069" y2= "3296" />
  <line class="fil0 str0" x1="927" y1="3296" x2="2239" y2= "915" />
  <line class="fil0 str0" x1="2239" y1="915" x2="5069" y2= "3296" />
  <line class="fil0 str0" x1="2239" y1="915" x2="2239" y2= "3296" />
  <line class="fil0 str0" x1="927" y1="3296" x2="2644" y2= "1256" />
  <line class="fil0 str0" x1="2687" y1="1758" x2="2917" y2= "1485" />
  <line class="fil0 str0" x1="2415" y1="1528" x2="2687" y2= "1758" />
  <g transform="matrix(1 0 0 1 -227.23 -791.61)">
   <text x="3000" y="2000"  class="fil1 fnt0">E</text>
  </g>
  <g transform="matrix(1 0 0 1 -874.38 1765.94)">
   <text x="3000" y="2000"  class="fil1 fnt1">D</text>
  </g>
  <g transform="matrix(1 0 0 1 2164.66 1439.78)">
   <text x="3000" y="2000"  class="fil1 fnt2">C</text>
  </g>
  <g transform="matrix(1 0 0 1 -2458.61 1408.71)">
   <text x="3000" y="2000"  class="fil1 fnt3">B</text>
  </g>
  <g transform="matrix(1 0 0 1 -682.82 -1242.03)">
   <text x="3000" y="2000"  class="fil1 fnt4">A</text>
  </g>
 </g>
</svg>
