<?xml version="1.0" encoding="UTF-8"?>
<!DOCTYPE svg PUBLIC "-//W3C//DTD SVG 1.1//EN" "http://www.w3.org/Graphics/SVG/1.1/DTD/svg11.dtd">
<!-- Creator: CorelDRAW X6 -->
<svg xmlns="http://www.w3.org/2000/svg" xml:space="preserve" width="60mm" height="50mm" version="1.1" style="shape-rendering:geometricPrecision; text-rendering:geometricPrecision; image-rendering:optimizeQuality; fill-rule:evenodd; clip-rule:evenodd"
viewBox="0 0 6000 5000"
 xmlns:xlink="http://www.w3.org/1999/xlink">
 <defs>
  <font id="FontID0" horiz-adv-x="610" font-variant="normal" style="fill-rule:nonzero" font-style="normal,italic" font-weight="400">
	<font-face 
		font-family="Times New Roman">
	</font-face>
   <missing-glyph><path d="M0 0z"/></missing-glyph>
   <glyph unicode="D" horiz-adv-x="722"><path d="M144.171 645.001l5.81997 18.0068 212.175 0c89.8385,0 156.338,-10.351 199.5,-30.838 43.3373,-20.5066 77.8275,-52.8289 103.666,-97.006 25.8383,-44.1576 38.6696,-91.4985 38.6696,-142.003 0,-43.3178 -7.34332,-85.5028 -22.1667,-126.496 -14.8429,-40.8375 -31.6778,-73.6676 -50.3291,-98.1583 -18.6708,-24.6665 -47.4972,-51.8329 -86.1668,-81.4991 -38.6696,-29.6662 -80.6789,-51.5009 -126.008,-65.6797 -45.1731,-14.1593 -101.674,-21.3269 -169.326,-21.3269l-280.335 0 6.50353 18.0068c25.6626,0.664024 42.8295,2.98811 51.6571,6.83554 13.0071,5.48796 22.6745,12.9875 28.846,22.4987 9.49163,13.6515 19.9988,41.1499 31.6583,82.4952l115.501 401.168c9.00338,31.6583 13.6711,56.5006 13.6711,74.3316 0,12.8313 -4.33568,22.4987 -12.8313,29.3342 -8.33936,6.83554 -25.0181,10.3314 -49.6846,10.3314l-10.8197 0zm173.154 -18.0068l-144.484 -507.158c-10.8392,-33.1621 -16.1709,-53.6687 -16.1709,-61.6761 0,-4.6677 1.66006,-9.15962 5.15595,-13.4953 3.33965,-4.33568 8.00734,-7.32379 14.0031,-8.67137 8.4956,-2.65609 22.4987,-4.00367 41.6772,-4.00367 51.9891,0 100.326,5.35125 144.835,15.8389 44.4896,10.6634 80.9913,26.5024 109.486,47.341 40.5054,30.3303 72.6715,71.988 96.8303,125.168 24.1783,53.1609 36.3455,113.821 36.3455,181.669 0,76.6557 -18.6708,133.664 -56.0123,170.986 -37.1658,37.3416 -91.6548,56.0123 -163.155,56.0123 -17.6747,0 -40.5054,-0.664024 -68.5116,-2.0116z"/></glyph>
   <glyph unicode="A" horiz-adv-x="610"><path d="M513.993 678.007l-49.9971 -551.511c-2.65609,-25.8383 -3.8279,-42.6538 -3.8279,-50.8369 0,-12.9875 2.32408,-22.9869 7.32379,-29.8225 6.17151,-9.51116 14.5109,-16.5029 24.9985,-20.9949 10.683,-4.51145 28.514,-6.83554 53.5125,-6.83554l-5.33172 -18.0068 -260.844 0 5.50749 18.0068 11.1712 0c21.1511,0 38.4938,4.49192 51.8329,13.6515 9.33539,6.17151 16.6592,16.5029 21.8347,30.838 3.65213,10.1752 6.99178,33.8457 10.3314,71.3435l7.98781 84.1552 -189.169 0 -66.9883 -91.4985c-15.3311,-20.4871 -24.9985,-35.33 -28.8264,-44.1576 -3.84743,-9.00338 -5.8395,-17.3427 -5.8395,-25.1743 0,-10.5072 4.15991,-19.491 12.6555,-26.9906 8.51513,-7.49956 22.4987,-11.5032 42.0093,-12.1673l-5.33172 -18.0068 -196.004 0 5.50749 18.0068c24.0025,0.996035 45.1536,8.98385 63.4924,24.1587 18.3388,15.1749 45.8372,47.4972 82.1632,97.006l394.508 538.836 17.3232 0zm-96.8303 -162.178l-191.493 -261.821 166.338 0 25.1548 261.821z"/></glyph>
   <glyph unicode="C" horiz-adv-x="666"><path d="M703.006 678.007l-49.001 -215.007 -18.0068 0 -1.99207 53.825c-1.67959,19.5106 -5.33172,37.0096 -11.347,52.3407 -5.81997,15.3311 -14.6671,28.6702 -26.4828,39.8414 -11.8352,11.3275 -26.8344,20.1551 -44.8411,26.5024 -18.0068,6.32775 -38.0056,9.49163 -59.9965,9.49163 -58.6684,0 -110.169,-15.9952 -154.014,-48.005 -56.1491,-40.6617 -100.15,-98.1583 -131.984,-172.49 -26.1703,-61.3441 -39.3336,-123.333 -39.3336,-186.337 0,-64.1759 18.827,-115.501 56.6568,-153.663 37.8298,-38.3376 87.0066,-57.5162 147.667,-57.5162 45.6614,0 86.3426,10.1752 122.005,30.3498 35.662,20.3308 68.8241,51.5009 99.5059,93.6664l23.1627 0c-35.8377,-57.0084 -75.6792,-98.8419 -119.329,-125.676 -43.6693,-26.8344 -96.01,-40.3297 -156.846,-40.3297 -54.157,0 -101.986,11.3275 -143.82,34.0019 -41.6772,22.6549 -73.3355,54.489 -95.1702,95.5022 -21.8347,40.9937 -32.8301,85.1708 -32.8301,132.492 0,72.3395 19.3348,142.667 58.1607,211.003 38.6696,68.4921 91.8306,122.337 159.327,161.338 67.496,39.1579 135.676,58.6684 204.343,58.6684 32.1661,0 68.3358,-7.67533 108.333,-23.1822 17.499,-6.484 30.1545,-9.82364 37.9861,-9.82364 7.8511,0 14.6671,1.66006 20.5066,4.99971 5.8395,3.16388 15.6631,12.4993 29.3342,28.0062l18.0068 0z"/></glyph>
   <glyph unicode="E" horiz-adv-x="610"><path d="M321.993 626.995l-74.8198 -261.996 62.8283 0c44.4896,0 76.6557,6.65977 96.4983,20.1746 19.9988,13.4953 37.1658,38.4938 51.5009,74.8198l18.0068 0 -68.0038 -238.99 -19.9988 0c5.81997,20.1551 8.82761,37.322 8.82761,51.6571 0,13.8468 -2.83187,24.9985 -8.4956,33.5137 -5.66373,8.4956 -13.4953,14.6671 -23.3385,18.6513 -9.82364,4.17944 -30.506,6.17151 -61.9886,6.17151l-65.504 0 -65.836 -229.83c-6.17151,-18.3388 -9.33539,-32.1661 -9.33539,-41.8335 0,-7.32379 4.15991,-13.8273 12.3235,-19.3348 5.8395,-4.00367 20.0184,-5.99574 42.8491,-5.99574l60.4847 0c63.3361,0 114.173,11.1712 152.335,33.6699 38.1814,22.4987 72.3395,61.6565 102.67,117.337l18.0068 0 -63.0041 -185.009 -510.165 0 6.32775 18.0068c25.5063,0.664024 42.4975,2.98811 51.3446,6.83554 12.9875,5.81997 22.4987,13.3195 28.3187,22.4987 8.84714,13.3195 19.1786,41.3257 31.17,83.999l115.169 400.152c9.17915,32.3419 13.6711,57.0084 13.6711,73.8433 0,12.4993 -4.33568,22.1667 -13.0071,29.1584 -8.4956,7.01131 -25.3305,10.5072 -50.4853,10.5072l-10.1752 0 5.8395 18.0068 475.988 0 -40.9937 -160.01 -18.0068 0c2.34361,14.9991 3.33965,27.4984 3.33965,37.6736 0,17.167 -4.15991,31.6583 -12.675,43.3373 -10.9954,14.9991 -27.1664,26.3266 -48.4933,34.1582 -15.6631,5.8395 -51.6571,8.82761 -108.158,8.82761l-85.0145 0z"/></glyph>
   <glyph unicode="B" horiz-adv-x="610"><path d="M144.835 645.001l6.83554 18.0068 237.838 0c39.9977,0 75.6596,-6.17151 106.83,-18.5145 31.3263,-12.4993 54.821,-29.6662 70.3279,-51.8329 15.5069,-22.1667 23.3385,-45.4856 23.3385,-70.3279 0,-38.0056 -14.6671,-72.4958 -43.8451,-103.158 -29.1584,-30.838 -76.6557,-53.5125 -142.667,-68.1796 43.6693,-14.9991 76.0112,-34.8222 96.5178,-59.6645 20.6629,-24.8228 30.9943,-52.1649 30.9943,-81.8311 0,-33.0059 -8.4956,-64.5079 -25.3305,-94.5062 -17.0107,-29.9982 -38.6696,-53.3172 -65.172,-69.9959 -26.5024,-16.6592 -58.4927,-28.8264 -96.01,-36.658 -26.6586,-5.50749 -68.1601,-8.33936 -124.817,-8.33936l-242.505 0 6.32775 18.0068c25.3305,0.664024 42.6733,3.16388 51.6767,7.32379 13.1633,5.50749 22.3229,12.8313 27.8304,22.0104 7.83157,12.3235 18.3388,40.6617 31.3263,84.995l115.501 401.656c9.99941,33.8457 15.1749,57.6724 15.1749,71.3435 0,12.1673 -4.51145,21.6589 -13.5148,28.6702 -8.98385,6.99178 -25.9946,10.4877 -50.9931,10.4877 -5.50749,0 -10.6634,0.175771 -15.6631,0.507783zm100.834 -275.003c21.1706,-0.664024 36.326,-0.996035 45.6614,-0.996035 67.3398,0 117.493,14.6671 150.343,44.0013 32.8301,29.3342 49.333,65.9922 49.333,109.994 0,33.4941 -10.1752,59.5082 -30.3303,78.0032 -20.1746,18.6708 -52.5165,28.0062 -96.8498,28.0062 -11.8352,0 -26.8344,-2.0116 -44.9974,-5.8395l-73.1598 -253.169zm-94.1742 -327.168c35.662,-4.49192 63.6681,-6.83554 83.8427,-6.83554 51.5009,0 97.1623,15.3311 137.004,46.0129 39.8219,30.8185 59.6645,72.4958 59.6645,124.993 0,40.3297 -12.4993,71.6755 -37.3416,94.1742 -24.8228,22.4987 -64.9962,33.8261 -120.501,33.8261 -10.6634,0 -23.8267,-0.664024 -39.1579,-1.99207l-83.5107 -290.178z"/></glyph>
  </font>
  <style type="text/css">
   <![CDATA[
    @font-face { font-family:"Times New Roman";src:url("#FontID0") format(svg)}
    .str0 {stroke:black;stroke-width:32}
    .fil0 {fill:none}
    .fil1 {fill:black}
    .fnt0 {font-style:italic;font-weight:normal;font-size:512.03px;font-family:'Times New Roman'}
   ]]>
  </style>
 </defs>
 <g id="图层_x0020_1">
  <metadata id="CorelCorpID_0Corel-Layer"/>
  <line class="fil0 str0" x1="972" y1="3758" x2="4720" y2= "3758" />
  <line class="fil0 str0" x1="972" y1="3758" x2="972" y2= "760" />
  <line class="fil0 str0" x1="972" y1="760" x2="4720" y2= "3758" />
  <line class="fil0 str0" x1="4720" y1="3758" x2="3894" y2= "4419" />
  <line class="fil0 str0" x1="4169" y1="4199" x2="3949" y2= "3924" />
  <line class="fil0 str0" x1="3949" y1="3924" x2="3674" y2= "4143" />
  <line class="fil0 str0" x1="3894" y1="4419" x2="972" y2= "760" />
  <g transform="matrix(1 0 0 1 58.75 1691.05)">
   <text x="3000" y="2500"  class="fil1 fnt0">E</text>
  </g>
  <g transform="matrix(1 0 0 1 1815.04 1465.75)">
   <text x="3000" y="2500"  class="fil1 fnt0">D</text>
  </g>
  <g transform="matrix(1 0 0 1 632.23 2361.81)">
   <text x="3000" y="2500"  class="fil1 fnt0">C</text>
  </g>
  <g transform="matrix(1 0 0 1 -2373.42 1404.3)">
   <text x="3000" y="2500"  class="fil1 fnt0">B</text>
  </g>
  <g transform="matrix(1 0 0 1 -2055.96 -1795.92)">
   <text x="3000" y="2500"  class="fil1 fnt0">A</text>
  </g>
 </g>
</svg>
