<?xml version="1.0" encoding="UTF-8"?>
<!DOCTYPE svg PUBLIC "-//W3C//DTD SVG 1.1//EN" "http://www.w3.org/Graphics/SVG/1.1/DTD/svg11.dtd">
<!-- Creator: CorelDRAW X6 -->
<svg xmlns="http://www.w3.org/2000/svg" xml:space="preserve" width="60mm" height="50mm" version="1.1" style="shape-rendering:geometricPrecision; text-rendering:geometricPrecision; image-rendering:optimizeQuality; fill-rule:evenodd; clip-rule:evenodd"
viewBox="0 0 6000 5000"
 xmlns:xlink="http://www.w3.org/1999/xlink">
 <defs>
  <font id="FontID0" horiz-adv-x="722" font-variant="normal" style="fill-rule:nonzero" font-style="normal,italic" font-weight="400">
	<font-face 
		font-family="Times New Roman">
	</font-face>
   <missing-glyph><path d="M0 0z"/></missing-glyph>
   <glyph unicode="D" horiz-adv-x="722"><path d="M144.171 645l5.8213 17.9967 212.171 0c89.8453,0 156.346,-10.3205 199.503,-30.8233 43.3341,-20.5028 77.8278,-52.8455 103.659,-97.0084 25.8505,-44.1629 38.6771,-91.5029 38.6771,-142 0,-43.3341 -7.34075,-85.504 -22.1604,-126.49 -14.8394,-40.8477 -31.6718,-73.6838 -50.3394,-98.1727 -18.6676,-24.6665 -47.4978,-51.8391 -86.1749,-81.4981 -38.6574,-29.6787 -80.6694,-51.5037 -125.997,-65.6721 -45.1693,-14.1684 -101.665,-21.3316 -169.331,-21.3316l-280.33 0 6.49223 17.9967c25.6729,0.670929 42.8408,2.99945 51.6615,6.82769 13.0042,5.50556 22.6735,13.0042 28.8499,22.5156 9.49167,13.6554 19.9897,41.1635 31.6521,82.4848l115.498 401.176c9.01808,31.6718 13.6751,56.4962 13.6751,74.335 0,12.8266 -4.34131,22.4959 -12.8266,29.3235 -8.34715,6.84742 -25.002,10.3402 -49.6685,10.3402l-10.8335 0zm173.159 -17.9967l-144.487 -507.163c-10.8335,-33.1715 -16.1812,-53.6743 -16.1812,-61.6663 0,-4.67677 1.67732,-9.17594 5.1701,-13.4975 3.33491,-4.34131 7.99195,-7.34075 14.0106,-8.68261 8.48528,-2.66398 22.4959,-3.98611 41.6568,-3.98611 51.997,0 100.343,5.32797 144.842,15.826 44.4984,10.6757 80.9851,26.5017 109.5,47.34 40.4925,30.3299 72.6577,71.9867 96.8308,125.168 24.1534,53.1613 36.3288,113.821 36.3288,181.664 0,76.6635 -18.6676,133.653 -56.0028,170.988 -37.1576,37.3352 -91.6607,56.0028 -163.174,56.0028 -17.6612,0 -40.4925,-0.670929 -68.494,-1.99305z"/></glyph>
   <glyph unicode="A" horiz-adv-x="610"><path d="M513.991 677.994l-49.9842 -551.484c-2.66398,-25.8505 -3.84798,-42.6829 -3.84798,-50.8525 0,-12.9845 2.34825,-22.9892 7.34075,-29.8169 6.17649,-9.51141 14.5039,-16.5167 25.002,-21.0159 10.6559,-4.49917 28.4948,-6.82769 53.4967,-6.82769l-5.32797 -17.9967 -260.834 0 5.50556 17.9967 11.1493 0c21.1737,0 38.4995,4.49917 51.8391,13.6751 9.33381,6.15676 16.6746,16.497 21.8447,30.8233 3.65064,10.1626 6.98556,33.8425 10.3205,71.3355l8.01168 84.1621 -189.182 0 -66.9942 -91.4831c-15.3327,-20.5028 -25.002,-35.3422 -28.8302,-44.1827 -3.82824,-8.99834 -5.84103,-17.3258 -5.84103,-25.1598 0,-10.4981 4.18344,-19.4964 12.6687,-26.995 8.50501,-7.49862 22.4959,-11.5045 42.012,-12.1754l-5.3477 -17.9967 -195.99 0 5.50556 17.9967c23.9956,1.00639 45.1496,8.99834 63.5015,24.1732 18.3321,15.1551 45.8205,47.4978 82.1493,96.9887l394.506 538.835 17.3258 0zm-96.8308 -162.167l-191.491 -261.82 166.331 0 25.1598 261.82z"/></glyph>
   <glyph unicode="F" horiz-adv-x="610"><path d="M322.5 628.009l-75.4993 -263.004 87.0037 0c39.1704,0 68.494,5.99889 87.9904,17.9967 19.3385,11.9978 39.5059,37.6707 60.0087,76.999l17.9967 0 -69.007 -241.002 -19.9897 0c4.83464,19.4964 7.32102,35.6579 7.32102,48.3266 0,20.0095 -6.49223,35.3422 -19.4964,46.3336 -13.0042,10.8335 -37.3352,16.3391 -72.8353,16.3391l-88.9968 0 -60.502 -210.001c-10.3205,-32.323 -15.6682,-53.8322 -15.6682,-64.6657 0,-10.8335 4.49917,-19.3385 13.5172,-25.3374 8.99834,-5.8213 30.8233,-9.82714 65.6524,-11.9978l-5.8213 -17.9967 -258.84 0 6.33436 17.9967c25.4953,0.670929 42.3277,2.99945 50.8327,6.82769 13.0042,5.50556 22.6735,13.0042 28.8302,22.5156 8.84048,13.3199 19.1609,40.828 31.1785,82.4848l114.985 399.676c9.51141,32.323 14.1684,57.6604 14.1684,75.8347 0,8.50501 -2.17065,15.826 -6.33436,21.8249 -4.32157,5.99889 -10.4981,10.4981 -18.8255,13.4975 -8.32741,2.84158 -24.8441,4.34131 -49.5106,4.34131l5.84103 17.9967 516.161 0 -48.9976 -167.002 -17.9967 0c3.67038,20.1673 5.32797,36.6643 5.32797,49.6685 0,21.5092 -5.8213,38.3416 -17.8191,50.8327 -11.8399,12.5109 -27.1726,21.5092 -45.8402,26.6793 -13.0042,3.15731 -42.3277,4.83464 -87.6746,4.83464l-133.495 0z"/></glyph>
   <glyph unicode="C" horiz-adv-x="667"><path d="M702.996 677.994l-48.9976 -214.993 -17.9967 0 -1.99305 53.8322c-1.67732,19.4964 -5.3477,36.9998 -11.3466,52.3325 -5.8213,15.3327 -14.6618,28.6723 -26.5017,39.8413 -11.8202,11.3269 -26.8174,20.1673 -44.8338,26.5017 -17.9967,6.33436 -37.9864,9.49167 -59.9889,9.49167 -58.6668,0 -110.17,-16.0036 -153.998,-47.9912 -56.1804,-40.6701 -100.166,-98.1727 -132.015,-172.508 -26.1662,-61.3308 -39.3283,-123.333 -39.3283,-186.341 0,-64.1527 18.8452,-115.498 56.6738,-153.662 37.8286,-38.3219 87.0037,-57.5026 147.664,-57.5026 45.6626,0 86.3328,10.1626 121.991,30.3299 35.6776,20.3449 68.8492,51.5037 99.5146,93.6735l23.1668 0c-35.8355,-56.9895 -75.6768,-98.8239 -119.346,-125.661 -43.6499,-26.8372 -95.9823,-40.3347 -156.82,-40.3347 -54.1677,0 -102.001,11.3269 -143.835,34.0003 -41.6765,22.6735 -73.3286,54.5031 -95.1733,95.489 -21.8249,41.0056 -32.8361,85.1685 -32.8361,132.508 0,72.3419 19.3385,142.671 58.1735,211.007 38.6574,68.494 91.8383,122.326 159.326,161.319 67.5073,39.1704 135.666,58.6668 204.337,58.6668 32.1651,0 68.3361,-7.65648 108.335,-23.1668 17.5034,-6.49223 30.1721,-9.82714 38.0062,-9.82714 7.83408,0 14.6618,1.65759 20.5028,4.9925 5.8213,3.17705 15.6484,12.5109 29.3235,28.0014l17.9967 0z"/></glyph>
   <glyph unicode="2" horiz-adv-x="500"><path d="M458.008 128.661l-46.3336 -128.661 -390.678 0 0 18.3321c115.005,104.843 195.832,190.327 242.679,256.67 46.8269,66.3233 70.3291,127.003 70.3291,181.999 0,41.9923 -12.8463,76.5056 -38.6771,103.501 -25.6532,26.995 -56.3186,40.4925 -92.1541,40.4925 -32.6782,0 -61.8439,-9.33381 -87.6746,-28.1593 -25.9886,-18.8255 -44.9917,-46.5112 -57.5026,-82.84l-17.9967 0c8.16955,59.8311 29.1657,105.829 62.8305,138.014 33.6649,31.9875 75.8347,47.9912 126.51,47.9912 53.6546,0 98.666,-17.3258 134.659,-51.8391 35.9934,-34.4936 54.0098,-75.1638 54.0098,-122.168 0,-33.4873 -7.83408,-67.1521 -23.5022,-100.659 -24.0153,-52.6679 -63.166,-108.493 -117.176,-167.495 -81.1627,-88.3456 -131.167,-141.329 -150.328,-158.833l171.166 0c34.8291,0 59.3378,1.32212 73.3286,3.82824 14.0106,2.66398 26.6596,7.99195 38.0062,16.0036 11.3269,7.83408 21.154,19.1609 29.5011,33.8227l19.0031 0z"/></glyph>
   <glyph unicode="H" horiz-adv-x="722"><path d="M245.165 366.998l308.667 0 47.0045 164.003c9.15621,32.0073 13.6554,56.6738 13.6554,74.335 0,8.50501 -1.99305,15.826 -5.99889,21.8249 -4.16371,5.99889 -10.3205,10.4981 -18.8255,13.4975 -8.50501,2.84158 -25.002,4.34131 -49.8263,4.34131l4.83464 17.9967 265.155 0 -5.8213 -17.9967c-22.5156,0.335465 -39.348,-1.99305 -50.3394,-6.82769 -15.6682,-6.84742 -27.1726,-15.6682 -34.6712,-26.5017 -10.6559,-15.5103 -21.6671,-42.5053 -32.6585,-81.0048l-118.34 -410.332c-9.66927,-30.3299 -14.5039,-51.997 -14.5039,-65.0012 0,-11.169 4.16371,-19.8319 12.8463,-25.4953 8.66288,-5.84103 29.1657,-9.82714 61.8241,-11.8399l-5.32797 -17.9967 -254.341 0 6.82769 17.9967c25.3374,0.670929 42.3475,2.99945 50.8327,6.82769 13.0042,5.84103 22.338,13.3396 28.3369,22.5156 8.34715,12.6687 18.8452,40.3347 31.1785,82.9979l58.3314 202.66 -308.667 0 -61.3308 -212.665c-9.33381,-29.659 -14.1684,-51.3261 -14.1684,-65.0012 0,-11.169 4.32157,-19.8319 12.8266,-25.4953 8.32741,-5.84103 28.8302,-9.82714 61.5084,-11.8399l-4.00584 -17.9967 -256.176 0 6.33436 17.9967c25.6729,0.670929 42.8408,2.99945 51.3458,6.82769 13.0042,5.84103 22.4959,13.3396 28.8302,22.5156 8.32741,13.3199 18.8255,40.9859 31.1587,82.9979l115.163 400.663c9.51141,32.6585 14.1684,57.5026 14.1684,74.335 0,8.50501 -1.99305,15.826 -5.99889,21.8249 -4.16371,5.99889 -10.4981,10.4981 -19.1609,13.4975 -8.50501,2.84158 -25.3374,4.34131 -50.4973,4.34131l5.84103 17.9967 260.834 0 -5.50556 -17.9967c-21.6671,0.335465 -37.8286,-1.99305 -48.1688,-6.82769 -15.3327,-6.51196 -26.6596,-15.1748 -33.8425,-26.0084 -9.66927,-14.3263 -20.4831,-41.4989 -32.1651,-81.3205l-47.1624 -163.845z"/></glyph>
   <glyph unicode="E" horiz-adv-x="610"><path d="M322.006 627.003l-74.8481 -261.998 62.8503 0c44.4984,0 76.6635,6.66982 96.4954,20.1673 19.9897,13.4975 37.1576,38.4995 51.5037,74.8283l17.9967 0 -68.0006 -239.009 -20.0095 0c5.84103,20.1673 8.84048,37.3352 8.84048,51.6813 0,13.833 -2.84158,25.002 -8.50501,33.4873 -5.66343,8.50501 -13.4975,14.6815 -23.3247,18.6676 -9.84687,4.16371 -30.5075,6.17649 -62.0017,6.17649l-65.4945 0 -65.8497 -229.833c-6.15676,-18.3321 -9.33381,-32.1651 -9.33381,-41.8344 0,-7.34075 4.18344,-13.833 12.3333,-19.3385 5.84103,-4.00584 20.0095,-5.99889 42.8408,-5.99889l60.502 0c63.3239,0 114.157,11.169 152.34,33.6649 38.164,22.4959 72.3222,61.6663 102.652,117.334l17.9967 0 -62.9884 -184.999 -510.163 0 6.33436 17.9967c25.4953,0.670929 42.4856,2.99945 51.3261,6.82769 13.0042,5.84103 22.4959,13.3396 28.3369,22.5156 8.82074,13.3199 19.1609,41.3213 31.1587,83.9845l115.163 400.17c9.17594,32.3427 13.6751,57.0092 13.6751,73.8417 0,12.4911 -4.34131,22.1604 -13.0042,29.1657 -8.50501,7.00529 -25.3374,10.4981 -50.4973,10.4981l-10.1626 0 5.8213 17.9967 476.004 0 -40.9859 -159.997 -18.0164 0c2.34825,14.9972 3.33491,27.5081 3.33491,37.6707 0,17.1679 -4.16371,31.6718 -12.6687,43.3341 -10.9914,14.9972 -27.1529,26.3241 -48.4845,34.1582 -15.6682,5.84103 -51.6813,8.84048 -108.177,8.84048l-84.9909 0z"/></glyph>
   <glyph unicode="B" horiz-adv-x="610"><path d="M144.842 645l6.82769 17.9967 237.825 0c39.9992,0 75.6768,-6.15676 106.836,-18.49 31.3363,-12.5109 54.8386,-29.6787 70.3291,-51.8391 15.5103,-22.1604 23.3444,-45.5048 23.3444,-70.3291 0,-38.0062 -14.6618,-72.4998 -43.8275,-103.165 -29.1854,-30.843 -76.6832,-53.4967 -142.671,-68.1782 43.6696,-14.9972 75.9926,-34.8291 96.4954,-59.6535 20.6607,-24.8441 31.0009,-52.1746 31.0009,-81.8336 0,-33.0137 -8.50501,-64.5079 -25.3374,-94.5023 -16.9903,-30.0142 -38.6574,-53.3389 -65.159,-70.0134 -26.5017,-16.6548 -58.509,-28.8302 -96.0021,-36.6643 -26.6596,-5.48583 -68.1782,-8.32741 -124.832,-8.32741l-242.501 0 6.33436 17.9967c25.3374,0.670929 42.6632,3.17705 51.6615,7.34075 13.162,5.50556 22.338,12.8266 27.8436,22.0025 7.83408,12.3333 18.3321,40.6504 31.3166,84.9909l115.518 401.669c9.985,33.8425 15.1551,57.6604 15.1551,71.3355 0,12.1557 -4.49917,21.6671 -13.4975,28.6723 -8.99834,6.98556 -26.0084,10.4981 -51.0103,10.4981 -5.48583,0 -10.6559,0.157866 -15.6484,0.49333zm100.817 -275.002c21.1737,-0.670929 36.3486,-1.00639 45.6824,-1.00639 67.3297,0 117.492,14.6815 150.328,44.0051 32.8361,29.3433 49.333,66.0076 49.333,110.013 0,33.4873 -10.1626,59.4956 -30.3299,77.9856 -20.1673,18.6676 -52.5101,28.0014 -96.8308,28.0014 -11.8399,0 -26.8372,-1.99305 -45.0114,-5.8213l-73.1707 -253.177zm-94.1669 -327.157c35.6776,-4.49917 63.6791,-6.84742 83.8464,-6.84742 51.5037,0 97.1663,15.3327 136.988,45.9981 39.8413,30.843 59.6732,72.4998 59.6732,125.01 0,40.3347 -12.4911,71.671 -37.3352,94.1669 -24.8244,22.4959 -65.0012,33.8227 -120.491,33.8227 -10.6757,0 -23.8377,-0.651196 -39.1704,-1.99305l-83.5109 -290.157z"/></glyph>
   <glyph unicode="1" horiz-adv-x="500"><path d="M115.992 597.995l161.832 78.0054 16.1812 0 0 -559.002c0,-37.1576 1.49972,-60.502 4.65704,-69.6582 3.17705,-8.99834 9.51141,-16.1812 19.3385,-21.0159 9.82714,-4.8149 29.8366,-7.65648 60.0087,-8.32741l0 -17.9967 -250 0 0 17.9967c31.3166,0.670929 51.4839,3.33491 60.4823,8.16955 9.17594,4.67677 15.5103,10.9914 19.1807,19.0031 3.49278,7.99195 5.32797,31.9875 5.32797,71.8289l0 358c0,48.1688 -1.65759,79.1696 -4.83464,92.8447 -2.32852,10.4981 -6.49223,18.1546 -12.4911,22.9892 -6.17649,4.83464 -13.3396,7.34075 -21.8447,7.34075 -12.1557,0 -28.9881,-5.01223 -50.4973,-15.1748l-7.34075 14.9972z"/></glyph>
   <glyph unicode="G" horiz-adv-x="722"><path d="M718.999 677.994l-48.9976 -208.994 -17.9967 0c2.99945,24.5086 4.32157,42.5053 4.32157,54.3255 0,31.8494 -14.1684,60.1665 -42.6632,84.8331 -28.3369,24.5086 -67.4876,36.8419 -117.492,36.8419 -102.336,0 -185.847,-47.4978 -250.671,-142.493 -51.6615,-75.0059 -77.4923,-159.168 -77.4923,-252.171 0,-61.8439 15.9839,-115.163 48.149,-159.997 32.1849,-44.8338 81.8336,-67.3297 148.67,-67.3297 16.6746,0 32.3427,1.32212 47.0045,4.16371 14.8394,2.82185 36.9998,9.15621 66.8364,19.0031l48.6621 169.824c6.82769,23.6601 10.1626,42.5053 10.1626,56.6738 0,11.8202 -4.16371,20.8185 -12.6687,26.995 -13.6554,9.49167 -35.8158,14.3263 -66.4812,14.3263l-13.6751 0 5.50556 19.0031 274.489 0 -4.9925 -19.0031c-25.002,-0.335465 -43.1763,-3.33491 -54.661,-8.82074 -11.3466,-5.50556 -21.1737,-15.017 -29.1854,-28.3369 -5.66343,-8.84048 -14.4842,-34.5134 -26.995,-76.8411l-48.82 -167.831c-44.5181,-18.8255 -80.5115,-31.4942 -108,-37.8286 -27.3502,-6.17649 -56.1804,-9.33381 -86.3328,-9.33381 -69.8358,0 -126.352,13.162 -169.686,39.3283 -43.3144,26.1662 -75.3217,60.8375 -95.9823,103.994 -20.6804,43.1763 -31.0009,86.017 -31.0009,128.68 0,57.325 11.9978,111.828 36.1512,163.332 24.0153,51.6615 54.0098,95.3311 90.0032,130.989 35.8355,35.6776 75.0059,63.6791 117.334,84.1819 58.1735,28.3172 119.346,42.4856 183.341,42.4856 47.1624,0 90.0032,-7.83408 128.503,-23.6601 15.4906,-6.17649 26.8372,-9.33381 34.0003,-9.33381 7.99195,0 14.8196,1.83519 20.5028,5.66343 5.66343,3.82824 13.162,12.8463 22.1604,27.3305l17.9967 0z"/></glyph>
  </font>
  <style type="text/css">
   <![CDATA[
    @font-face { font-family:"Times New Roman";src:url("#FontID0") format(svg)}
    .str0 {stroke:black;stroke-width:31.67}
    .fil0 {fill:none}
    .fil1 {fill:black}
    .fnt0 {font-weight:normal;font-size:506.76px;font-family:'Times New Roman'}
    .fnt1 {font-style:italic;font-weight:normal;font-size:506.76px;font-family:'Times New Roman'}
   ]]>
  </style>
 </defs>
 <g id="图层_x0020_1">
  <metadata id="CorelCorpID_0Corel-Layer"/>
  <path class="fil0 str0" d="M4336 1502c-114,0 -226,-29 -325,-84"/>
  <path class="fil0 str0" d="M3988 1375c-114,0 -226,-29 -325,-84"/>
  <line class="fil0 str0" x1="1074" y1="4158" x2="5064" y2= "4158" />
  <line class="fil0 str0" x1="1074" y1="4158" x2="4146" y2= "769" />
  <line class="fil0 str0" x1="5064" y1="4158" x2="4146" y2= "769" />
  <line class="fil0 str0" x1="4146" y1="769" x2="3332" y2= "4158" />
  <line class="fil0 str0" x1="1074" y1="4158" x2="4480" y2= "1999" />
  <line class="fil0 str0" x1="5064" y1="4158" x2="3426" y2= "3764" />
  <line class="fil0 str0" x1="5064" y1="4158" x2="1795" y2= "3362" />
  <line class="fil0 str0" x1="3877" y1="3471" x2="3785" y2= "3808" />
  <line class="fil0 str0" x1="3541" y1="3378" x2="3877" y2= "3471" />
  <g transform="matrix(1 0 0 1 1049.59 -574.78)">
   <text x="3000" y="2500"  class="fil1 fnt0">2</text>
  </g>
  <g transform="matrix(1 0 0 1 608.71 -701.47)">
   <text x="3000" y="2500"  class="fil1 fnt0">1</text>
  </g>
  <g transform="matrix(1 0 0 1 71.5402 1133.02)">
   <text x="3000" y="2500"  class="fil1 fnt1">H</text>
  </g>
  <g transform="matrix(1 0 0 1 1622.24 -387.27)">
   <text x="3000" y="2500"  class="fil1 fnt1">E</text>
  </g>
  <g transform="matrix(1 0 0 1 765.81 342.47)">
   <text x="3000" y="2500"  class="fil1 fnt1">G</text>
  </g>
  <g transform="matrix(1 0 0 1 198.23 2146.54)">
   <text x="3000" y="2500"  class="fil1 fnt1">D</text>
  </g>
  <g transform="matrix(1 0 0 1 -1575.44 945.51)">
   <text x="3000" y="2500"  class="fil1 fnt1">F</text>
  </g>
  <g transform="matrix(1 0 0 1 2189.81 1832.35)">
   <text x="3000" y="2500"  class="fil1 fnt1">C</text>
  </g>
  <g transform="matrix(1 0 0 1 -2335.59 1832.35)">
   <text x="3000" y="2500"  class="fil1 fnt1">B</text>
  </g>
  <g transform="matrix(1 0 0 1 1211.76 -1872.09)">
   <text x="3000" y="2500"  class="fil1 fnt1">A</text>
  </g>
 </g>
</svg>
