<?xml version='1.0' encoding='UTF-8'?>
<!-- This file was generated by dvisvgm 1.15.1 -->
<svg height='10.8388pt' version='1.1' viewBox='-0.299738 -0.25065 15.6927 10.8388' width='15.6927pt' xmlns='http://www.w3.org/2000/svg' xmlns:xlink='http://www.w3.org/1999/xlink'>
<defs>
<path d='M2.09454 -0.578182C2.09454 -0.894545 1.83273 -1.15636 1.51636 -1.15636S0.938182 -0.894545 0.938182 -0.578182S1.2 0 1.51636 0S2.09454 -0.261818 2.09454 -0.578182Z' id='g0-58'/>
<path d='M1.38545 -0.84L2.54182 -1.96364C4.24364 -3.46909 4.89818 -4.05818 4.89818 -5.14909C4.89818 -6.39273 3.91636 -7.26545 2.58545 -7.26545C1.35273 -7.26545 0.545454 -6.26182 0.545454 -5.29091C0.545454 -4.68 1.09091 -4.68 1.12364 -4.68C1.30909 -4.68 1.69091 -4.81091 1.69091 -5.25818C1.69091 -5.54182 1.49455 -5.82545 1.11273 -5.82545C1.02545 -5.82545 1.00364 -5.82545 0.970909 -5.81454C1.22182 -6.52363 1.81091 -6.92727 2.44364 -6.92727C3.43636 -6.92727 3.90545 -6.04363 3.90545 -5.14909C3.90545 -4.27636 3.36 -3.41454 2.76 -2.73818L0.665454 -0.403636C0.545454 -0.283636 0.545454 -0.261818 0.545454 0H4.59273L4.89818 -1.89818H4.62545C4.57091 -1.57091 4.49454 -1.09091 4.38545 -0.927272C4.30909 -0.84 3.58909 -0.84 3.34909 -0.84H1.38545Z' id='g1-50'/>
<path d='M3.16364 -3.84C4.05818 -4.13454 4.69091 -4.89818 4.69091 -5.76C4.69091 -6.65454 3.73091 -7.26545 2.68364 -7.26545C1.58182 -7.26545 0.752727 -6.61091 0.752727 -5.78182C0.752727 -5.42182 0.992727 -5.21454 1.30909 -5.21454C1.64727 -5.21454 1.86545 -5.45454 1.86545 -5.77091C1.86545 -6.31636 1.35273 -6.31636 1.18909 -6.31636C1.52727 -6.85091 2.24727 -6.99273 2.64 -6.99273C3.08727 -6.99273 3.68727 -6.75273 3.68727 -5.77091C3.68727 -5.64 3.66545 -5.00727 3.38182 -4.52727C3.05454 -4.00364 2.68364 -3.97091 2.41091 -3.96C2.32364 -3.94909 2.06182 -3.92727 1.98545 -3.92727C1.89818 -3.91636 1.82182 -3.90545 1.82182 -3.79636C1.82182 -3.67636 1.89818 -3.67636 2.08364 -3.67636H2.56364C3.45818 -3.67636 3.86182 -2.93454 3.86182 -1.86545C3.86182 -0.381818 3.10909 -0.0654545 2.62909 -0.0654545C2.16 -0.0654545 1.34182 -0.250909 0.96 -0.894545C1.34182 -0.84 1.68 -1.08 1.68 -1.49455C1.68 -1.88727 1.38545 -2.10545 1.06909 -2.10545C0.807273 -2.10545 0.458182 -1.95273 0.458182 -1.47273C0.458182 -0.48 1.47273 0.24 2.66182 0.24C3.99273 0.24 4.98545 -0.752727 4.98545 -1.86545C4.98545 -2.76 4.29818 -3.61091 3.16364 -3.84Z' id='g1-51'/>
<path d='M2.09454 -6.72C2.09454 -7.01454 1.84364 -7.29818 1.51636 -7.29818C1.14545 -7.29818 0.927272 -6.99273 0.927272 -6.72C0.927272 -6.42545 1.17818 -6.14182 1.50545 -6.14182C1.87636 -6.14182 2.09454 -6.44727 2.09454 -6.72Z' id='g1-95'/>
</defs>
<g id='page1' transform='matrix(1.13 0 0 1.13 -80.23 -67.0906)'>
<use x='70.7347' xlink:href='#g1-50' y='68.7422'/>
<use x='76.1689' xlink:href='#g0-58' y='68.7422'/>
<use x='80.4001' xlink:href='#g1-95' y='66.4089'/>
<use x='79.1879' xlink:href='#g1-51' y='68.7422'/>
</g>
</svg>
