<?xml version='1.0' encoding='UTF-8'?>
<!-- This file was generated by dvisvgm 1.15.1 -->
<svg height='29.4752pt' version='1.1' viewBox='-0.299738 -0.246805 51.0869 29.4752' width='51.0869pt' xmlns='http://www.w3.org/2000/svg' xmlns:xlink='http://www.w3.org/1999/xlink'>
<defs>
<path d='M4.53818 16.2436C4.53818 15.7309 4.53818 14.9236 3.85091 14.04C3.42545 13.4945 2.80364 12.9927 2.05091 12.6545C4.17818 11.6291 4.53818 10.0582 4.53818 9.43636V3.15273C4.53818 2.47636 4.53818 1.08 6.65454 0.0327273C6.74182 -0.0109091 6.74182 -0.0327273 6.74182 -0.196364C6.74182 -0.425454 6.74182 -0.436364 6.50182 -0.436364C6.34909 -0.436364 6.32727 -0.436364 6.04363 -0.305454C4.96363 0.229091 3.89454 1.09091 3.66545 2.42182C3.63273 2.64 3.63273 2.73818 3.63273 3.46909V8.50909C3.63273 8.84727 3.63273 9.41454 3.62182 9.53454C3.52364 10.68 2.85818 11.6727 1.61455 12.36C1.44 12.4582 1.42909 12.4691 1.42909 12.6436C1.42909 12.8291 1.44 12.84 1.59273 12.9273C2.32364 13.3309 3.37091 14.1164 3.58909 15.48C3.63273 15.7309 3.63273 15.7527 3.63273 15.8727V22.3527C3.63273 23.9345 4.72364 24.9709 6.07636 25.6145C6.31636 25.7345 6.33818 25.7345 6.50182 25.7345C6.73091 25.7345 6.74182 25.7345 6.74182 25.4945C6.74182 25.32 6.73091 25.3091 6.64363 25.2545C6.19636 25.0364 4.78909 24.3273 4.56 22.7564C4.53818 22.6036 4.53818 22.4836 4.53818 21.8291V16.2436Z' id='g0-26'/>
<path d='M5.01818 -3.49091C5.01818 -4.36364 4.96363 -5.23636 4.58182 -6.04363C4.08 -7.09091 3.18545 -7.26545 2.72727 -7.26545C2.07273 -7.26545 1.27636 -6.98182 0.829091 -5.96727C0.48 -5.21454 0.425454 -4.36364 0.425454 -3.49091C0.425454 -2.67273 0.469091 -1.69091 0.916363 -0.861818C1.38545 0.0218182 2.18182 0.24 2.71636 0.24C3.30545 0.24 4.13454 0.0109091 4.61454 -1.02545C4.96363 -1.77818 5.01818 -2.62909 5.01818 -3.49091ZM2.71636 0C2.29091 0 1.64727 -0.272727 1.45091 -1.32C1.33091 -1.97454 1.33091 -2.97818 1.33091 -3.62182C1.33091 -4.32 1.33091 -5.04 1.41818 -5.62909C1.62545 -6.92727 2.44364 -7.02545 2.71636 -7.02545C3.07636 -7.02545 3.79636 -6.82909 4.00364 -5.74909C4.11273 -5.13818 4.11273 -4.30909 4.11273 -3.62182C4.11273 -2.80364 4.11273 -2.06182 3.99273 -1.36364C3.82909 -0.327273 3.20727 0 2.71636 0Z' id='g2-48'/>
<path d='M3.20727 -6.98182C3.20727 -7.24363 3.20727 -7.26545 2.95636 -7.26545C2.28 -6.56727 1.32 -6.56727 0.970909 -6.56727V-6.22909C1.18909 -6.22909 1.83273 -6.22909 2.4 -6.51273V-0.861818C2.4 -0.469091 2.36727 -0.338182 1.38545 -0.338182H1.03636V0C1.41818 -0.0327273 2.36727 -0.0327273 2.80364 -0.0327273S4.18909 -0.0327273 4.57091 0V-0.338182H4.22182C3.24 -0.338182 3.20727 -0.458182 3.20727 -0.861818V-6.98182Z' id='g2-49'/>
<path d='M4.89818 -2.19273C4.89818 -3.49091 4.00364 -4.58182 2.82545 -4.58182C2.30182 -4.58182 1.83273 -4.40727 1.44 -4.02545V-6.15273C1.65818 -6.08727 2.01818 -6.01091 2.36727 -6.01091C3.70909 -6.01091 4.47273 -7.00363 4.47273 -7.14545C4.47273 -7.21091 4.44 -7.26545 4.36364 -7.26545C4.35273 -7.26545 4.33091 -7.26545 4.27636 -7.23273C4.05818 -7.13454 3.52364 -6.91636 2.79273 -6.91636C2.35636 -6.91636 1.85454 -6.99273 1.34182 -7.22182C1.25455 -7.25454 1.23273 -7.25454 1.21091 -7.25454C1.10182 -7.25454 1.10182 -7.16727 1.10182 -6.99273V-3.76364C1.10182 -3.56727 1.10182 -3.48 1.25455 -3.48C1.33091 -3.48 1.35273 -3.51273 1.39636 -3.57818C1.51636 -3.75273 1.92 -4.34182 2.80364 -4.34182C3.37091 -4.34182 3.64364 -3.84 3.73091 -3.64364C3.90545 -3.24 3.92727 -2.81454 3.92727 -2.26909C3.92727 -1.88727 3.92727 -1.23273 3.66545 -0.774545C3.40364 -0.349091 3 -0.0654545 2.49818 -0.0654545C1.70182 -0.0654545 1.08 -0.643636 0.894545 -1.28727C0.927272 -1.27636 0.96 -1.26545 1.08 -1.26545C1.44 -1.26545 1.62545 -1.53818 1.62545 -1.8S1.44 -2.33454 1.08 -2.33454C0.927272 -2.33454 0.545454 -2.25818 0.545454 -1.75636C0.545454 -0.818182 1.29818 0.24 2.52 0.24C3.78545 0.24 4.89818 -0.807273 4.89818 -2.19273Z' id='g2-53'/>
<path d='M7.49454 -3.56727C7.65818 -3.56727 7.86545 -3.56727 7.86545 -3.78545S7.65818 -4.00364 7.50545 -4.00364H0.970909C0.818182 -4.00364 0.610909 -4.00364 0.610909 -3.78545S0.818182 -3.56727 0.981818 -3.56727H7.49454ZM7.50545 -1.45091C7.65818 -1.45091 7.86545 -1.45091 7.86545 -1.66909S7.65818 -1.88727 7.49454 -1.88727H0.981818C0.818182 -1.88727 0.610909 -1.88727 0.610909 -1.66909S0.818182 -1.45091 0.970909 -1.45091H7.50545Z' id='g2-61'/>
<path d='M3.64364 -3.29454C3.70909 -3.57818 3.96 -4.58182 4.72364 -4.58182C4.77818 -4.58182 5.04 -4.58182 5.26909 -4.44C4.96363 -4.38545 4.74545 -4.11273 4.74545 -3.85091C4.74545 -3.67636 4.86545 -3.46909 5.16 -3.46909C5.4 -3.46909 5.74909 -3.66545 5.74909 -4.10182C5.74909 -4.66909 5.10545 -4.82182 4.73454 -4.82182C4.10182 -4.82182 3.72 -4.24364 3.58909 -3.99273C3.31636 -4.71273 2.72727 -4.82182 2.41091 -4.82182C1.27636 -4.82182 0.654545 -3.41454 0.654545 -3.14182C0.654545 -3.03273 0.763636 -3.03273 0.785454 -3.03273C0.872727 -3.03273 0.905454 -3.05454 0.927272 -3.15273C1.29818 -4.30909 2.01818 -4.58182 2.38909 -4.58182C2.59636 -4.58182 2.97818 -4.48364 2.97818 -3.85091C2.97818 -3.51273 2.79273 -2.78182 2.38909 -1.25455C2.21454 -0.578182 1.83273 -0.12 1.35273 -0.12C1.28727 -0.12 1.03636 -0.12 0.807273 -0.261818C1.08 -0.316364 1.32 -0.545454 1.32 -0.850909C1.32 -1.14545 1.08 -1.23273 0.916363 -1.23273C0.589091 -1.23273 0.316364 -0.949091 0.316364 -0.6C0.316364 -0.0981818 0.861818 0.12 1.34182 0.12C2.06182 0.12 2.45454 -0.643636 2.48727 -0.709091C2.61818 -0.305454 3.01091 0.12 3.66545 0.12C4.78909 0.12 5.41091 -1.28727 5.41091 -1.56C5.41091 -1.66909 5.31273 -1.66909 5.28 -1.66909C5.18182 -1.66909 5.16 -1.62545 5.13818 -1.54909C4.77818 -0.381818 4.03636 -0.12 3.68727 -0.12C3.26182 -0.12 3.08727 -0.469091 3.08727 -0.84C3.08727 -1.08 3.15273 -1.32 3.27273 -1.8L3.64364 -3.29454Z' id='g1-120'/>
<path d='M5.30182 -4.15636C5.34545 -4.30909 5.34545 -4.33091 5.34545 -4.40727C5.34545 -4.60364 5.19273 -4.70182 5.02909 -4.70182C4.92 -4.70182 4.74545 -4.63636 4.64727 -4.47273C4.62545 -4.41818 4.53818 -4.08 4.49454 -3.88364C4.41818 -3.6 4.34182 -3.30545 4.27636 -3.01091L3.78545 -1.04727C3.74182 -0.883636 3.27273 -0.12 2.55273 -0.12C1.99636 -0.12 1.87636 -0.6 1.87636 -1.00364C1.87636 -1.50545 2.06182 -2.18182 2.43273 -3.14182C2.60727 -3.58909 2.65091 -3.70909 2.65091 -3.92727C2.65091 -4.41818 2.30182 -4.82182 1.75636 -4.82182C0.72 -4.82182 0.316364 -3.24 0.316364 -3.14182C0.316364 -3.03273 0.425454 -3.03273 0.447273 -3.03273C0.556363 -3.03273 0.567273 -3.05454 0.621818 -3.22909C0.916363 -4.25454 1.35273 -4.58182 1.72364 -4.58182C1.81091 -4.58182 1.99636 -4.58182 1.99636 -4.23273C1.99636 -3.96 1.88727 -3.67636 1.81091 -3.46909C1.37455 -2.31273 1.17818 -1.69091 1.17818 -1.17818C1.17818 -0.207273 1.86545 0.12 2.50909 0.12C2.93454 0.12 3.30545 -0.0654545 3.61091 -0.370909C3.46909 0.196364 3.33818 0.730909 2.90182 1.30909C2.61818 1.68 2.20364 1.99636 1.70182 1.99636C1.54909 1.99636 1.05818 1.96364 0.872727 1.53818C1.04727 1.53818 1.18909 1.53818 1.34182 1.40727C1.45091 1.30909 1.56 1.16727 1.56 0.96C1.56 0.621818 1.26545 0.578182 1.15636 0.578182C0.905454 0.578182 0.545454 0.752727 0.545454 1.28727C0.545454 1.83273 1.02545 2.23636 1.70182 2.23636C2.82545 2.23636 3.94909 1.24364 4.25454 0.0109091L5.30182 -4.15636Z' id='g1-121'/>
</defs>
<g id='page1' transform='matrix(1.13 0 0 1.13 -80.23 -66.0615)'>
<use x='70.7347' xlink:href='#g0-26' y='58.6778'/>
<use x='78.9166' xlink:href='#g1-120' y='67.2677'/>
<use x='88.1584' xlink:href='#g2-61' y='67.2677'/>
<use x='99.6418' xlink:href='#g2-49' y='67.2677'/>
<use x='105.076' xlink:href='#g2-53' y='67.2677'/>
<use x='110.51' xlink:href='#g2-48' y='67.2677'/>
<use x='79.164' xlink:href='#g1-121' y='80.8169'/>
<use x='87.9142' xlink:href='#g2-61' y='80.8169'/>
<use x='99.3977' xlink:href='#g2-49' y='80.8169'/>
<use x='104.832' xlink:href='#g2-48' y='80.8169'/>
<use x='110.266' xlink:href='#g2-48' y='80.8169'/>
</g>
</svg>
